(footprint "AT42QT1110-MUR" (version 20211014) (generator pcbnew)
  (layer "F.Cu")
  (tedit 5DC5F6A4)
  (descr "QFN, 32 Pin (http://ww1.microchip.com/downloads/en/DeviceDoc/8008S.pdf#page=20), generated with kicad-footprint-generator ipc_noLead_generator.py")
  (tags "QFN NoLead")
  (attr smd)
  (fp_text reference "REF**" (at 0 -3.82) (layer "F.SilkS")
    (effects (font (size 1 1) (thickness 0.15)))
    (tstamp 19037fc6-1bfc-4c75-8fc6-d419959429c3)
  )
  (fp_text value "AT42QT1110-MUR" (at 0 3.82) (layer "F.Fab")
    (effects (font (size 1 1) (thickness 0.15)))
    (tstamp 81c8d8df-66bc-43d5-9805-aaf318d69a01)
  )
  (fp_text user "${REFERENCE}" (at 0 0) (layer "F.Fab")
    (effects (font (size 1 1) (thickness 0.15)))
    (tstamp 9b1f52df-8b7b-43fc-9289-583f9e069a9a)
  )
  (fp_line (start -2.61 2.61) (end -2.61 2.135) (layer "F.SilkS") (width 0.12) (tstamp 1e64aa4c-d7ba-4822-a4f5-5cfddaaeaa78))
  (fp_line (start 2.61 2.61) (end 2.61 2.135) (layer "F.SilkS") (width 0.12) (tstamp 31e21a7b-9cfa-4def-a83f-fb6b0994418e))
  (fp_line (start 2.61 -2.61) (end 2.61 -2.135) (layer "F.SilkS") (width 0.12) (tstamp 3b483c42-4825-4cb0-ada7-c925886e4300))
  (fp_line (start 2.135 -2.61) (end 2.61 -2.61) (layer "F.SilkS") (width 0.12) (tstamp 92e73aa7-d19a-4bef-acee-534d0a47451d))
  (fp_line (start -2.135 2.61) (end -2.61 2.61) (layer "F.SilkS") (width 0.12) (tstamp 99d0aea4-3f6d-4820-bc8c-cf2403f5bd60))
  (fp_line (start -2.135 -2.61) (end -2.61 -2.61) (layer "F.SilkS") (width 0.12) (tstamp ccd03f15-2408-4411-afc6-3b058f0f0d2b))
  (fp_line (start 2.135 2.61) (end 2.61 2.61) (layer "F.SilkS") (width 0.12) (tstamp fbf7c4da-a1d4-4bfe-9d17-eb823c397b41))
  (fp_line (start 3.12 3.12) (end 3.12 -3.12) (layer "F.CrtYd") (width 0.05) (tstamp 1a58e459-4da4-4651-921b-f90f17a5e6a6))
  (fp_line (start -3.12 3.12) (end 3.12 3.12) (layer "F.CrtYd") (width 0.05) (tstamp 2311e8b2-dd1a-4927-8e80-05542b2d924e))
  (fp_line (start 3.12 -3.12) (end -3.12 -3.12) (layer "F.CrtYd") (width 0.05) (tstamp 9de571d7-6c0e-4252-9d59-16364f14a10b))
  (fp_line (start -3.12 -3.12) (end -3.12 3.12) (layer "F.CrtYd") (width 0.05) (tstamp dee2d045-620f-4445-a20b-7c173e33e98e))
  (fp_line (start -2.5 -1.5) (end -1.5 -2.5) (layer "F.Fab") (width 0.1) (tstamp 53fd7bc3-6def-4950-83e8-5c7e99edf2be))
  (fp_line (start 2.5 2.5) (end -2.5 2.5) (layer "F.Fab") (width 0.1) (tstamp 8b3cf4fc-8234-431e-ade8-0e20011b14b7))
  (fp_line (start 2.5 -2.5) (end 2.5 2.5) (layer "F.Fab") (width 0.1) (tstamp a387a21e-00bb-40c1-bff6-78a61e0fb85f))
  (fp_line (start -2.5 2.5) (end -2.5 -1.5) (layer "F.Fab") (width 0.1) (tstamp d0e66c70-7830-4d49-89b9-4af65cfcba14))
  (fp_line (start -1.5 -2.5) (end 2.5 -2.5) (layer "F.Fab") (width 0.1) (tstamp f2c2eadb-274c-4814-a752-e93f4865ecd0))
  (pad "" smd roundrect (at 1.03 1.03) (size 0.83 0.83) (layers "F.Paste") (roundrect_rratio 0.25) (tstamp 47cc1217-7c1b-46ee-ac83-21eef3bd6853))
  (pad "" smd roundrect (at -1.03 -1.03) (size 0.83 0.83) (layers "F.Paste") (roundrect_rratio 0.25) (tstamp 4ca7f372-8e92-4dc9-9d18-55e314e5d843))
  (pad "" smd roundrect (at 1.03 0) (size 0.83 0.83) (layers "F.Paste") (roundrect_rratio 0.25) (tstamp 5db680c1-8d8f-4e43-95a5-fde9562abd9c))
  (pad "" smd roundrect (at 0 0) (size 0.83 0.83) (layers "F.Paste") (roundrect_rratio 0.25) (tstamp 5ff38584-81b5-45e0-91e5-62fac5121644))
  (pad "" smd roundrect (at 1.03 -1.03) (size 0.83 0.83) (layers "F.Paste") (roundrect_rratio 0.25) (tstamp 94622609-b483-498f-af3a-cc21cef66929))
  (pad "" smd roundrect (at -1.03 1.03) (size 0.83 0.83) (layers "F.Paste") (roundrect_rratio 0.25) (tstamp 95be1aec-4e1f-4439-abd0-71b880ddf0c3))
  (pad "" smd roundrect (at 0 1.03) (size 0.83 0.83) (layers "F.Paste") (roundrect_rratio 0.25) (tstamp c32fde56-6018-46a7-a11a-43c75424a83a))
  (pad "" smd roundrect (at 0 -1.03) (size 0.83 0.83) (layers "F.Paste") (roundrect_rratio 0.25) (tstamp ca8ccb3a-9771-4a1e-ad62-7cc8e58f50cf))
  (pad "" smd roundrect (at -1.03 0) (size 0.83 0.83) (layers "F.Paste") (roundrect_rratio 0.25) (tstamp dc01bd3f-bd7c-4b26-9d8b-a0747b003f10))
  (pad "1" smd roundrect (at -2.4375 -1.75) (size 0.875 0.25) (layers "F.Cu" "F.Paste" "F.Mask") (roundrect_rratio 0.25) (tstamp 08e92222-3ab9-4854-b7fb-b375bfef9cfe))
  (pad "2" smd roundrect (at -2.4375 -1.25) (size 0.875 0.25) (layers "F.Cu" "F.Paste" "F.Mask") (roundrect_rratio 0.25) (tstamp 2f897184-2c80-40e6-b459-75e24200bab8))
  (pad "3" smd roundrect (at -2.4375 -0.75) (size 0.875 0.25) (layers "F.Cu" "F.Paste" "F.Mask") (roundrect_rratio 0.25) (tstamp 72eee532-978c-4377-940f-db34424e855c))
  (pad "4" smd roundrect (at -2.4375 -0.25) (size 0.875 0.25) (layers "F.Cu" "F.Paste" "F.Mask") (roundrect_rratio 0.25) (tstamp 1fbae9ae-6e5f-4d54-95a4-9767e196b9ac))
  (pad "5" smd roundrect (at -2.4375 0.25) (size 0.875 0.25) (layers "F.Cu" "F.Paste" "F.Mask") (roundrect_rratio 0.25) (tstamp 10368476-c930-48e3-bc0c-fac210cfe221))
  (pad "6" smd roundrect (at -2.4375 0.75) (size 0.875 0.25) (layers "F.Cu" "F.Paste" "F.Mask") (roundrect_rratio 0.25) (tstamp ac34c090-63c8-47c9-8082-54bb4339ae1a))
  (pad "7" smd roundrect (at -2.4375 1.25) (size 0.875 0.25) (layers "F.Cu" "F.Paste" "F.Mask") (roundrect_rratio 0.25) (tstamp 8f1acfc1-9865-4e7f-b073-85d9f026fa93))
  (pad "8" smd roundrect (at -2.4375 1.75) (size 0.875 0.25) (layers "F.Cu" "F.Paste" "F.Mask") (roundrect_rratio 0.25) (tstamp 6d675404-61e7-4e57-b265-d8981e0487bc))
  (pad "9" smd roundrect (at -1.75 2.4375) (size 0.25 0.875) (layers "F.Cu" "F.Paste" "F.Mask") (roundrect_rratio 0.25) (tstamp 0b7798c3-357a-43d5-9834-2b66d43fd44a))
  (pad "10" smd roundrect (at -1.25 2.4375) (size 0.25 0.875) (layers "F.Cu" "F.Paste" "F.Mask") (roundrect_rratio 0.25) (tstamp 1d151a08-1c6e-491c-afe2-c0445125588d))
  (pad "11" smd roundrect (at -0.75 2.4375) (size 0.25 0.875) (layers "F.Cu" "F.Paste" "F.Mask") (roundrect_rratio 0.25) (tstamp 608600ef-72ec-4ac3-ae96-80665bfdde92))
  (pad "12" smd roundrect (at -0.25 2.4375) (size 0.25 0.875) (layers "F.Cu" "F.Paste" "F.Mask") (roundrect_rratio 0.25) (tstamp 90f889ba-75d7-49f3-b905-d29ab7df31df))
  (pad "13" smd roundrect (at 0.25 2.4375) (size 0.25 0.875) (layers "F.Cu" "F.Paste" "F.Mask") (roundrect_rratio 0.25) (tstamp 1a48b529-15e3-40a9-ab1e-383ece7da4de))
  (pad "14" smd roundrect (at 0.75 2.4375) (size 0.25 0.875) (layers "F.Cu" "F.Paste" "F.Mask") (roundrect_rratio 0.25) (tstamp 61de9fcd-9130-4841-9bf3-c9a963ec2996))
  (pad "15" smd roundrect (at 1.25 2.4375) (size 0.25 0.875) (layers "F.Cu" "F.Paste" "F.Mask") (roundrect_rratio 0.25) (tstamp d1c5ea98-b586-4db9-a15e-80f9700d15c6))
  (pad "16" smd roundrect (at 1.75 2.4375) (size 0.25 0.875) (layers "F.Cu" "F.Paste" "F.Mask") (roundrect_rratio 0.25) (tstamp fc5c76c2-8735-479f-bce9-a02dc2561ff5))
  (pad "17" smd roundrect (at 2.4375 1.75) (size 0.875 0.25) (layers "F.Cu" "F.Paste" "F.Mask") (roundrect_rratio 0.25) (tstamp 178024e9-3de7-42a8-bfc0-53244d763746))
  (pad "18" smd roundrect (at 2.4375 1.25) (size 0.875 0.25) (layers "F.Cu" "F.Paste" "F.Mask") (roundrect_rratio 0.25) (tstamp 35b40dd4-b805-4746-a2f9-659687ab97f7))
  (pad "19" smd roundrect (at 2.4375 0.75) (size 0.875 0.25) (layers "F.Cu" "F.Paste" "F.Mask") (roundrect_rratio 0.25) (tstamp a6520431-077f-4039-bf26-588aa4705079))
  (pad "20" smd roundrect (at 2.4375 0.25) (size 0.875 0.25) (layers "F.Cu" "F.Paste" "F.Mask") (roundrect_rratio 0.25) (tstamp e676ac18-6ebe-4ff3-9677-96fade634b89))
  (pad "21" smd roundrect (at 2.4375 -0.25) (size 0.875 0.25) (layers "F.Cu" "F.Paste" "F.Mask") (roundrect_rratio 0.25) (tstamp 561113eb-902d-44fc-94d4-75f30e22ce72))
  (pad "22" smd roundrect (at 2.4375 -0.75) (size 0.875 0.25) (layers "F.Cu" "F.Paste" "F.Mask") (roundrect_rratio 0.25) (tstamp b35425b3-dc29-4bd4-bc95-75cc1f542814))
  (pad "23" smd roundrect (at 2.4375 -1.25) (size 0.875 0.25) (layers "F.Cu" "F.Paste" "F.Mask") (roundrect_rratio 0.25) (tstamp 3d44cc43-a63d-4949-a7ab-b38f3e6b8a69))
  (pad "24" smd roundrect (at 2.4375 -1.75) (size 0.875 0.25) (layers "F.Cu" "F.Paste" "F.Mask") (roundrect_rratio 0.25) (tstamp cf093771-9d26-4d92-8f13-8eb0f84f79c0))
  (pad "25" smd roundrect (at 1.75 -2.4375) (size 0.25 0.875) (layers "F.Cu" "F.Paste" "F.Mask") (roundrect_rratio 0.25) (tstamp daa1c425-daa3-4c01-9e82-e9e568a6d9dc))
  (pad "26" smd roundrect (at 1.25 -2.4375) (size 0.25 0.875) (layers "F.Cu" "F.Paste" "F.Mask") (roundrect_rratio 0.25) (tstamp d45305ca-5042-4b64-abac-b00906c59bb5))
  (pad "27" smd roundrect (at 0.75 -2.4375) (size 0.25 0.875) (layers "F.Cu" "F.Paste" "F.Mask") (roundrect_rratio 0.25) (tstamp ac17f45f-8922-4186-8bf9-17c770862646))
  (pad "28" smd roundrect (at 0.25 -2.4375) (size 0.25 0.875) (layers "F.Cu" "F.Paste" "F.Mask") (roundrect_rratio 0.25) (tstamp 81638abd-19a5-4b1b-8a9f-57fd1362dbc0))
  (pad "29" smd roundrect (at -0.25 -2.4375) (size 0.25 0.875) (layers "F.Cu" "F.Paste" "F.Mask") (roundrect_rratio 0.25) (tstamp f2a53173-0f60-4997-b701-6f692f91244a))
  (pad "30" smd roundrect (at -0.75 -2.4375) (size 0.25 0.875) (layers "F.Cu" "F.Paste" "F.Mask") (roundrect_rratio 0.25) (tstamp 03f89337-5f6e-4705-9086-160d420ab71f))
  (pad "31" smd roundrect (at -1.25 -2.4375) (size 0.25 0.875) (layers "F.Cu" "F.Paste" "F.Mask") (roundrect_rratio 0.25) (tstamp 6e5a7cb3-68ea-4060-b034-0a74f01ffa02))
  (pad "32" smd roundrect (at -1.75 -2.4375) (size 0.25 0.875) (layers "F.Cu" "F.Paste" "F.Mask") (roundrect_rratio 0.25) (tstamp b1b88bdb-78a8-465c-84ed-952c9ada16e2))
  (pad "33" smd rect (at 0 0) (size 3.1 3.1) (layers "F.Cu" "F.Mask") (tstamp 582803cd-c0ec-4fce-87d0-594c77b7213b))
  (model "${KICAD6_3DMODEL_DIR}/Package_DFN_QFN.3dshapes/QFN-32-1EP_5x5mm_P0.5mm_EP3.1x3.1mm.wrl"
    (offset (xyz 0 0 0))
    (scale (xyz 1 1 1))
    (rotate (xyz 0 0 0))
  )
)
