(footprint "LOGO" (version 20210606) (generator bitmap2component) (layer "F.Cu")
  (at 0 0)
(attr board_only exclude_from_pos_files exclude_from_bom)
 (fp_text reference "G***" (at 0 0) (layer F.SilkS)
  (effects (font (thickness 0.3)))
  )
  (fp_text value "LOGO" (at 0.75 0) (layer F.SilkS) hide
  (effects (font (thickness 0.3)))
  )
  (fp_poly (pts (xy 19.837414 22.593192) (xy 19.990319 22.773685) (xy 20.055970 23.010192) (xy 20.016576 23.250091) (xy 19.911167 23.397211) (xy 19.669114 23.523615) (xy 19.424017 23.494153) (xy 19.274789 23.382500)
     (xy 19.154008 23.146783) (xy 19.160868 22.895089) (xy 19.275775 22.677007) (xy 19.479135 22.542129) (xy 19.615045 22.521334) )(layer F.SilkS) (width  0.000000)
  )
  (fp_poly (pts (xy 19.657647 18.260797) (xy 19.812000 18.372667) (xy 19.938851 18.556981) (xy 19.981334 18.711334) (xy 19.923870 18.895647) (xy 19.812000 19.050000) (xy 19.627686 19.176851) (xy 19.473334 19.219334)
     (xy 19.289020 19.161870) (xy 19.134667 19.050000) (xy 19.007816 18.865686) (xy 18.965334 18.711334) (xy 19.022797 18.527020) (xy 19.134667 18.372667) (xy 19.318981 18.245816) (xy 19.473334 18.203334)
     )(layer F.SilkS) (width  0.000000)
  )
  (fp_poly (pts (xy 31.799578 10.524868) (xy 32.017660 10.639775) (xy 32.152538 10.843135) (xy 32.173334 10.979045) (xy 32.101475 11.201414) (xy 31.920982 11.354319) (xy 31.684475 11.419970) (xy 31.444576 11.380576)
     (xy 31.297456 11.275167) (xy 31.171052 11.033114) (xy 31.200514 10.788017) (xy 31.312167 10.638789) (xy 31.547884 10.518008) )(layer F.SilkS) (width  0.000000)
  )
  (fp_poly (pts (xy 3.563564 -1.408354) (xy 3.708400 -1.337733) (xy 3.781272 -1.184833) (xy 3.810000 -0.973666) (xy 3.779021 -0.754436) (xy 3.708400 -0.609600) (xy 3.555500 -0.536728) (xy 3.344334 -0.508000)
     (xy 3.125103 -0.538979) (xy 2.980267 -0.609600) (xy 2.907395 -0.762500) (xy 2.878667 -0.973666) (xy 2.909646 -1.192897) (xy 2.980267 -1.337733) (xy 3.133167 -1.410605) (xy 3.344334 -1.439333)
     )(layer F.SilkS) (width  0.000000)
  )
  (fp_poly (pts (xy 9.270281 -5.092994) (xy 9.458927 -4.920006) (xy 9.562230 -4.708746) (xy 9.567334 -4.656666) (xy 9.495661 -4.445719) (xy 9.322673 -4.257073) (xy 9.111413 -4.153770) (xy 9.059334 -4.148666)
     (xy 8.875020 -4.206130) (xy 8.720667 -4.318000) (xy 8.593816 -4.502314) (xy 8.551334 -4.656666) (xy 8.623006 -4.867614) (xy 8.795994 -5.056260) (xy 9.007254 -5.159563) (xy 9.059334 -5.164666)
     )(layer F.SilkS) (width  0.000000)
  )
  (fp_poly (pts (xy 13.511578 -8.017132) (xy 13.729660 -7.902225) (xy 13.864538 -7.698865) (xy 13.885334 -7.562955) (xy 13.813475 -7.340586) (xy 13.632982 -7.187681) (xy 13.396475 -7.122030) (xy 13.156576 -7.161424)
     (xy 13.009456 -7.266833) (xy 12.883052 -7.508886) (xy 12.912514 -7.753983) (xy 13.024167 -7.903211) (xy 13.259884 -8.023992) )(layer F.SilkS) (width  0.000000)
  )
  (fp_poly (pts (xy 34.569414 -10.680808) (xy 34.722319 -10.500315) (xy 34.787970 -10.263808) (xy 34.748576 -10.023909) (xy 34.643167 -9.876789) (xy 34.401114 -9.750385) (xy 34.156017 -9.779847) (xy 34.006789 -9.891500)
     (xy 33.886008 -10.127217) (xy 33.892868 -10.378911) (xy 34.007775 -10.596993) (xy 34.211135 -10.731871) (xy 34.347045 -10.752666) )(layer F.SilkS) (width  0.000000)
  )
  (fp_poly (pts (xy 18.930683 -21.789156) (xy 19.088992 -21.574835) (xy 19.134667 -21.342145) (xy 19.068535 -21.120421) (xy 18.906239 -20.909884) (xy 18.701923 -20.769450) (xy 18.584334 -20.743333) (xy 18.450360 -20.792152)
     (xy 18.267784 -20.910487) (xy 18.257085 -20.918812) (xy 18.076958 -21.154025) (xy 18.039632 -21.430707) (xy 18.148466 -21.696335) (xy 18.203334 -21.759333) (xy 18.443854 -21.901115) (xy 18.700971 -21.904486)
     )(layer F.SilkS) (width  0.000000)
  )
)
