(kicad_sch (version 20211123) (generator eeschema)

  (uuid 738e6ea3-ab44-46e7-a900-01193736a262)

  (paper "A4")

  (lib_symbols
    (symbol "Device:C" (pin_numbers hide) (pin_names (offset 0.254)) (in_bom yes) (on_board yes)
      (property "Reference" "C" (id 0) (at 0.635 2.54 0)
        (effects (font (size 1.27 1.27)) (justify left))
      )
      (property "Value" "C" (id 1) (at 0.635 -2.54 0)
        (effects (font (size 1.27 1.27)) (justify left))
      )
      (property "Footprint" "" (id 2) (at 0.9652 -3.81 0)
        (effects (font (size 1.27 1.27)) hide)
      )
      (property "Datasheet" "~" (id 3) (at 0 0 0)
        (effects (font (size 1.27 1.27)) hide)
      )
      (property "ki_keywords" "cap capacitor" (id 4) (at 0 0 0)
        (effects (font (size 1.27 1.27)) hide)
      )
      (property "ki_description" "Unpolarized capacitor" (id 5) (at 0 0 0)
        (effects (font (size 1.27 1.27)) hide)
      )
      (property "ki_fp_filters" "C_*" (id 6) (at 0 0 0)
        (effects (font (size 1.27 1.27)) hide)
      )
      (symbol "C_0_1"
        (polyline
          (pts
            (xy -2.032 -0.762)
            (xy 2.032 -0.762)
          )
          (stroke (width 0.508) (type default) (color 0 0 0 0))
          (fill (type none))
        )
        (polyline
          (pts
            (xy -2.032 0.762)
            (xy 2.032 0.762)
          )
          (stroke (width 0.508) (type default) (color 0 0 0 0))
          (fill (type none))
        )
      )
      (symbol "C_1_1"
        (pin passive line (at 0 3.81 270) (length 2.794)
          (name "~" (effects (font (size 1.27 1.27))))
          (number "1" (effects (font (size 1.27 1.27))))
        )
        (pin passive line (at 0 -3.81 90) (length 2.794)
          (name "~" (effects (font (size 1.27 1.27))))
          (number "2" (effects (font (size 1.27 1.27))))
        )
      )
    )
    (symbol "Device:Crystal" (pin_numbers hide) (pin_names (offset 1.016) hide) (in_bom yes) (on_board yes)
      (property "Reference" "Y" (id 0) (at 0 3.81 0)
        (effects (font (size 1.27 1.27)))
      )
      (property "Value" "Crystal" (id 1) (at 0 -3.81 0)
        (effects (font (size 1.27 1.27)))
      )
      (property "Footprint" "" (id 2) (at 0 0 0)
        (effects (font (size 1.27 1.27)) hide)
      )
      (property "Datasheet" "~" (id 3) (at 0 0 0)
        (effects (font (size 1.27 1.27)) hide)
      )
      (property "ki_keywords" "quartz ceramic resonator oscillator" (id 4) (at 0 0 0)
        (effects (font (size 1.27 1.27)) hide)
      )
      (property "ki_description" "Two pin crystal" (id 5) (at 0 0 0)
        (effects (font (size 1.27 1.27)) hide)
      )
      (property "ki_fp_filters" "Crystal*" (id 6) (at 0 0 0)
        (effects (font (size 1.27 1.27)) hide)
      )
      (symbol "Crystal_0_1"
        (rectangle (start -1.143 2.54) (end 1.143 -2.54)
          (stroke (width 0.3048) (type default) (color 0 0 0 0))
          (fill (type none))
        )
        (polyline
          (pts
            (xy -2.54 0)
            (xy -1.905 0)
          )
          (stroke (width 0) (type default) (color 0 0 0 0))
          (fill (type none))
        )
        (polyline
          (pts
            (xy -1.905 -1.27)
            (xy -1.905 1.27)
          )
          (stroke (width 0.508) (type default) (color 0 0 0 0))
          (fill (type none))
        )
        (polyline
          (pts
            (xy 1.905 -1.27)
            (xy 1.905 1.27)
          )
          (stroke (width 0.508) (type default) (color 0 0 0 0))
          (fill (type none))
        )
        (polyline
          (pts
            (xy 2.54 0)
            (xy 1.905 0)
          )
          (stroke (width 0) (type default) (color 0 0 0 0))
          (fill (type none))
        )
      )
      (symbol "Crystal_1_1"
        (pin passive line (at -3.81 0 0) (length 1.27)
          (name "1" (effects (font (size 1.27 1.27))))
          (number "1" (effects (font (size 1.27 1.27))))
        )
        (pin passive line (at 3.81 0 180) (length 1.27)
          (name "2" (effects (font (size 1.27 1.27))))
          (number "2" (effects (font (size 1.27 1.27))))
        )
      )
    )
    (symbol "Device:R" (pin_numbers hide) (pin_names (offset 0)) (in_bom yes) (on_board yes)
      (property "Reference" "R" (id 0) (at 2.032 0 90)
        (effects (font (size 1.27 1.27)))
      )
      (property "Value" "R" (id 1) (at 0 0 90)
        (effects (font (size 1.27 1.27)))
      )
      (property "Footprint" "" (id 2) (at -1.778 0 90)
        (effects (font (size 1.27 1.27)) hide)
      )
      (property "Datasheet" "~" (id 3) (at 0 0 0)
        (effects (font (size 1.27 1.27)) hide)
      )
      (property "ki_keywords" "R res resistor" (id 4) (at 0 0 0)
        (effects (font (size 1.27 1.27)) hide)
      )
      (property "ki_description" "Resistor" (id 5) (at 0 0 0)
        (effects (font (size 1.27 1.27)) hide)
      )
      (property "ki_fp_filters" "R_*" (id 6) (at 0 0 0)
        (effects (font (size 1.27 1.27)) hide)
      )
      (symbol "R_0_1"
        (rectangle (start -1.016 -2.54) (end 1.016 2.54)
          (stroke (width 0.254) (type default) (color 0 0 0 0))
          (fill (type none))
        )
      )
      (symbol "R_1_1"
        (pin passive line (at 0 3.81 270) (length 1.27)
          (name "~" (effects (font (size 1.27 1.27))))
          (number "1" (effects (font (size 1.27 1.27))))
        )
        (pin passive line (at 0 -3.81 90) (length 1.27)
          (name "~" (effects (font (size 1.27 1.27))))
          (number "2" (effects (font (size 1.27 1.27))))
        )
      )
    )
    (symbol "Device:Thermistor" (pin_numbers hide) (pin_names (offset 0)) (in_bom yes) (on_board yes)
      (property "Reference" "TH" (id 0) (at 2.54 1.27 90)
        (effects (font (size 1.27 1.27)))
      )
      (property "Value" "Thermistor" (id 1) (at -2.54 0 90)
        (effects (font (size 1.27 1.27)) (justify bottom))
      )
      (property "Footprint" "" (id 2) (at 0 0 0)
        (effects (font (size 1.27 1.27)) hide)
      )
      (property "Datasheet" "~" (id 3) (at 0 0 0)
        (effects (font (size 1.27 1.27)) hide)
      )
      (property "ki_keywords" "R res thermistor" (id 4) (at 0 0 0)
        (effects (font (size 1.27 1.27)) hide)
      )
      (property "ki_description" "Temperature dependent resistor" (id 5) (at 0 0 0)
        (effects (font (size 1.27 1.27)) hide)
      )
      (property "ki_fp_filters" "R_*" (id 6) (at 0 0 0)
        (effects (font (size 1.27 1.27)) hide)
      )
      (symbol "Thermistor_0_1"
        (rectangle (start -1.016 2.54) (end 1.016 -2.54)
          (stroke (width 0.2032) (type default) (color 0 0 0 0))
          (fill (type none))
        )
        (polyline
          (pts
            (xy -1.905 3.175)
            (xy -1.905 1.905)
            (xy 1.905 -1.905)
            (xy 1.905 -3.175)
            (xy 1.905 -3.175)
          )
          (stroke (width 0.254) (type default) (color 0 0 0 0))
          (fill (type none))
        )
      )
      (symbol "Thermistor_1_1"
        (pin passive line (at 0 5.08 270) (length 2.54)
          (name "~" (effects (font (size 1.27 1.27))))
          (number "1" (effects (font (size 1.27 1.27))))
        )
        (pin passive line (at 0 -5.08 90) (length 2.54)
          (name "~" (effects (font (size 1.27 1.27))))
          (number "2" (effects (font (size 1.27 1.27))))
        )
      )
    )
    (symbol "visitenkarte:ATTINY426-MU" (in_bom yes) (on_board yes)
      (property "Reference" "U" (id 0) (at 0 15.24 0)
        (effects (font (size 1.27 1.27)))
      )
      (property "Value" "ATTINY426-MU" (id 1) (at 0 -35.56 0)
        (effects (font (size 1.27 1.27)))
      )
      (property "Footprint" "" (id 2) (at 0 0 0)
        (effects (font (size 1.27 1.27)) hide)
      )
      (property "Datasheet" "" (id 3) (at 0 0 0)
        (effects (font (size 1.27 1.27)) hide)
      )
      (symbol "ATTINY426-MU_0_1"
        (rectangle (start -12.7 12.7) (end 12.7 -36.83)
          (stroke (width 0) (type default) (color 0 0 0 0))
          (fill (type background))
        )
      )
      (symbol "ATTINY426-MU_1_1"
        (pin bidirectional line (at 15.24 5.08 180) (length 2.54)
          (name "PA2" (effects (font (size 1.27 1.27))))
          (number "1" (effects (font (size 1.27 1.27))))
        )
        (pin bidirectional line (at 15.24 -20.32 180) (length 2.54)
          (name "PB4" (effects (font (size 1.27 1.27))))
          (number "10" (effects (font (size 1.27 1.27))))
        )
        (pin bidirectional line (at 15.24 -17.78 180) (length 2.54)
          (name "PB3(TOSC1)" (effects (font (size 1.27 1.27))))
          (number "11" (effects (font (size 1.27 1.27))))
        )
        (pin bidirectional line (at 15.24 -15.24 180) (length 2.54)
          (name "PB2(TOSC2)" (effects (font (size 1.27 1.27))))
          (number "12" (effects (font (size 1.27 1.27))))
        )
        (pin bidirectional line (at 15.24 -12.7 180) (length 2.54)
          (name "PB1" (effects (font (size 1.27 1.27))))
          (number "13" (effects (font (size 1.27 1.27))))
        )
        (pin bidirectional line (at 15.24 -10.16 180) (length 2.54)
          (name "PB0" (effects (font (size 1.27 1.27))))
          (number "14" (effects (font (size 1.27 1.27))))
        )
        (pin bidirectional line (at 15.24 -25.4 180) (length 2.54)
          (name "PC0" (effects (font (size 1.27 1.27))))
          (number "15" (effects (font (size 1.27 1.27))))
        )
        (pin bidirectional line (at 15.24 -27.94 180) (length 2.54)
          (name "PC1" (effects (font (size 1.27 1.27))))
          (number "16" (effects (font (size 1.27 1.27))))
        )
        (pin bidirectional line (at 15.24 -30.48 180) (length 2.54)
          (name "PC2" (effects (font (size 1.27 1.27))))
          (number "17" (effects (font (size 1.27 1.27))))
        )
        (pin bidirectional line (at 15.24 -33.02 180) (length 2.54)
          (name "PC3" (effects (font (size 1.27 1.27))))
          (number "18" (effects (font (size 1.27 1.27))))
        )
        (pin bidirectional line (at 15.24 10.16 180) (length 2.54)
          (name "PA0(UPDI/~{RESET})" (effects (font (size 1.27 1.27))))
          (number "19" (effects (font (size 1.27 1.27))))
        )
        (pin bidirectional line (at 15.24 2.54 180) (length 2.54)
          (name "(EXTCLK)PA3" (effects (font (size 1.27 1.27))))
          (number "2" (effects (font (size 1.27 1.27))))
        )
        (pin bidirectional line (at 15.24 7.62 180) (length 2.54)
          (name "PA1" (effects (font (size 1.27 1.27))))
          (number "20" (effects (font (size 1.27 1.27))))
        )
        (pin power_in line (at -15.24 10.16 0) (length 2.54)
          (name "GND" (effects (font (size 1.27 1.27))))
          (number "3" (effects (font (size 1.27 1.27))))
        )
        (pin power_in line (at -15.24 7.62 0) (length 2.54)
          (name "VDD" (effects (font (size 1.27 1.27))))
          (number "4" (effects (font (size 1.27 1.27))))
        )
        (pin bidirectional line (at 15.24 0 180) (length 2.54)
          (name "PA4" (effects (font (size 1.27 1.27))))
          (number "5" (effects (font (size 1.27 1.27))))
        )
        (pin bidirectional line (at 15.24 -2.54 180) (length 2.54)
          (name "PA5" (effects (font (size 1.27 1.27))))
          (number "6" (effects (font (size 1.27 1.27))))
        )
        (pin bidirectional line (at 15.24 -5.08 180) (length 2.54)
          (name "PA6" (effects (font (size 1.27 1.27))))
          (number "7" (effects (font (size 1.27 1.27))))
        )
        (pin bidirectional line (at 15.24 -7.62 180) (length 2.54)
          (name "PA7" (effects (font (size 1.27 1.27))))
          (number "8" (effects (font (size 1.27 1.27))))
        )
        (pin bidirectional line (at 15.24 -22.86 180) (length 2.54)
          (name "PB5" (effects (font (size 1.27 1.27))))
          (number "9" (effects (font (size 1.27 1.27))))
        )
      )
    )
    (symbol "visitenkarte:WS2812-2020" (pin_names (offset 0.254)) (in_bom yes) (on_board yes)
      (property "Reference" "D" (id 0) (at 5.08 5.715 0)
        (effects (font (size 1.27 1.27)) (justify right bottom))
      )
      (property "Value" "WS2812-2020" (id 1) (at 1.27 -5.715 0)
        (effects (font (size 1.27 1.27)) (justify left top))
      )
      (property "Footprint" "_CrumpPrints:WS2812-2020" (id 2) (at 1.27 -7.62 0)
        (effects (font (size 1.27 1.27)) (justify left top) hide)
      )
      (property "Datasheet" "" (id 3) (at 2.54 -9.525 0)
        (effects (font (size 1.27 1.27)) (justify left top) hide)
      )
      (property "ki_fp_filters" "LED*WS2812*PLCC*5.0x5.0mm*P3.2mm*" (id 4) (at 0 0 0)
        (effects (font (size 1.27 1.27)) hide)
      )
      (symbol "WS2812-2020_0_0"
        (text "RGB" (at 2.286 -4.191 0)
          (effects (font (size 0.762 0.762)))
        )
      )
      (symbol "WS2812-2020_0_1"
        (polyline
          (pts
            (xy 1.27 -3.556)
            (xy 1.778 -3.556)
          )
          (stroke (width 0) (type default) (color 0 0 0 0))
          (fill (type none))
        )
        (polyline
          (pts
            (xy 1.27 -2.54)
            (xy 1.778 -2.54)
          )
          (stroke (width 0) (type default) (color 0 0 0 0))
          (fill (type none))
        )
        (polyline
          (pts
            (xy 4.699 -3.556)
            (xy 2.667 -3.556)
          )
          (stroke (width 0) (type default) (color 0 0 0 0))
          (fill (type none))
        )
        (polyline
          (pts
            (xy 2.286 -2.54)
            (xy 1.27 -3.556)
            (xy 1.27 -3.048)
          )
          (stroke (width 0) (type default) (color 0 0 0 0))
          (fill (type none))
        )
        (polyline
          (pts
            (xy 2.286 -1.524)
            (xy 1.27 -2.54)
            (xy 1.27 -2.032)
          )
          (stroke (width 0) (type default) (color 0 0 0 0))
          (fill (type none))
        )
        (polyline
          (pts
            (xy 3.683 -1.016)
            (xy 3.683 -3.556)
            (xy 3.683 -4.064)
          )
          (stroke (width 0) (type default) (color 0 0 0 0))
          (fill (type none))
        )
        (polyline
          (pts
            (xy 4.699 -1.524)
            (xy 2.667 -1.524)
            (xy 3.683 -3.556)
            (xy 4.699 -1.524)
          )
          (stroke (width 0) (type default) (color 0 0 0 0))
          (fill (type none))
        )
        (rectangle (start 5.08 5.08) (end -5.08 -5.08)
          (stroke (width 0.254) (type default) (color 0 0 0 0))
          (fill (type background))
        )
      )
      (symbol "WS2812-2020_1_1"
        (pin output line (at 7.62 0 180) (length 2.54)
          (name "DOUT" (effects (font (size 1.27 1.27))))
          (number "1" (effects (font (size 1.27 1.27))))
        )
        (pin power_in line (at 0 -7.62 90) (length 2.54)
          (name "VSS" (effects (font (size 1.27 1.27))))
          (number "2" (effects (font (size 1.27 1.27))))
        )
        (pin input line (at -7.62 0 0) (length 2.54)
          (name "DIN" (effects (font (size 1.27 1.27))))
          (number "3" (effects (font (size 1.27 1.27))))
        )
        (pin power_in line (at 0 7.62 270) (length 2.54)
          (name "VDD" (effects (font (size 1.27 1.27))))
          (number "4" (effects (font (size 1.27 1.27))))
        )
      )
    )
  )

  (junction (at 26.67 81.28) (diameter 0) (color 0 0 0 0)
    (uuid 19bb09c2-9029-42a3-9a65-79d4e772fb08)
  )
  (junction (at 143.51 102.87) (diameter 0) (color 0 0 0 0)
    (uuid 476b1c7f-7e97-46d5-82b5-7415298fab9c)
  )
  (junction (at 139.7 33.02) (diameter 0) (color 0 0 0 0)
    (uuid 47ba683a-da99-4bb5-a128-f65480c2e6f4)
  )
  (junction (at 35.56 88.9) (diameter 0) (color 0 0 0 0)
    (uuid 4a3ae3a0-23e2-4c3b-9976-547f63163038)
  )
  (junction (at 35.56 81.28) (diameter 0) (color 0 0 0 0)
    (uuid 63709db4-dd0d-4c15-beec-29c1e1cfd1e2)
  )
  (junction (at 220.98 41.91) (diameter 0) (color 0 0 0 0)
    (uuid 7523dc44-b602-4510-b374-95b305212b17)
  )
  (junction (at 26.67 88.9) (diameter 0) (color 0 0 0 0)
    (uuid 771efbb9-0c0f-44fa-bcca-aed2d8b36461)
  )
  (junction (at 120.65 33.02) (diameter 0) (color 0 0 0 0)
    (uuid 77f635fe-47f1-4fe7-b647-206134e0b8e9)
  )
  (junction (at 81.28 33.02) (diameter 0) (color 0 0 0 0)
    (uuid 892b1c84-25b4-4301-bd4d-f1dacf185519)
  )
  (junction (at 16.51 81.28) (diameter 0) (color 0 0 0 0)
    (uuid a438b744-7726-4842-a2c9-4bbc59a2f7f1)
  )
  (junction (at 41.91 33.02) (diameter 0) (color 0 0 0 0)
    (uuid a732db6d-e284-4489-9b3c-940c7469e0ee)
  )
  (junction (at 60.96 33.02) (diameter 0) (color 0 0 0 0)
    (uuid bc1c085f-45c7-4985-bad1-240b7e17c376)
  )
  (junction (at 128.27 102.87) (diameter 0) (color 0 0 0 0)
    (uuid c7afb4b6-482d-49ca-af19-e5b50b0b4702)
  )

  (wire (pts (xy 35.56 81.28) (xy 41.91 81.28))
    (stroke (width 0) (type default) (color 0 0 0 0))
    (uuid 0a21b239-6341-4147-87f3-55f1f6f0127d)
  )
  (wire (pts (xy 16.51 78.74) (xy 16.51 81.28))
    (stroke (width 0) (type default) (color 0 0 0 0))
    (uuid 10277375-786c-4b80-ae48-df43c962b73e)
  )
  (wire (pts (xy 120.65 29.21) (xy 120.65 33.02))
    (stroke (width 0) (type default) (color 0 0 0 0))
    (uuid 1072ab3c-caa8-4621-92c6-2b99620e26b5)
  )
  (wire (pts (xy 16.51 88.9) (xy 26.67 88.9))
    (stroke (width 0) (type default) (color 0 0 0 0))
    (uuid 225921ca-5709-4969-8c45-79d2d573e5fb)
  )
  (wire (pts (xy 26.67 81.28) (xy 35.56 81.28))
    (stroke (width 0) (type default) (color 0 0 0 0))
    (uuid 28d9463e-fe32-4406-a361-ccb5412d3963)
  )
  (wire (pts (xy 88.9 40.64) (xy 113.03 40.64))
    (stroke (width 0) (type default) (color 0 0 0 0))
    (uuid 2f8ed9d8-5faa-4ea3-a062-1728097974a8)
  )
  (wire (pts (xy 220.98 43.18) (xy 220.98 41.91))
    (stroke (width 0) (type default) (color 0 0 0 0))
    (uuid 31d2301e-c275-4d6d-b5c9-73cfe9359e9a)
  )
  (wire (pts (xy 60.96 29.21) (xy 60.96 33.02))
    (stroke (width 0) (type default) (color 0 0 0 0))
    (uuid 357c642c-7b83-4efa-aabf-cdd1d9994fde)
  )
  (wire (pts (xy 128.27 102.87) (xy 128.27 106.68))
    (stroke (width 0) (type default) (color 0 0 0 0))
    (uuid 35e4dc33-c125-4911-9c3d-6ab1bc61049d)
  )
  (wire (pts (xy 68.58 33.02) (xy 81.28 33.02))
    (stroke (width 0) (type default) (color 0 0 0 0))
    (uuid 43d1d6c4-6277-429f-8d24-9b80c1b2666b)
  )
  (wire (pts (xy 48.26 33.02) (xy 60.96 33.02))
    (stroke (width 0) (type default) (color 0 0 0 0))
    (uuid 4b0e5c44-95f5-4f53-9958-6fcb33563bfa)
  )
  (wire (pts (xy 35.56 92.71) (xy 35.56 88.9))
    (stroke (width 0) (type default) (color 0 0 0 0))
    (uuid 50b77dad-773d-4cbe-8473-be7631e3015d)
  )
  (wire (pts (xy 214.63 41.91) (xy 220.98 41.91))
    (stroke (width 0) (type default) (color 0 0 0 0))
    (uuid 56284f1c-da1d-4958-9b58-31652ffcfdc8)
  )
  (wire (pts (xy 143.51 106.68) (xy 143.51 102.87))
    (stroke (width 0) (type default) (color 0 0 0 0))
    (uuid 5cbceb7a-6bf3-4550-b36a-2132af52d5df)
  )
  (wire (pts (xy 81.28 29.21) (xy 81.28 33.02))
    (stroke (width 0) (type default) (color 0 0 0 0))
    (uuid 66c566fe-48a4-4c0b-b841-2118ca71abdb)
  )
  (wire (pts (xy 49.53 40.64) (xy 53.34 40.64))
    (stroke (width 0) (type default) (color 0 0 0 0))
    (uuid 776caa7f-b427-409d-aa36-1ba2b199995b)
  )
  (wire (pts (xy 68.58 40.64) (xy 73.66 40.64))
    (stroke (width 0) (type default) (color 0 0 0 0))
    (uuid 7c87949a-ce19-4eba-b1f2-95de7b0c95f1)
  )
  (wire (pts (xy 29.21 33.02) (xy 41.91 33.02))
    (stroke (width 0) (type default) (color 0 0 0 0))
    (uuid 7df1f71b-50dd-4901-9d8a-399cd6bec413)
  )
  (wire (pts (xy 128.27 40.64) (xy 132.08 40.64))
    (stroke (width 0) (type default) (color 0 0 0 0))
    (uuid 7f3994a0-52f4-4384-a51e-65e2f8097034)
  )
  (wire (pts (xy 143.51 106.68) (xy 149.86 106.68))
    (stroke (width 0) (type default) (color 0 0 0 0))
    (uuid 845e1e79-dfba-42ff-b6a3-ce71af6a3ebb)
  )
  (wire (pts (xy 120.65 106.68) (xy 128.27 106.68))
    (stroke (width 0) (type default) (color 0 0 0 0))
    (uuid 8ca35ddf-dbc3-497e-bb7c-aecc1d9041fc)
  )
  (wire (pts (xy 127 33.02) (xy 139.7 33.02))
    (stroke (width 0) (type default) (color 0 0 0 0))
    (uuid 9e39071a-70a3-4fbb-a380-1eb5a875c71a)
  )
  (wire (pts (xy 16.51 81.28) (xy 26.67 81.28))
    (stroke (width 0) (type default) (color 0 0 0 0))
    (uuid 9fb23a16-cbf3-441e-898d-de3ebe7d32c1)
  )
  (wire (pts (xy 139.7 102.87) (xy 143.51 102.87))
    (stroke (width 0) (type default) (color 0 0 0 0))
    (uuid a9ada0af-aaf5-4e74-a4fe-75cb70771c1a)
  )
  (wire (pts (xy 41.91 29.21) (xy 41.91 33.02))
    (stroke (width 0) (type default) (color 0 0 0 0))
    (uuid b2e7ea90-480e-476d-b39a-7e6070dca492)
  )
  (wire (pts (xy 26.67 88.9) (xy 35.56 88.9))
    (stroke (width 0) (type default) (color 0 0 0 0))
    (uuid b401bf44-8d7d-43e9-93bc-0e9db3faad04)
  )
  (wire (pts (xy 107.95 33.02) (xy 120.65 33.02))
    (stroke (width 0) (type default) (color 0 0 0 0))
    (uuid c5c3c790-3145-4f2b-bd61-59329be773b5)
  )
  (wire (pts (xy 139.7 29.21) (xy 139.7 33.02))
    (stroke (width 0) (type default) (color 0 0 0 0))
    (uuid d9292249-840d-4614-a3ed-da21b0be496b)
  )
  (wire (pts (xy 128.27 102.87) (xy 132.08 102.87))
    (stroke (width 0) (type default) (color 0 0 0 0))
    (uuid e00625b5-6b14-4bf2-8c48-477043a3fa56)
  )

  (global_label "MSR_TMP" (shape output) (at 214.63 41.91 180) (fields_autoplaced)
    (effects (font (size 1.27 1.27)) (justify right))
    (uuid 07add7fc-d10d-49d9-a741-74ff3c5d9f80)
    (property "Referenzen zwischen Schaltplänen" "${INTERSHEET_REFS}" (id 0) (at 203.7182 41.8306 0)
      (effects (font (size 1.27 1.27)) (justify right) hide)
    )
  )
  (global_label "MSR_TMP" (shape input) (at 72.39 83.82 0) (fields_autoplaced)
    (effects (font (size 1.27 1.27)) (justify left))
    (uuid 385e01b0-7085-4888-853e-ee8e645e7880)
    (property "Referenzen zwischen Schaltplänen" "${INTERSHEET_REFS}" (id 0) (at 83.3018 83.7406 0)
      (effects (font (size 1.27 1.27)) (justify left) hide)
    )
  )
  (global_label "XTAL32N" (shape bidirectional) (at 120.65 106.68 180) (fields_autoplaced)
    (effects (font (size 1.27 1.27)) (justify right))
    (uuid 43eede95-eab1-4ffa-bfc2-ac5e0603cc87)
    (property "Referenzen zwischen Schaltplänen" "${INTERSHEET_REFS}" (id 0) (at 110.2825 106.7594 0)
      (effects (font (size 1.27 1.27)) (justify right) hide)
    )
  )
  (global_label "CNTRL" (shape input) (at 34.29 40.64 180) (fields_autoplaced)
    (effects (font (size 1.27 1.27)) (justify right))
    (uuid 5bde932c-8c25-45cb-9530-94a7cf10d521)
    (property "Referenzen zwischen Schaltplänen" "${INTERSHEET_REFS}" (id 0) (at 26.0996 40.5606 0)
      (effects (font (size 1.27 1.27)) (justify right) hide)
    )
  )
  (global_label "CNTRL" (shape output) (at 72.39 81.28 0) (fields_autoplaced)
    (effects (font (size 1.27 1.27)) (justify left))
    (uuid 73b735fe-2f5e-4789-a2de-c073493c4495)
    (property "Referenzen zwischen Schaltplänen" "${INTERSHEET_REFS}" (id 0) (at 80.5804 81.2006 0)
      (effects (font (size 1.27 1.27)) (justify left) hide)
    )
  )
  (global_label "XTAL32P" (shape bidirectional) (at 72.39 106.68 0) (fields_autoplaced)
    (effects (font (size 1.27 1.27)) (justify left))
    (uuid a31e0db1-285b-4335-b803-9f58795539cd)
    (property "Referenzen zwischen Schaltplänen" "${INTERSHEET_REFS}" (id 0) (at 82.6971 106.6006 0)
      (effects (font (size 1.27 1.27)) (justify left) hide)
    )
  )
  (global_label "XTAL32P" (shape bidirectional) (at 149.86 106.68 0) (fields_autoplaced)
    (effects (font (size 1.27 1.27)) (justify left))
    (uuid be2efde9-f2b6-4467-9270-c47aa379b4de)
    (property "Referenzen zwischen Schaltplänen" "${INTERSHEET_REFS}" (id 0) (at 160.1671 106.6006 0)
      (effects (font (size 1.27 1.27)) (justify left) hide)
    )
  )
  (global_label "XTAL32N" (shape bidirectional) (at 72.39 104.14 0) (fields_autoplaced)
    (effects (font (size 1.27 1.27)) (justify left))
    (uuid e794eff1-ad75-4639-b6b3-94f02815e01c)
    (property "Referenzen zwischen Schaltplänen" "${INTERSHEET_REFS}" (id 0) (at 82.7575 104.0606 0)
      (effects (font (size 1.27 1.27)) (justify left) hide)
    )
  )

  (hierarchical_label "GND" (shape bidirectional) (at 41.91 48.26 270)
    (effects (font (size 1.27 1.27)) (justify right))
    (uuid 1bbe14b2-f23e-49e5-b064-ed9792418880)
  )
  (hierarchical_label "SCL" (shape bidirectional) (at 72.39 99.06 0)
    (effects (font (size 1.27 1.27)) (justify left))
    (uuid 233ea2e0-928a-4ed1-8a69-70b723f5072f)
  )
  (hierarchical_label "GND" (shape bidirectional) (at 139.7 48.26 270)
    (effects (font (size 1.27 1.27)) (justify right))
    (uuid 292f769e-1a8c-4883-b4f9-f2e91becd4ae)
  )
  (hierarchical_label "GND" (shape bidirectional) (at 68.58 25.4 90)
    (effects (font (size 1.27 1.27)) (justify left))
    (uuid 373e38ec-419c-4a25-bb4e-22a9ec751438)
  )
  (hierarchical_label "GND" (shape bidirectional) (at 120.65 48.26 270)
    (effects (font (size 1.27 1.27)) (justify right))
    (uuid 3742dd4b-ab26-4888-ae06-992f2a23f9ce)
  )
  (hierarchical_label "SDA" (shape bidirectional) (at 72.39 101.6 0)
    (effects (font (size 1.27 1.27)) (justify left))
    (uuid 394b0def-a846-4920-91c5-54d409cfcc35)
  )
  (hierarchical_label "3V3" (shape bidirectional) (at 220.98 31.75 90)
    (effects (font (size 1.27 1.27)) (justify left))
    (uuid 3f62c58f-5a49-43a8-a7a6-2c9895cf1ee4)
  )
  (hierarchical_label "UPDI" (shape bidirectional) (at 72.39 78.74 0)
    (effects (font (size 1.27 1.27)) (justify left))
    (uuid 50c47bdb-8f3b-42a8-9366-4cf215236d27)
  )
  (hierarchical_label "GND" (shape bidirectional) (at 60.96 48.26 270)
    (effects (font (size 1.27 1.27)) (justify right))
    (uuid 604b4c0b-e549-4297-a30d-6e5698b079c5)
  )
  (hierarchical_label "5V" (shape bidirectional) (at 81.28 29.21 90)
    (effects (font (size 1.27 1.27)) (justify left))
    (uuid 609ce29e-d2f8-4e98-a06a-6c81b4827e55)
  )
  (hierarchical_label "GND" (shape bidirectional) (at 143.51 95.25 90)
    (effects (font (size 1.27 1.27)) (justify left))
    (uuid 8088850e-05e3-49ac-b913-075f229f81a2)
  )
  (hierarchical_label "5V" (shape bidirectional) (at 120.65 29.21 90)
    (effects (font (size 1.27 1.27)) (justify left))
    (uuid 94d714b1-0ef6-4221-b7e5-dd65dd376dee)
  )
  (hierarchical_label "GND" (shape bidirectional) (at 35.56 92.71 270)
    (effects (font (size 1.27 1.27)) (justify right))
    (uuid 97beba68-6dbe-41ef-9679-5dfd13065860)
  )
  (hierarchical_label "GND" (shape bidirectional) (at 41.91 78.74 180)
    (effects (font (size 1.27 1.27)) (justify right))
    (uuid 9f38194b-5952-4f8a-8bb1-4a5a7ad57456)
  )
  (hierarchical_label "GND" (shape bidirectional) (at 29.21 25.4 90)
    (effects (font (size 1.27 1.27)) (justify left))
    (uuid a8c7432b-1bbc-4bec-8fec-e5a49aa93c88)
  )
  (hierarchical_label "3V3" (shape bidirectional) (at 16.51 78.74 90)
    (effects (font (size 1.27 1.27)) (justify left))
    (uuid aafe03fd-85d8-4214-aa6e-898f89e27145)
  )
  (hierarchical_label "5V" (shape bidirectional) (at 139.7 29.21 90)
    (effects (font (size 1.27 1.27)) (justify left))
    (uuid ae9885a0-0958-46c2-a4f7-c82ea1ebe7d6)
  )
  (hierarchical_label "GND" (shape bidirectional) (at 220.98 50.8 270)
    (effects (font (size 1.27 1.27)) (justify right))
    (uuid bee8e3f5-aa1a-4189-9996-29193d3ffef1)
  )
  (hierarchical_label "GND" (shape bidirectional) (at 81.28 48.26 270)
    (effects (font (size 1.27 1.27)) (justify right))
    (uuid c22e366b-3214-4126-b610-ebf924b1d628)
  )
  (hierarchical_label "5V" (shape bidirectional) (at 41.91 29.21 90)
    (effects (font (size 1.27 1.27)) (justify left))
    (uuid c83d291c-fe00-41a1-a48d-a79deac7db7f)
  )
  (hierarchical_label "GND" (shape bidirectional) (at 128.27 95.25 90)
    (effects (font (size 1.27 1.27)) (justify left))
    (uuid cae40463-4313-49bd-bca6-6f60af70ac68)
  )
  (hierarchical_label "5V" (shape bidirectional) (at 60.96 29.21 90)
    (effects (font (size 1.27 1.27)) (justify left))
    (uuid ce4bd32a-822b-4228-88aa-66abba546297)
  )
  (hierarchical_label "GND" (shape bidirectional) (at 107.95 25.4 90)
    (effects (font (size 1.27 1.27)) (justify left))
    (uuid d32fde59-2423-43ae-a25f-a52620fdc36f)
  )
  (hierarchical_label "GND" (shape bidirectional) (at 127 25.4 90)
    (effects (font (size 1.27 1.27)) (justify left))
    (uuid dd87ace6-8a90-40cd-8661-4993e2c9c011)
  )
  (hierarchical_label "GND" (shape bidirectional) (at 48.26 25.4 90)
    (effects (font (size 1.27 1.27)) (justify left))
    (uuid e74ce732-6633-4cf7-87d3-9a5d43aa2a58)
  )

  (symbol (lib_id "visitenkarte:WS2812-2020") (at 139.7 40.64 0) (unit 1)
    (in_bom yes) (on_board yes)
    (uuid 300cedf5-6cc8-49bb-8c5f-633be7cd2179)
    (property "Reference" "D7" (id 0) (at 148.59 31.75 0))
    (property "Value" "WS2812-2020" (id 1) (at 148.59 34.29 0))
    (property "Footprint" "visitenkarte:WS2812-2020" (id 2) (at 140.97 48.26 0)
      (effects (font (size 1.27 1.27)) (justify left top) hide)
    )
    (property "Datasheet" "" (id 3) (at 142.24 50.165 0)
      (effects (font (size 1.27 1.27)) (justify left top) hide)
    )
    (pin "1" (uuid 325de8d1-b260-4deb-8399-c5a66317f9c8))
    (pin "2" (uuid 5eb7655d-f51f-4048-bab9-67b3a5409f5f))
    (pin "3" (uuid 03a27023-05dd-4b9a-9d3b-8cbd0eb92f83))
    (pin "4" (uuid 4e1ba6ff-8393-483d-913e-11b1dba6d0a3))
  )

  (symbol (lib_id "Device:C") (at 16.51 85.09 0) (unit 1)
    (in_bom yes) (on_board yes)
    (uuid 37b3c297-9adc-4258-9351-f8cae868a6b6)
    (property "Reference" "C_{power}12" (id 0) (at 17.78 82.55 0)
      (effects (font (size 1.27 1.27)) (justify left))
    )
    (property "Value" "1uF" (id 1) (at 17.78 87.63 0)
      (effects (font (size 1.27 1.27)) (justify left))
    )
    (property "Footprint" "Capacitor_SMD:C_0201_0603Metric" (id 2) (at 17.4752 88.9 0)
      (effects (font (size 1.27 1.27)) hide)
    )
    (property "Datasheet" "https://www.mouser.at/ProductDetail/Murata-Electronics/GRM033C81E104ME14D?qs=P%2FC4Eoq9CDx%2F5pf2pjubOA%3D%3D" (id 3) (at 16.51 85.09 0)
      (effects (font (size 1.27 1.27)) hide)
    )
    (pin "1" (uuid 1e6e743f-51cb-4a58-b1e9-45e7ba55264b))
    (pin "2" (uuid 4d657def-8b0e-4aa1-b56a-d325b87a6725))
  )

  (symbol (lib_id "visitenkarte:WS2812-2020") (at 41.91 40.64 0) (unit 1)
    (in_bom yes) (on_board yes)
    (uuid 51a760c8-9136-45dc-a259-bd7ce18fb3b1)
    (property "Reference" "D2" (id 0) (at 50.8 31.75 0))
    (property "Value" "WS2812-2020" (id 1) (at 50.8 34.29 0))
    (property "Footprint" "visitenkarte:WS2812-2020" (id 2) (at 43.18 48.26 0)
      (effects (font (size 1.27 1.27)) (justify left top) hide)
    )
    (property "Datasheet" "" (id 3) (at 44.45 50.165 0)
      (effects (font (size 1.27 1.27)) (justify left top) hide)
    )
    (pin "1" (uuid 5bfa7524-d141-4060-9e92-197ccf6436ac))
    (pin "2" (uuid 60d8cfb2-b96c-4ccb-be68-e143819bc2e3))
    (pin "3" (uuid d57d4eb7-6fa3-48b2-89d6-9f7960049292))
    (pin "4" (uuid fd4bf9bc-9062-47d9-bb5d-f57405f9dadf))
  )

  (symbol (lib_id "Device:C") (at 35.56 85.09 0) (unit 1)
    (in_bom yes) (on_board yes)
    (uuid 524156ca-79d1-43a9-bd83-4772468e9fde)
    (property "Reference" "C_{power}14" (id 0) (at 36.83 82.55 0)
      (effects (font (size 1.27 1.27)) (justify left))
    )
    (property "Value" "100nF" (id 1) (at 36.83 87.63 0)
      (effects (font (size 1.27 1.27)) (justify left))
    )
    (property "Footprint" "Capacitor_SMD:C_0201_0603Metric" (id 2) (at 36.5252 88.9 0)
      (effects (font (size 1.27 1.27)) hide)
    )
    (property "Datasheet" "https://www.mouser.at/ProductDetail/TDK/C0603X5R1E104K030BB?qs=6JAMGB%252BEdkw5r7LrYHn6NA%3D%3D" (id 3) (at 35.56 85.09 0)
      (effects (font (size 1.27 1.27)) hide)
    )
    (pin "1" (uuid b1c68bb6-c307-4a0b-8c49-1846ffd8f7f4))
    (pin "2" (uuid cff7274c-fc47-4b9f-bbc5-b83c491cf859))
  )

  (symbol (lib_id "Device:C") (at 107.95 29.21 0) (unit 1)
    (in_bom yes) (on_board yes)
    (uuid 79e6b32c-2534-45b1-8ccb-02accd05856f)
    (property "Reference" "C_{LED}4" (id 0) (at 110.871 28.0416 0)
      (effects (font (size 1.27 1.27)) (justify left))
    )
    (property "Value" "100nF" (id 1) (at 110.871 30.353 0)
      (effects (font (size 1.27 1.27)) (justify left))
    )
    (property "Footprint" "Capacitor_SMD:C_0201_0603Metric" (id 2) (at 108.9152 33.02 0)
      (effects (font (size 1.27 1.27)) hide)
    )
    (property "Datasheet" "https://www.mouser.at/ProductDetail/TDK/C0603X5R1E104K030BB?qs=6JAMGB%252BEdkw5r7LrYHn6NA%3D%3D" (id 3) (at 107.95 29.21 0)
      (effects (font (size 1.27 1.27)) hide)
    )
    (pin "1" (uuid 1e9bb4a8-93d2-4218-bafe-1b79b449fd73))
    (pin "2" (uuid f95ca952-8fa5-4e1f-a349-f92c90f20933))
  )

  (symbol (lib_id "visitenkarte:WS2812-2020") (at 81.28 40.64 0) (unit 1)
    (in_bom yes) (on_board yes)
    (uuid 7a7ba03c-55e2-4b3f-bd91-cbf39f0fa61b)
    (property "Reference" "D4" (id 0) (at 90.17 31.75 0))
    (property "Value" "WS2812-2020" (id 1) (at 90.17 34.29 0))
    (property "Footprint" "visitenkarte:WS2812-2020" (id 2) (at 82.55 48.26 0)
      (effects (font (size 1.27 1.27)) (justify left top) hide)
    )
    (property "Datasheet" "" (id 3) (at 83.82 50.165 0)
      (effects (font (size 1.27 1.27)) (justify left top) hide)
    )
    (pin "1" (uuid d89d1c74-59ba-4140-96ee-2387ce8d88ab))
    (pin "2" (uuid c1fdd660-3327-4c70-9698-c68a240a3dea))
    (pin "3" (uuid 75a69d98-1416-4cb2-96e5-d596bdf3459d))
    (pin "4" (uuid b96fffe2-bbf0-44ef-91bb-1809147f6fa7))
  )

  (symbol (lib_id "visitenkarte:WS2812-2020") (at 120.65 40.64 0) (unit 1)
    (in_bom yes) (on_board yes)
    (uuid 8388f66b-09a1-41f9-94ba-dad5e151d989)
    (property "Reference" "D6" (id 0) (at 129.54 31.75 0))
    (property "Value" "WS2812-2020" (id 1) (at 129.54 34.29 0))
    (property "Footprint" "visitenkarte:WS2812-2020" (id 2) (at 121.92 48.26 0)
      (effects (font (size 1.27 1.27)) (justify left top) hide)
    )
    (property "Datasheet" "" (id 3) (at 123.19 50.165 0)
      (effects (font (size 1.27 1.27)) (justify left top) hide)
    )
    (pin "1" (uuid be11fe0b-9b91-4764-9934-25613b0746e3))
    (pin "2" (uuid 75254ca8-ea34-4f87-b2e7-6c545274e576))
    (pin "3" (uuid 606c4ddd-ff4d-416c-a1be-ca1baa1841e6))
    (pin "4" (uuid 0ad26088-4da3-4ef8-9481-c2a0c3b46488))
  )

  (symbol (lib_id "Device:Crystal") (at 135.89 102.87 0) (unit 1)
    (in_bom yes) (on_board yes) (fields_autoplaced)
    (uuid 8f19c9c9-33f3-47e0-8b51-5b9b82e8e52b)
    (property "Reference" "Y2" (id 0) (at 135.89 95.25 0))
    (property "Value" "32.768" (id 1) (at 135.89 97.79 0))
    (property "Footprint" "Crystal:Crystal_SMD_MicroCrystal_CC8V-T1A-2Pin_2.0x1.2mm" (id 2) (at 135.89 102.87 0)
      (effects (font (size 1.27 1.27)) hide)
    )
    (property "Datasheet" "~" (id 3) (at 135.89 102.87 0)
      (effects (font (size 1.27 1.27)) hide)
    )
    (pin "1" (uuid 7acb40d4-f383-4935-9a29-2bf5ea0feded))
    (pin "2" (uuid c1208492-656a-49b3-8528-76a169d1432f))
  )

  (symbol (lib_id "Device:C") (at 143.51 99.06 0) (unit 1)
    (in_bom yes) (on_board yes)
    (uuid a7225523-df6a-47ee-adc5-00f107ed7f66)
    (property "Reference" "C_{clock}4" (id 0) (at 144.78 96.52 0)
      (effects (font (size 1.27 1.27)) (justify left))
    )
    (property "Value" "TBD" (id 1) (at 144.78 101.6 0)
      (effects (font (size 1.27 1.27)) (justify left))
    )
    (property "Footprint" "Capacitor_SMD:C_0201_0603Metric" (id 2) (at 144.4752 102.87 0)
      (effects (font (size 1.27 1.27)) hide)
    )
    (property "Datasheet" "https://www.mouser.de/ProductDetail/Murata-Electronics/GRM0335C1H8R0DA01D?qs=7vGxPDjevFODplPjVNZ5IA%3D%3D" (id 3) (at 143.51 99.06 0)
      (effects (font (size 1.27 1.27)) hide)
    )
    (pin "1" (uuid 93a3b591-3bfa-4b0c-80cd-fb93a6eb7d97))
    (pin "2" (uuid 08d94a26-4e93-4c56-9d8e-5b896ed38ca9))
  )

  (symbol (lib_id "Device:C") (at 48.26 29.21 0) (unit 1)
    (in_bom yes) (on_board yes)
    (uuid a980e23d-e09f-40ab-9bdd-8fbd7a3c1e62)
    (property "Reference" "C_{LED}2" (id 0) (at 51.181 28.0416 0)
      (effects (font (size 1.27 1.27)) (justify left))
    )
    (property "Value" "100nF" (id 1) (at 51.181 30.353 0)
      (effects (font (size 1.27 1.27)) (justify left))
    )
    (property "Footprint" "Capacitor_SMD:C_0201_0603Metric" (id 2) (at 49.2252 33.02 0)
      (effects (font (size 1.27 1.27)) hide)
    )
    (property "Datasheet" "https://www.mouser.at/ProductDetail/TDK/C0603X5R1E104K030BB?qs=6JAMGB%252BEdkw5r7LrYHn6NA%3D%3D" (id 3) (at 48.26 29.21 0)
      (effects (font (size 1.27 1.27)) hide)
    )
    (pin "1" (uuid b4845e8d-4fd8-4ef0-a39f-416a65ee8c7b))
    (pin "2" (uuid 25e79eb8-65a0-4db9-a390-7764b26fcbef))
  )

  (symbol (lib_id "Device:C") (at 26.67 85.09 0) (unit 1)
    (in_bom yes) (on_board yes)
    (uuid ac6a3703-8fba-4909-a099-c970c6c12b48)
    (property "Reference" "C_{power}13" (id 0) (at 27.94 82.55 0)
      (effects (font (size 1.27 1.27)) (justify left))
    )
    (property "Value" "10nF" (id 1) (at 29.21 87.63 0)
      (effects (font (size 1.27 1.27)) (justify left))
    )
    (property "Footprint" "Capacitor_SMD:C_0201_0603Metric" (id 2) (at 27.6352 88.9 0)
      (effects (font (size 1.27 1.27)) hide)
    )
    (property "Datasheet" "https://www.mouser.at/ProductDetail/Kyocera-AVX/0201YC103KAT4A?qs=vLWxofP3U2zi7c%2FUh%252BJAnA%3D%3D" (id 3) (at 26.67 85.09 0)
      (effects (font (size 1.27 1.27)) hide)
    )
    (pin "1" (uuid 2c534c87-e29d-4e18-a520-b81e834b2d85))
    (pin "2" (uuid 7b9c9b7b-62bf-40dc-9a52-339e50c1620d))
  )

  (symbol (lib_id "Device:C") (at 68.58 29.21 0) (unit 1)
    (in_bom yes) (on_board yes)
    (uuid aceba565-65de-4989-b090-089339c8790e)
    (property "Reference" "C_{LED}3" (id 0) (at 71.501 28.0416 0)
      (effects (font (size 1.27 1.27)) (justify left))
    )
    (property "Value" "100nF" (id 1) (at 71.501 30.353 0)
      (effects (font (size 1.27 1.27)) (justify left))
    )
    (property "Footprint" "Capacitor_SMD:C_0201_0603Metric" (id 2) (at 69.5452 33.02 0)
      (effects (font (size 1.27 1.27)) hide)
    )
    (property "Datasheet" "https://www.mouser.at/ProductDetail/TDK/C0603X5R1E104K030BB?qs=6JAMGB%252BEdkw5r7LrYHn6NA%3D%3D" (id 3) (at 68.58 29.21 0)
      (effects (font (size 1.27 1.27)) hide)
    )
    (pin "1" (uuid b10ee9e7-5f19-4064-9dd0-d645acb0a2cc))
    (pin "2" (uuid 94fa8936-b55a-481d-8fbd-dc21f28d5536))
  )

  (symbol (lib_id "Device:R") (at 220.98 46.99 180) (unit 1)
    (in_bom yes) (on_board yes)
    (uuid b3a40ffc-7220-4a7f-a0df-e38f46d30baf)
    (property "Reference" "R12" (id 0) (at 226.06 45.72 90)
      (effects (font (size 1.27 1.27)) (justify left))
    )
    (property "Value" "10kOhm" (id 1) (at 223.52 43.18 90)
      (effects (font (size 1.27 1.27)) (justify left))
    )
    (property "Footprint" "Resistor_SMD:R_0201_0603Metric" (id 2) (at 222.758 46.99 90)
      (effects (font (size 1.27 1.27)) hide)
    )
    (property "Datasheet" "https://www.mouser.de/ProductDetail/Bourns/CR0201AJW-103GLF?qs=sGAEpiMZZMtlubZbdhIBINZyO39%252BOXIfAxKtXFmL2BY%3D" (id 3) (at 220.98 46.99 0)
      (effects (font (size 1.27 1.27)) hide)
    )
    (pin "1" (uuid c0ddd095-4aab-4d33-a839-71860a9fd19b))
    (pin "2" (uuid 5ffe4f42-fa94-462a-9928-e8f93997e131))
  )

  (symbol (lib_id "visitenkarte:ATTINY426-MU") (at 57.15 88.9 0) (unit 1)
    (in_bom yes) (on_board yes) (fields_autoplaced)
    (uuid bab416e9-3455-4ba8-90b1-7fa285f9caad)
    (property "Reference" "U4" (id 0) (at 57.15 71.12 0))
    (property "Value" "ATTINY426-MU" (id 1) (at 57.15 73.66 0))
    (property "Footprint" "Package_DFN_QFN:QFN-20-1EP_3x3mm_P0.4mm_EP1.65x1.65mm" (id 2) (at 57.15 88.9 0)
      (effects (font (size 1.27 1.27)) hide)
    )
    (property "Datasheet" "" (id 3) (at 57.15 88.9 0)
      (effects (font (size 1.27 1.27)) hide)
    )
    (pin "1" (uuid 104d1675-69ca-4e8b-bb5e-40650356cf03))
    (pin "10" (uuid f9cdd716-8a2c-4b7f-84a3-0856acea8a18))
    (pin "11" (uuid aaf0d04b-d948-47c3-b624-fd7f25a6ef65))
    (pin "12" (uuid da46799e-b062-452f-bf8d-c99e2c23ea7d))
    (pin "13" (uuid 5ebd76a9-faf0-44b1-a895-18917bb3854a))
    (pin "14" (uuid fd26592e-ed64-49ed-a5c3-f3806d596599))
    (pin "15" (uuid ac2046b0-0a18-4264-952d-fb4334918e8c))
    (pin "16" (uuid 1ed2b6eb-71e6-4ada-aaa3-41ab66e175c8))
    (pin "17" (uuid 5e9bc911-d8a9-474c-8dad-4a4eb07d3833))
    (pin "18" (uuid 69cdc777-be00-4c5f-a5cd-d38e610ccd95))
    (pin "19" (uuid 8637964f-65af-4a7c-8331-af34ceae9183))
    (pin "2" (uuid bd65bb3b-a2df-411b-ab38-3888f191828f))
    (pin "20" (uuid f77d7251-8b1a-4aa5-8550-1832c27ba3e3))
    (pin "3" (uuid 7b980daf-5509-4cf8-9af9-36fd13e00624))
    (pin "4" (uuid 98721e14-310d-4451-a31f-e25eb62aeb78))
    (pin "5" (uuid 4ae1c6ed-10ff-4e86-8d60-2b6caba7ee3b))
    (pin "6" (uuid 09840cb3-7114-4f04-8993-5341c028ee0d))
    (pin "7" (uuid 31770e7f-32b1-45bb-a492-7d715b566d2b))
    (pin "8" (uuid c34b3aca-f805-40a2-8f09-5fe411b055d8))
    (pin "9" (uuid 31ae2ff7-7621-41a0-8337-9c324fe7d21a))
  )

  (symbol (lib_id "Device:C") (at 128.27 99.06 0) (unit 1)
    (in_bom yes) (on_board yes)
    (uuid bef24dc5-172a-4635-baea-0dd6cef01ebd)
    (property "Reference" "C_{rtcclock}2" (id 0) (at 119.38 96.52 0)
      (effects (font (size 1.27 1.27)) (justify left))
    )
    (property "Value" "TBD" (id 1) (at 123.19 101.6 0)
      (effects (font (size 1.27 1.27)) (justify left))
    )
    (property "Footprint" "Capacitor_SMD:C_0201_0603Metric" (id 2) (at 129.2352 102.87 0)
      (effects (font (size 1.27 1.27)) hide)
    )
    (property "Datasheet" "https://www.mouser.de/ProductDetail/Murata-Electronics/GRM0335C1H8R0DA01D?qs=7vGxPDjevFODplPjVNZ5IA%3D%3D" (id 3) (at 128.27 99.06 0)
      (effects (font (size 1.27 1.27)) hide)
    )
    (pin "1" (uuid e8ba99d6-1084-463e-bb9e-7d31acb639e5))
    (pin "2" (uuid 91f2f1b1-6a5b-4588-84f3-d505f0dbdf96))
  )

  (symbol (lib_id "visitenkarte:WS2812-2020") (at 60.96 40.64 0) (unit 1)
    (in_bom yes) (on_board yes)
    (uuid c2329173-c324-4065-8610-27842f4bed04)
    (property "Reference" "D3" (id 0) (at 69.85 31.75 0))
    (property "Value" "WS2812-2020" (id 1) (at 69.85 34.29 0))
    (property "Footprint" "visitenkarte:WS2812-2020" (id 2) (at 62.23 48.26 0)
      (effects (font (size 1.27 1.27)) (justify left top) hide)
    )
    (property "Datasheet" "" (id 3) (at 63.5 50.165 0)
      (effects (font (size 1.27 1.27)) (justify left top) hide)
    )
    (pin "1" (uuid 446fc13d-d421-4f26-915a-446adeeaae47))
    (pin "2" (uuid 3292d6b9-6698-404b-9b3a-810fd30bd736))
    (pin "3" (uuid dc109721-9008-4efb-83f3-a1e84b2ffe3a))
    (pin "4" (uuid a057b785-5c4a-47cb-bccd-cdae39e80acc))
  )

  (symbol (lib_id "Device:C") (at 29.21 29.21 0) (unit 1)
    (in_bom yes) (on_board yes)
    (uuid c42c8f42-3396-46f5-97e6-468505ecf403)
    (property "Reference" "C_{LED}1" (id 0) (at 32.131 28.0416 0)
      (effects (font (size 1.27 1.27)) (justify left))
    )
    (property "Value" "100nF" (id 1) (at 32.131 30.353 0)
      (effects (font (size 1.27 1.27)) (justify left))
    )
    (property "Footprint" "Capacitor_SMD:C_0201_0603Metric" (id 2) (at 30.1752 33.02 0)
      (effects (font (size 1.27 1.27)) hide)
    )
    (property "Datasheet" "https://www.mouser.at/ProductDetail/TDK/C0603X5R1E104K030BB?qs=6JAMGB%252BEdkw5r7LrYHn6NA%3D%3D" (id 3) (at 29.21 29.21 0)
      (effects (font (size 1.27 1.27)) hide)
    )
    (pin "1" (uuid 2e4f196f-173f-4173-9b82-e700a9f9abed))
    (pin "2" (uuid 99bc62e2-7156-43ee-971c-9a40f3d8925e))
  )

  (symbol (lib_id "Device:Thermistor") (at 220.98 36.83 0) (unit 1)
    (in_bom yes) (on_board yes) (fields_autoplaced)
    (uuid c7bf92b8-638c-4a23-96a9-8feb8e4af861)
    (property "Reference" "TH1" (id 0) (at 224.79 35.5599 0)
      (effects (font (size 1.27 1.27)) (justify left))
    )
    (property "Value" "Thermistor" (id 1) (at 224.79 38.0999 0)
      (effects (font (size 1.27 1.27)) (justify left))
    )
    (property "Footprint" "Resistor_SMD:R_0402_1005Metric" (id 2) (at 220.98 36.83 0)
      (effects (font (size 1.27 1.27)) hide)
    )
    (property "Datasheet" "NTCG103JF103FT1" (id 3) (at 220.98 36.83 0)
      (effects (font (size 1.27 1.27)) hide)
    )
    (pin "1" (uuid ecdb71e5-16a0-4814-a902-fc76d9b307f2))
    (pin "2" (uuid 4aa44c6b-78dd-407f-941a-55ba315453aa))
  )

  (symbol (lib_id "Device:C") (at 127 29.21 0) (unit 1)
    (in_bom yes) (on_board yes)
    (uuid fa49d558-0d01-4663-b28c-1cec20eeb1d5)
    (property "Reference" "C_{LED}5" (id 0) (at 129.921 28.0416 0)
      (effects (font (size 1.27 1.27)) (justify left))
    )
    (property "Value" "100nF" (id 1) (at 129.921 30.353 0)
      (effects (font (size 1.27 1.27)) (justify left))
    )
    (property "Footprint" "Capacitor_SMD:C_0201_0603Metric" (id 2) (at 127.9652 33.02 0)
      (effects (font (size 1.27 1.27)) hide)
    )
    (property "Datasheet" "https://www.mouser.at/ProductDetail/TDK/C0603X5R1E104K030BB?qs=6JAMGB%252BEdkw5r7LrYHn6NA%3D%3D" (id 3) (at 127 29.21 0)
      (effects (font (size 1.27 1.27)) hide)
    )
    (pin "1" (uuid 0350d659-e3cf-4800-a529-a6f042605dea))
    (pin "2" (uuid 6764fdd8-193d-4769-8731-5892ef79ae29))
  )
)
