{
  "board": {
    "design_settings": {
      "defaults": {
        "board_outline_line_width": 0.09999999999999999,
        "copper_line_width": 0.09999999999999999,
        "copper_text_italic": false,
        "copper_text_size_h": 1.524,
        "copper_text_size_v": 1.524,
        "copper_text_thickness": 0.30479999999999996,
        "copper_text_upright": false,
        "courtyard_line_width": 0.049999999999999996,
        "dimension_precision": 4,
        "dimension_units": 3,
        "dimensions": {
          "arrow_length": 1270000,
          "extension_offset": 500000,
          "keep_text_aligned": true,
          "suppress_zeroes": false,
          "text_position": 0,
          "units_format": 1
        },
        "fab_line_width": 0.09999999999999999,
        "fab_text_italic": false,
        "fab_text_size_h": 1.0,
        "fab_text_size_v": 1.0,
        "fab_text_thickness": 0.15,
        "fab_text_upright": false,
        "other_line_width": 0.09999999999999999,
        "other_text_italic": false,
        "other_text_size_h": 1.0,
        "other_text_size_v": 1.0,
        "other_text_thickness": 0.15,
        "other_text_upright": false,
        "pads": {
          "drill": 0.0,
          "height": 1.65,
          "width": 1.65
        },
        "silk_line_width": 0.09999999999999999,
        "silk_text_italic": false,
        "silk_text_size_h": 0.7999999999999999,
        "silk_text_size_v": 0.7999999999999999,
        "silk_text_thickness": 0.09999999999999999,
        "silk_text_upright": false,
        "zones": {
          "45_degree_only": false,
          "min_clearance": 0.0
        }
      },
      "diff_pair_dimensions": [
        {
          "gap": 0.0,
          "via_gap": 0.0,
          "width": 0.0
        }
      ],
      "drc_exclusions": [
        "clearance|77555000|68470000|15beebf8-dce0-4ba6-80d9-fa27b8e94696|85ea50fa-6bf3-490d-abe5-6ae7b1df228d",
        "clearance|77555000|68470000|2d01e65b-2e92-412c-b78c-c925bf9d361d|85ea50fa-6bf3-490d-abe5-6ae7b1df228d",
        "clearance|78500000|68470000|34728ac1-2fa7-4079-81f8-4e0c17d0f526|7987d6d3-7e2e-40d1-912d-693a4b87dc2d",
        "clearance|81260838|68594107|4e36a79c-29fc-4e3d-a81c-d5916e2db09d|d1b0eafa-dc24-4fc1-b4f1-2a07cbcab5eb",
        "clearance|81516000|68340000|a0436e2d-b1a7-4ea2-8ae4-b066d09dcd44|d1b0eafa-dc24-4fc1-b4f1-2a07cbcab5eb",
        "clearance|87927838|68254798|69dfc7b4-a596-4eaa-9a09-0d8f6b818cc2|747dfe03-007e-4f0d-b494-5a8c022f897e",
        "clearance|88183000|68000691|2f13a76f-1002-4b67-977d-89c8fa45b3fc|747dfe03-007e-4f0d-b494-5a8c022f897e",
        "items_not_allowed|80333000|68470000|7494a516-7d11-4f71-842c-db7b7687df08|00000000-0000-0000-0000-000000000000",
        "items_not_allowed|83620302|69385691|fa2999cf-1b43-43d0-83d4-bd6215ce3629|00000000-0000-0000-0000-000000000000"
      ],
      "meta": {
        "filename": "board_design_settings.json",
        "version": 2
      },
      "rule_severities": {
        "annular_width": "error",
        "clearance": "error",
        "copper_edge_clearance": "error",
        "courtyards_overlap": "error",
        "diff_pair_gap_out_of_range": "error",
        "diff_pair_uncoupled_length_too_long": "error",
        "drill_out_of_range": "error",
        "duplicate_footprints": "error",
        "extra_footprint": "error",
        "footprint_type_mismatch": "error",
        "hole_clearance": "error",
        "hole_near_hole": "error",
        "invalid_outline": "error",
        "item_on_disabled_layer": "error",
        "items_not_allowed": "error",
        "length_out_of_range": "error",
        "malformed_courtyard": "error",
        "microvia_drill_out_of_range": "error",
        "missing_courtyard": "ignore",
        "missing_footprint": "error",
        "net_conflict": "error",
        "npth_inside_courtyard": "ignore",
        "padstack": "error",
        "pth_inside_courtyard": "ignore",
        "shorting_items": "error",
        "silk_over_copper": "ignore",
        "silk_overlap": "ignore",
        "skew_out_of_range": "error",
        "through_hole_pad_without_hole": "error",
        "too_many_vias": "error",
        "track_dangling": "ignore",
        "track_width": "error",
        "tracks_crossing": "error",
        "unconnected_items": "error",
        "unresolved_variable": "error",
        "via_dangling": "ignore",
        "zone_has_empty_net": "error",
        "zones_intersect": "error"
      },
      "rules": {
        "allow_blind_buried_vias": false,
        "allow_microvias": false,
        "max_error": 0.003,
        "min_clearance": 0.09,
        "min_copper_edge_clearance": 0.19999999999999998,
        "min_hole_clearance": 0.125,
        "min_hole_to_hole": 0.5,
        "min_microvia_diameter": 0.19999999999999998,
        "min_microvia_drill": 0.09999999999999999,
        "min_silk_clearance": 0.0,
        "min_through_hole_diameter": 0.19999999999999998,
        "min_track_width": 0.09,
        "min_via_annular_width": 0.19999999999999998,
        "min_via_diameter": 0.44999999999999996,
        "use_height_for_length_calcs": true
      },
      "track_widths": [
        0.0,
        0.09,
        0.1,
        0.125,
        0.15,
        0.2,
        0.234,
        0.29337,
        0.3,
        0.4,
        0.5,
        1.0,
        1.5
      ],
      "via_dimensions": [
        {
          "diameter": 0.0,
          "drill": 0.0
        },
        {
          "diameter": 0.6,
          "drill": 0.2
        },
        {
          "diameter": 1.0,
          "drill": 0.4
        }
      ],
      "zones_allow_external_fillets": false,
      "zones_use_no_outline": true
    },
    "layer_presets": []
  },
  "boards": [],
  "cvpcb": {
    "equivalence_files": []
  },
  "erc": {
    "erc_exclusions": [],
    "meta": {
      "version": 0
    },
    "pin_map": [
      [
        0,
        0,
        0,
        0,
        0,
        0,
        1,
        0,
        0,
        0,
        0,
        2
      ],
      [
        0,
        2,
        0,
        1,
        0,
        0,
        1,
        0,
        2,
        2,
        2,
        2
      ],
      [
        0,
        0,
        0,
        0,
        0,
        0,
        1,
        0,
        1,
        0,
        1,
        2
      ],
      [
        0,
        1,
        0,
        0,
        0,
        0,
        1,
        1,
        2,
        1,
        1,
        2
      ],
      [
        0,
        0,
        0,
        0,
        0,
        0,
        1,
        0,
        0,
        0,
        0,
        2
      ],
      [
        0,
        0,
        0,
        0,
        0,
        0,
        0,
        0,
        0,
        0,
        0,
        2
      ],
      [
        1,
        1,
        1,
        1,
        1,
        0,
        1,
        1,
        1,
        1,
        1,
        2
      ],
      [
        0,
        0,
        0,
        1,
        0,
        0,
        1,
        0,
        0,
        0,
        0,
        2
      ],
      [
        0,
        2,
        1,
        2,
        0,
        0,
        1,
        0,
        2,
        2,
        2,
        2
      ],
      [
        0,
        2,
        0,
        1,
        0,
        0,
        1,
        0,
        2,
        0,
        0,
        2
      ],
      [
        0,
        2,
        1,
        1,
        0,
        0,
        1,
        0,
        2,
        0,
        0,
        2
      ],
      [
        2,
        2,
        2,
        2,
        2,
        2,
        2,
        2,
        2,
        2,
        2,
        2
      ]
    ],
    "rule_severities": {
      "bus_definition_conflict": "error",
      "bus_entry_needed": "error",
      "bus_label_syntax": "error",
      "bus_to_bus_conflict": "error",
      "bus_to_net_conflict": "error",
      "different_unit_footprint": "error",
      "different_unit_net": "error",
      "duplicate_reference": "error",
      "duplicate_sheet_names": "error",
      "extra_units": "error",
      "global_label_dangling": "warning",
      "hier_label_mismatch": "error",
      "label_dangling": "error",
      "lib_symbol_issues": "warning",
      "multiple_net_names": "warning",
      "net_not_bus_member": "warning",
      "no_connect_connected": "warning",
      "no_connect_dangling": "warning",
      "pin_not_connected": "error",
      "pin_not_driven": "error",
      "pin_to_pin": "warning",
      "power_pin_not_driven": "error",
      "similar_labels": "warning",
      "unannotated": "error",
      "unit_value_mismatch": "error",
      "unresolved_variable": "error",
      "wire_dangling": "error"
    }
  },
  "libraries": {
    "pinned_footprint_libs": [],
    "pinned_symbol_libs": []
  },
  "meta": {
    "filename": "visitenkarte.kicad_pro",
    "version": 1
  },
  "net_settings": {
    "classes": [
      {
        "bus_width": 12.0,
        "clearance": 0.125,
        "diff_pair_gap": 0.25,
        "diff_pair_via_gap": 0.25,
        "diff_pair_width": 0.125,
        "line_style": 0,
        "microvia_diameter": 0.6,
        "microvia_drill": 0.2,
        "name": "Default",
        "pcb_color": "rgba(0, 0, 0, 0.000)",
        "schematic_color": "rgba(0, 0, 0, 0.000)",
        "track_width": 0.125,
        "via_diameter": 0.6,
        "via_drill": 0.2,
        "wire_width": 6.0
      },
      {
        "bus_width": 12.0,
        "clearance": 0.125,
        "diff_pair_gap": 0.125,
        "diff_pair_via_gap": 0.25,
        "diff_pair_width": 0.125,
        "line_style": 0,
        "microvia_diameter": 0.6,
        "microvia_drill": 0.2,
        "name": "Min",
        "nets": [],
        "pcb_color": "rgba(0, 0, 0, 0.000)",
        "schematic_color": "rgba(0, 0, 0, 0.000)",
        "track_width": 0.125,
        "via_diameter": 0.6,
        "via_drill": 0.2,
        "wire_width": 6.0
      }
    ],
    "meta": {
      "version": 2
    },
    "net_colors": null
  },
  "pcbnew": {
    "last_paths": {
      "gencad": "",
      "idf": "",
      "netlist": "",
      "specctra_dsn": "",
      "step": "",
      "vrml": ""
    },
    "page_layout_descr_file": ""
  },
  "schematic": {
    "annotate_start_num": 0,
    "drawing": {
      "default_line_thickness": 6.0,
      "default_text_size": 50.0,
      "field_names": [],
      "intersheets_ref_own_page": false,
      "intersheets_ref_prefix": "",
      "intersheets_ref_short": false,
      "intersheets_ref_show": false,
      "intersheets_ref_suffix": "",
      "junction_size_choice": 3,
      "label_size_ratio": 0.25,
      "pin_symbol_size": 0.0,
      "text_offset_ratio": 0.08
    },
    "legacy_lib_dir": "",
    "legacy_lib_list": [],
    "meta": {
      "version": 1
    },
    "net_format_name": "",
    "ngspice": {
      "fix_include_paths": true,
      "fix_passive_vals": false,
      "meta": {
        "version": 0
      },
      "model_mode": 0,
      "workbook_filename": ""
    },
    "page_layout_descr_file": "",
    "plot_directory": "../schematic/",
    "spice_adjust_passive_values": false,
    "spice_external_command": "spice \"%I\"",
    "subpart_first_id": 65,
    "subpart_id_separator": 0
  },
  "sheets": [
    [
      "965308c8-e014-459a-b9db-b8493a601c62",
      ""
    ],
    [
      "0eaaa1cb-be96-4eb4-9639-da79be40054f",
      "Protected USB"
    ],
    [
      "734cf9f0-3579-4237-8ecb-7c2fe00d4311",
      "Power Converter"
    ],
    [
      "4a4f1018-da79-4c85-bbf9-e2603de81732",
      "ESP32"
    ],
    [
      "a641d242-fa18-45b5-88e6-b86364731e93",
      "LEDs"
    ]
  ],
  "text_variables": {}
}
