(kicad_symbol_lib (version 20211014) (generator kicad_symbol_editor)
  (symbol "ATTINY426-MU" (in_bom yes) (on_board yes)
    (property "Reference" "U" (id 0) (at 0 15.24 0)
      (effects (font (size 1.27 1.27)))
    )
    (property "Value" "ATTINY426-MU" (id 1) (at 0 -35.56 0)
      (effects (font (size 1.27 1.27)))
    )
    (property "Footprint" "" (id 2) (at 0 0 0)
      (effects (font (size 1.27 1.27)) hide)
    )
    (property "Datasheet" "" (id 3) (at 0 0 0)
      (effects (font (size 1.27 1.27)) hide)
    )
    (symbol "ATTINY426-MU_0_1"
      (rectangle (start -12.7 12.7) (end 12.7 -36.83)
        (stroke (width 0) (type default) (color 0 0 0 0))
        (fill (type background))
      )
    )
    (symbol "ATTINY426-MU_1_1"
      (pin bidirectional line (at 15.24 5.08 180) (length 2.54)
        (name "PA2" (effects (font (size 1.27 1.27))))
        (number "1" (effects (font (size 1.27 1.27))))
      )
      (pin bidirectional line (at 15.24 -20.32 180) (length 2.54)
        (name "PB4" (effects (font (size 1.27 1.27))))
        (number "10" (effects (font (size 1.27 1.27))))
      )
      (pin bidirectional line (at 15.24 -17.78 180) (length 2.54)
        (name "PB3(TOSC1)" (effects (font (size 1.27 1.27))))
        (number "11" (effects (font (size 1.27 1.27))))
      )
      (pin bidirectional line (at 15.24 -15.24 180) (length 2.54)
        (name "PB2(TOSC2)" (effects (font (size 1.27 1.27))))
        (number "12" (effects (font (size 1.27 1.27))))
      )
      (pin bidirectional line (at 15.24 -12.7 180) (length 2.54)
        (name "PB1" (effects (font (size 1.27 1.27))))
        (number "13" (effects (font (size 1.27 1.27))))
      )
      (pin bidirectional line (at 15.24 -10.16 180) (length 2.54)
        (name "PB0" (effects (font (size 1.27 1.27))))
        (number "14" (effects (font (size 1.27 1.27))))
      )
      (pin bidirectional line (at 15.24 -25.4 180) (length 2.54)
        (name "PC0" (effects (font (size 1.27 1.27))))
        (number "15" (effects (font (size 1.27 1.27))))
      )
      (pin bidirectional line (at 15.24 -27.94 180) (length 2.54)
        (name "PC1" (effects (font (size 1.27 1.27))))
        (number "16" (effects (font (size 1.27 1.27))))
      )
      (pin bidirectional line (at 15.24 -30.48 180) (length 2.54)
        (name "PC2" (effects (font (size 1.27 1.27))))
        (number "17" (effects (font (size 1.27 1.27))))
      )
      (pin bidirectional line (at 15.24 -33.02 180) (length 2.54)
        (name "PC3" (effects (font (size 1.27 1.27))))
        (number "18" (effects (font (size 1.27 1.27))))
      )
      (pin bidirectional line (at 15.24 10.16 180) (length 2.54)
        (name "PA0(UPDI/~{RESET})" (effects (font (size 1.27 1.27))))
        (number "19" (effects (font (size 1.27 1.27))))
      )
      (pin bidirectional line (at 15.24 2.54 180) (length 2.54)
        (name "(EXTCLK)PA3" (effects (font (size 1.27 1.27))))
        (number "2" (effects (font (size 1.27 1.27))))
      )
      (pin bidirectional line (at 15.24 7.62 180) (length 2.54)
        (name "PA1" (effects (font (size 1.27 1.27))))
        (number "20" (effects (font (size 1.27 1.27))))
      )
      (pin power_in line (at -15.24 10.16 0) (length 2.54)
        (name "GND" (effects (font (size 1.27 1.27))))
        (number "3" (effects (font (size 1.27 1.27))))
      )
      (pin power_in line (at -15.24 7.62 0) (length 2.54)
        (name "VDD" (effects (font (size 1.27 1.27))))
        (number "4" (effects (font (size 1.27 1.27))))
      )
      (pin bidirectional line (at 15.24 0 180) (length 2.54)
        (name "PA4" (effects (font (size 1.27 1.27))))
        (number "5" (effects (font (size 1.27 1.27))))
      )
      (pin bidirectional line (at 15.24 -2.54 180) (length 2.54)
        (name "PA5" (effects (font (size 1.27 1.27))))
        (number "6" (effects (font (size 1.27 1.27))))
      )
      (pin bidirectional line (at 15.24 -5.08 180) (length 2.54)
        (name "PA6" (effects (font (size 1.27 1.27))))
        (number "7" (effects (font (size 1.27 1.27))))
      )
      (pin bidirectional line (at 15.24 -7.62 180) (length 2.54)
        (name "PA7" (effects (font (size 1.27 1.27))))
        (number "8" (effects (font (size 1.27 1.27))))
      )
      (pin bidirectional line (at 15.24 -22.86 180) (length 2.54)
        (name "PB5" (effects (font (size 1.27 1.27))))
        (number "9" (effects (font (size 1.27 1.27))))
      )
    )
  )
  (symbol "ESP32-S3" (pin_names (offset 1.016)) (in_bom yes) (on_board yes)
    (property "Reference" "U" (id 0) (at 0 46.99 0)
      (effects (font (size 1.27 1.27)))
    )
    (property "Value" "ESP32-S3" (id 1) (at 0 -43.18 0)
      (effects (font (size 1.27 1.27)))
    )
    (property "Footprint" "Package_DFN_QFN:QFN-56-1EP_7x7mm_P0.4mm_EP5.6x5.6mm" (id 2) (at 0 -45.72 0)
      (effects (font (size 1.27 1.27)) hide)
    )
    (property "Datasheet" "" (id 3) (at -8.89 11.43 0)
      (effects (font (size 1.27 1.27)) hide)
    )
    (symbol "ESP32-S3_0_0"
      (text "ESP32-S3" (at 1.27 0 0)
        (effects (font (size 2.54 2.54)))
      )
      (pin bidirectional line (at 30.48 -8.89 180) (length 2.54)
        (name "SPICLK_N/GPIO48" (effects (font (size 1.27 1.27))))
        (number "36" (effects (font (size 1.27 1.27))))
      )
      (pin bidirectional line (at 30.48 -11.43 180) (length 2.54)
        (name "SPICLK_P/GPIO47" (effects (font (size 1.27 1.27))))
        (number "37" (effects (font (size 1.27 1.27))))
      )
    )
    (symbol "ESP32-S3_0_1"
      (rectangle (start -29.21 45.72) (end 27.94 -41.91)
        (stroke (width 0) (type default) (color 0 0 0 0))
        (fill (type background))
      )
    )
    (symbol "ESP32-S3_1_1"
      (pin bidirectional line (at -31.75 43.18 0) (length 2.54)
        (name "LNA_IN/RF" (effects (font (size 1.27 1.27))))
        (number "1" (effects (font (size 1.27 1.27))))
      )
      (pin bidirectional line (at -31.75 24.13 0) (length 2.54)
        (name "GPIO5/ADC1_CH4" (effects (font (size 1.27 1.27))))
        (number "10" (effects (font (size 1.27 1.27))))
      )
      (pin bidirectional line (at -31.75 21.59 0) (length 2.54)
        (name "GPIO6/ADC1_CH5" (effects (font (size 1.27 1.27))))
        (number "11" (effects (font (size 1.27 1.27))))
      )
      (pin bidirectional line (at -31.75 19.05 0) (length 2.54)
        (name "GPIO7/ADC1_CH6" (effects (font (size 1.27 1.27))))
        (number "12" (effects (font (size 1.27 1.27))))
      )
      (pin bidirectional line (at -31.75 16.51 0) (length 2.54)
        (name "GPIO8/ADC1_CH7" (effects (font (size 1.27 1.27))))
        (number "13" (effects (font (size 1.27 1.27))))
      )
      (pin bidirectional line (at -31.75 13.97 0) (length 2.54)
        (name "GPIO9/ADC1_CH8" (effects (font (size 1.27 1.27))))
        (number "14" (effects (font (size 1.27 1.27))))
      )
      (pin bidirectional line (at -31.75 11.43 0) (length 2.54)
        (name "GPIO10/ADC1_CH9" (effects (font (size 1.27 1.27))))
        (number "15" (effects (font (size 1.27 1.27))))
      )
      (pin bidirectional line (at -31.75 8.89 0) (length 2.54)
        (name "GPIO11/ADC2_CH0" (effects (font (size 1.27 1.27))))
        (number "16" (effects (font (size 1.27 1.27))))
      )
      (pin bidirectional line (at -31.75 6.35 0) (length 2.54)
        (name "GPIO12/ADC2_CH1" (effects (font (size 1.27 1.27))))
        (number "17" (effects (font (size 1.27 1.27))))
      )
      (pin bidirectional line (at -31.75 3.81 0) (length 2.54)
        (name "GPIO13/ADC2_CH2" (effects (font (size 1.27 1.27))))
        (number "18" (effects (font (size 1.27 1.27))))
      )
      (pin bidirectional line (at -31.75 1.27 0) (length 2.54)
        (name "GPIO14/ADC2_CH3" (effects (font (size 1.27 1.27))))
        (number "19" (effects (font (size 1.27 1.27))))
      )
      (pin power_in line (at -31.75 -31.75 0) (length 2.54)
        (name "VDD3P3" (effects (font (size 1.27 1.27))))
        (number "2" (effects (font (size 1.27 1.27))))
      )
      (pin power_in line (at -31.75 -36.83 0) (length 2.54)
        (name "VDD3P3_RTC" (effects (font (size 1.27 1.27))))
        (number "20" (effects (font (size 1.27 1.27))))
      )
      (pin input clock (at 30.48 -20.32 180) (length 2.54)
        (name "GPIO15/ADC2_CH4/XTAL_32K_P" (effects (font (size 1.27 1.27))))
        (number "21" (effects (font (size 1.27 1.27))))
      )
      (pin output clock (at 30.48 -24.13 180) (length 2.54)
        (name "GPIO16/ADC2_CH5/XTAL_32K_N" (effects (font (size 1.27 1.27))))
        (number "22" (effects (font (size 1.27 1.27))))
      )
      (pin bidirectional line (at 30.48 34.29 180) (length 2.54)
        (name "GPIO17/ADC2_CH6/DAC_2" (effects (font (size 1.27 1.27))))
        (number "23" (effects (font (size 1.27 1.27))))
      )
      (pin bidirectional line (at 30.48 36.83 180) (length 2.54)
        (name "GPIO18/ADC2_CH7/DAC_1" (effects (font (size 1.27 1.27))))
        (number "24" (effects (font (size 1.27 1.27))))
      )
      (pin bidirectional line (at 30.48 43.18 180) (length 2.54)
        (name "GPIO19/USB_D-/ADC2_CH8" (effects (font (size 1.27 1.27))))
        (number "25" (effects (font (size 1.27 1.27))))
      )
      (pin bidirectional line (at 30.48 40.64 180) (length 2.54)
        (name "GPIO20/USB_D+/ADC2_CH9" (effects (font (size 1.27 1.27))))
        (number "26" (effects (font (size 1.27 1.27))))
      )
      (pin bidirectional line (at 30.48 31.75 180) (length 2.54)
        (name "GPIO21" (effects (font (size 1.27 1.27))))
        (number "27" (effects (font (size 1.27 1.27))))
      )
      (pin bidirectional line (at 30.48 29.21 180) (length 2.54)
        (name "SPI_CS1/GPIO26" (effects (font (size 1.27 1.27))))
        (number "28" (effects (font (size 1.27 1.27))))
      )
      (pin power_out line (at 30.48 -15.24 180) (length 2.54)
        (name "VDD_SPI" (effects (font (size 1.27 1.27))))
        (number "29" (effects (font (size 1.27 1.27))))
      )
      (pin power_in line (at -31.75 -34.29 0) (length 2.54)
        (name "VDD3P3" (effects (font (size 1.27 1.27))))
        (number "3" (effects (font (size 1.27 1.27))))
      )
      (pin bidirectional line (at 30.48 26.67 180) (length 2.54)
        (name "SPIHD/GPIO27" (effects (font (size 1.27 1.27))))
        (number "30" (effects (font (size 1.27 1.27))))
      )
      (pin bidirectional line (at 30.48 24.13 180) (length 2.54)
        (name "SPIWP/GPIO28" (effects (font (size 1.27 1.27))))
        (number "31" (effects (font (size 1.27 1.27))))
      )
      (pin bidirectional line (at 30.48 21.59 180) (length 2.54)
        (name "SPICS0/GPIO29" (effects (font (size 1.27 1.27))))
        (number "32" (effects (font (size 1.27 1.27))))
      )
      (pin bidirectional line (at 30.48 19.05 180) (length 2.54)
        (name "SPICLK/GPIO30" (effects (font (size 1.27 1.27))))
        (number "33" (effects (font (size 1.27 1.27))))
      )
      (pin bidirectional line (at 30.48 16.51 180) (length 2.54)
        (name "SPIQ/GPIO31" (effects (font (size 1.27 1.27))))
        (number "34" (effects (font (size 1.27 1.27))))
      )
      (pin bidirectional line (at 30.48 13.97 180) (length 2.54)
        (name "SPID/GPIO32" (effects (font (size 1.27 1.27))))
        (number "35" (effects (font (size 1.27 1.27))))
      )
      (pin bidirectional line (at 30.48 11.43 180) (length 2.54)
        (name "GPIO33" (effects (font (size 1.27 1.27))))
        (number "38" (effects (font (size 1.27 1.27))))
      )
      (pin bidirectional line (at 30.48 8.89 180) (length 2.54)
        (name "GPIO34" (effects (font (size 1.27 1.27))))
        (number "39" (effects (font (size 1.27 1.27))))
      )
      (pin input line (at -31.75 39.37 0) (length 2.54)
        (name "CHIP_PU/RESET" (effects (font (size 1.27 1.27))))
        (number "4" (effects (font (size 1.27 1.27))))
      )
      (pin bidirectional line (at 30.48 6.35 180) (length 2.54)
        (name "GPIO35" (effects (font (size 1.27 1.27))))
        (number "40" (effects (font (size 1.27 1.27))))
      )
      (pin bidirectional line (at 30.48 3.81 180) (length 2.54)
        (name "GPIO36" (effects (font (size 1.27 1.27))))
        (number "41" (effects (font (size 1.27 1.27))))
      )
      (pin bidirectional line (at 30.48 1.27 180) (length 2.54)
        (name "GPIO37" (effects (font (size 1.27 1.27))))
        (number "42" (effects (font (size 1.27 1.27))))
      )
      (pin bidirectional line (at 30.48 -1.27 180) (length 2.54)
        (name "GPIO38" (effects (font (size 1.27 1.27))))
        (number "43" (effects (font (size 1.27 1.27))))
      )
      (pin bidirectional line (at -31.75 -12.7 0) (length 2.54)
        (name "MTCK/JTAG/GPIO39" (effects (font (size 1.27 1.27))))
        (number "44" (effects (font (size 1.27 1.27))))
      )
      (pin bidirectional line (at -31.75 -15.24 0) (length 2.54)
        (name "MTDO/JTAG/GPIO40" (effects (font (size 1.27 1.27))))
        (number "45" (effects (font (size 1.27 1.27))))
      )
      (pin power_in line (at -31.75 -39.37 0) (length 2.54)
        (name "VDD3P3_CPU" (effects (font (size 1.27 1.27))))
        (number "46" (effects (font (size 1.27 1.27))))
      )
      (pin bidirectional line (at -31.75 -17.78 0) (length 2.54)
        (name "MTDI/JTAG/GPIO41" (effects (font (size 1.27 1.27))))
        (number "47" (effects (font (size 1.27 1.27))))
      )
      (pin bidirectional line (at -31.75 -20.32 0) (length 2.54)
        (name "MTMS/JTAG/GPIO42" (effects (font (size 1.27 1.27))))
        (number "48" (effects (font (size 1.27 1.27))))
      )
      (pin bidirectional line (at -31.75 -7.62 0) (length 2.54)
        (name "U0TXD/PROG/GPIO43" (effects (font (size 1.27 1.27))))
        (number "49" (effects (font (size 1.27 1.27))))
      )
      (pin bidirectional line (at -31.75 -5.08 0) (length 2.54)
        (name "GPIO0/BOOT" (effects (font (size 1.27 1.27))))
        (number "5" (effects (font (size 1.27 1.27))))
      )
      (pin bidirectional line (at -31.75 -10.16 0) (length 2.54)
        (name "U0RXD/PROG/GPIO44" (effects (font (size 1.27 1.27))))
        (number "50" (effects (font (size 1.27 1.27))))
      )
      (pin bidirectional line (at 30.48 -3.81 180) (length 2.54)
        (name "GPIO45" (effects (font (size 1.27 1.27))))
        (number "51" (effects (font (size 1.27 1.27))))
      )
      (pin bidirectional line (at 30.48 -6.35 180) (length 2.54)
        (name "GPIO46" (effects (font (size 1.27 1.27))))
        (number "52" (effects (font (size 1.27 1.27))))
      )
      (pin input clock (at 30.48 -29.21 180) (length 2.54)
        (name "XTAL_N" (effects (font (size 1.27 1.27))))
        (number "53" (effects (font (size 1.27 1.27))))
      )
      (pin output clock (at 30.48 -33.02 180) (length 2.54)
        (name "XTAL_P" (effects (font (size 1.27 1.27))))
        (number "54" (effects (font (size 1.27 1.27))))
      )
      (pin power_in line (at -31.75 -26.67 0) (length 2.54)
        (name "VDDA" (effects (font (size 1.27 1.27))))
        (number "55" (effects (font (size 1.27 1.27))))
      )
      (pin power_in line (at -31.75 -29.21 0) (length 2.54)
        (name "VDDA" (effects (font (size 1.27 1.27))))
        (number "56" (effects (font (size 1.27 1.27))))
      )
      (pin power_in line (at 30.48 -39.37 180) (length 2.54)
        (name "GND" (effects (font (size 1.27 1.27))))
        (number "57" (effects (font (size 1.27 1.27))))
      )
      (pin bidirectional line (at -31.75 34.29 0) (length 2.54)
        (name "GPIO1/ADC1_CH0" (effects (font (size 1.27 1.27))))
        (number "6" (effects (font (size 1.27 1.27))))
      )
      (pin bidirectional line (at -31.75 31.75 0) (length 2.54)
        (name "GPIO2/ADC1_CH1" (effects (font (size 1.27 1.27))))
        (number "7" (effects (font (size 1.27 1.27))))
      )
      (pin bidirectional line (at -31.75 29.21 0) (length 2.54)
        (name "GPIO3/ADC1_CH2" (effects (font (size 1.27 1.27))))
        (number "8" (effects (font (size 1.27 1.27))))
      )
      (pin bidirectional line (at -31.75 26.67 0) (length 2.54)
        (name "GPIO4/ADC1_CH3" (effects (font (size 1.27 1.27))))
        (number "9" (effects (font (size 1.27 1.27))))
      )
    )
  )
  (symbol "MEM2067-02-180-00-A_REVB" (pin_names (offset 1.016)) (in_bom yes) (on_board yes)
    (property "Reference" "J" (id 0) (at 0 12.7 0)
      (effects (font (size 1.27 1.27)) (justify left bottom))
    )
    (property "Value" "MEM2067-02-180-00-A_REVB" (id 1) (at 0 -17.78 0)
      (effects (font (size 1.27 1.27)) (justify left bottom))
    )
    (property "Footprint" "GCT_MEM2067-02-180-00-A_REVB" (id 2) (at 0 0 0)
      (effects (font (size 1.27 1.27)) (justify left bottom) hide)
    )
    (property "Datasheet" "" (id 3) (at 0 0 0)
      (effects (font (size 1.27 1.27)) (justify left bottom) hide)
    )
    (property "MANUFACTURER" "GCT" (id 4) (at 0 0 0)
      (effects (font (size 1.27 1.27)) (justify left bottom) hide)
    )
    (property "ki_locked" "" (id 5) (at 0 0 0)
      (effects (font (size 1.27 1.27)))
    )
    (symbol "MEM2067-02-180-00-A_REVB_0_0"
      (polyline
        (pts
          (xy 0 -15.24)
          (xy 0 12.7)
        )
        (stroke (width 0.254) (type default) (color 0 0 0 0))
        (fill (type none))
      )
      (polyline
        (pts
          (xy 0 12.7)
          (xy 15.24 12.7)
        )
        (stroke (width 0.254) (type default) (color 0 0 0 0))
        (fill (type none))
      )
      (polyline
        (pts
          (xy 15.24 -15.24)
          (xy 0 -15.24)
        )
        (stroke (width 0.254) (type default) (color 0 0 0 0))
        (fill (type none))
      )
      (polyline
        (pts
          (xy 15.24 12.7)
          (xy 15.24 -15.24)
        )
        (stroke (width 0.254) (type default) (color 0 0 0 0))
        (fill (type none))
      )
      (pin bidirectional line (at -5.08 2.54 0) (length 5.08)
        (name "DAT2" (effects (font (size 1.016 1.016))))
        (number "1" (effects (font (size 1.016 1.016))))
      )
      (pin passive line (at -5.08 -12.7 0) (length 5.08)
        (name "SHIELD" (effects (font (size 1.016 1.016))))
        (number "10" (effects (font (size 1.016 1.016))))
      )
      (pin passive line (at -5.08 -12.7 0) (length 5.08)
        (name "SHIELD" (effects (font (size 1.016 1.016))))
        (number "11" (effects (font (size 1.016 1.016))))
      )
      (pin passive line (at -5.08 -12.7 0) (length 5.08)
        (name "SHIELD" (effects (font (size 1.016 1.016))))
        (number "12" (effects (font (size 1.016 1.016))))
      )
      (pin bidirectional line (at -5.08 0 0) (length 5.08)
        (name "CD/DAT3" (effects (font (size 1.016 1.016))))
        (number "2" (effects (font (size 1.016 1.016))))
      )
      (pin bidirectional line (at -5.08 -2.54 0) (length 5.08)
        (name "CMD" (effects (font (size 1.016 1.016))))
        (number "3" (effects (font (size 1.016 1.016))))
      )
      (pin power_in line (at -5.08 10.16 0) (length 5.08)
        (name "VDD" (effects (font (size 1.016 1.016))))
        (number "4" (effects (font (size 1.016 1.016))))
      )
      (pin bidirectional clock (at -5.08 -5.08 0) (length 5.08)
        (name "CLK" (effects (font (size 1.016 1.016))))
        (number "5" (effects (font (size 1.016 1.016))))
      )
      (pin power_in line (at -5.08 -7.62 0) (length 5.08)
        (name "VSS" (effects (font (size 1.016 1.016))))
        (number "6" (effects (font (size 1.016 1.016))))
      )
      (pin bidirectional line (at -5.08 7.62 0) (length 5.08)
        (name "DAT0" (effects (font (size 1.016 1.016))))
        (number "7" (effects (font (size 1.016 1.016))))
      )
      (pin bidirectional line (at -5.08 5.08 0) (length 5.08)
        (name "DAT1" (effects (font (size 1.016 1.016))))
        (number "8" (effects (font (size 1.016 1.016))))
      )
      (pin passive line (at -5.08 -12.7 0) (length 5.08)
        (name "SHIELD" (effects (font (size 1.016 1.016))))
        (number "9" (effects (font (size 1.016 1.016))))
      )
    )
  )
  (symbol "ST25TA02KB-DC6H5" (in_bom yes) (on_board yes)
    (property "Reference" "U" (id 0) (at 0 1.27 0)
      (effects (font (size 1.27 1.27)))
    )
    (property "Value" "ST25TA02KB-DC6H5" (id 1) (at -2.54 -17.78 0)
      (effects (font (size 1.27 1.27)))
    )
    (property "Footprint" "" (id 2) (at 0 0 0)
      (effects (font (size 1.27 1.27)) hide)
    )
    (property "Datasheet" "" (id 3) (at 0 0 0)
      (effects (font (size 1.27 1.27)) hide)
    )
    (symbol "ST25TA02KB-DC6H5_0_1"
      (rectangle (start -2.54 0) (end 3.81 -15.24)
        (stroke (width 0) (type default) (color 0 0 0 0))
        (fill (type background))
      )
    )
    (symbol "ST25TA02KB-DC6H5_1_1"
      (pin bidirectional line (at -5.08 -2.54 0) (length 2.54)
        (name "GPO" (effects (font (size 1.27 1.27))))
        (number "1" (effects (font (size 1.27 1.27))))
      )
      (pin bidirectional line (at -5.08 -5.08 0) (length 2.54)
        (name "V_{ss}" (effects (font (size 1.27 1.27))))
        (number "2" (effects (font (size 1.27 1.27))))
      )
      (pin bidirectional line (at -5.08 -7.62 0) (length 2.54)
        (name "AC0" (effects (font (size 1.27 1.27))))
        (number "3" (effects (font (size 1.27 1.27))))
      )
      (pin bidirectional line (at -5.08 -10.16 0) (length 2.54)
        (name "AC1" (effects (font (size 1.27 1.27))))
        (number "4" (effects (font (size 1.27 1.27))))
      )
      (pin bidirectional line (at -5.08 -12.7 0) (length 2.54)
        (name "V_{dcg}" (effects (font (size 1.27 1.27))))
        (number "5" (effects (font (size 1.27 1.27))))
      )
    )
  )
  (symbol "TOUCH14" (in_bom yes) (on_board yes)
    (property "Reference" "U" (id 0) (at 0 11.43 0)
      (effects (font (size 1.27 1.27)))
    )
    (property "Value" "TOUCH14" (id 1) (at 0 -30.48 0)
      (effects (font (size 1.27 1.27)))
    )
    (property "Footprint" "" (id 2) (at 0 0 0)
      (effects (font (size 1.27 1.27)) hide)
    )
    (property "Datasheet" "" (id 3) (at 0 0 0)
      (effects (font (size 1.27 1.27)) hide)
    )
    (symbol "TOUCH14_0_1"
      (rectangle (start 3.81 -27.94) (end -3.81 8.89)
        (stroke (width 0) (type default) (color 0 0 0 0))
        (fill (type background))
      )
    )
    (symbol "TOUCH14_1_1"
      (pin output line (at 6.35 7.62 180) (length 2.54)
        (name "1" (effects (font (size 1.27 1.27))))
        (number "1" (effects (font (size 1.27 1.27))))
      )
      (pin output line (at 6.35 -15.24 180) (length 2.54)
        (name "10" (effects (font (size 1.27 1.27))))
        (number "10" (effects (font (size 1.27 1.27))))
      )
      (pin output line (at 6.35 -17.78 180) (length 2.54)
        (name "11" (effects (font (size 1.27 1.27))))
        (number "11" (effects (font (size 1.27 1.27))))
      )
      (pin output line (at 6.35 -20.32 180) (length 2.54)
        (name "12" (effects (font (size 1.27 1.27))))
        (number "12" (effects (font (size 1.27 1.27))))
      )
      (pin output line (at 6.35 -22.86 180) (length 2.54)
        (name "13" (effects (font (size 1.27 1.27))))
        (number "13" (effects (font (size 1.27 1.27))))
      )
      (pin output line (at 6.35 -25.4 180) (length 2.54)
        (name "14" (effects (font (size 1.27 1.27))))
        (number "14" (effects (font (size 1.27 1.27))))
      )
      (pin output line (at 6.35 5.08 180) (length 2.54)
        (name "2" (effects (font (size 1.27 1.27))))
        (number "2" (effects (font (size 1.27 1.27))))
      )
      (pin output line (at 6.35 2.54 180) (length 2.54)
        (name "3" (effects (font (size 1.27 1.27))))
        (number "3" (effects (font (size 1.27 1.27))))
      )
      (pin output line (at 6.35 0 180) (length 2.54)
        (name "4" (effects (font (size 1.27 1.27))))
        (number "4" (effects (font (size 1.27 1.27))))
      )
      (pin output line (at 6.35 -2.54 180) (length 2.54)
        (name "5" (effects (font (size 1.27 1.27))))
        (number "5" (effects (font (size 1.27 1.27))))
      )
      (pin output line (at 6.35 -5.08 180) (length 2.54)
        (name "6" (effects (font (size 1.27 1.27))))
        (number "6" (effects (font (size 1.27 1.27))))
      )
      (pin output line (at 6.35 -7.62 180) (length 2.54)
        (name "7" (effects (font (size 1.27 1.27))))
        (number "7" (effects (font (size 1.27 1.27))))
      )
      (pin output line (at 6.35 -10.16 180) (length 2.54)
        (name "8" (effects (font (size 1.27 1.27))))
        (number "8" (effects (font (size 1.27 1.27))))
      )
      (pin output line (at 6.35 -12.7 180) (length 2.54)
        (name "9" (effects (font (size 1.27 1.27))))
        (number "9" (effects (font (size 1.27 1.27))))
      )
    )
  )
  (symbol "WS2812-2020" (pin_names (offset 0.254)) (in_bom yes) (on_board yes)
    (property "Reference" "D" (id 0) (at 5.08 5.715 0)
      (effects (font (size 1.27 1.27)) (justify right bottom))
    )
    (property "Value" "WS2812-2020" (id 1) (at 1.27 -5.715 0)
      (effects (font (size 1.27 1.27)) (justify left top))
    )
    (property "Footprint" "_CrumpPrints:WS2812-2020" (id 2) (at 1.27 -7.62 0)
      (effects (font (size 1.27 1.27)) (justify left top) hide)
    )
    (property "Datasheet" "" (id 3) (at 2.54 -9.525 0)
      (effects (font (size 1.27 1.27)) (justify left top) hide)
    )
    (property "ki_fp_filters" "LED*WS2812*PLCC*5.0x5.0mm*P3.2mm*" (id 4) (at 0 0 0)
      (effects (font (size 1.27 1.27)) hide)
    )
    (symbol "WS2812-2020_0_0"
      (text "RGB" (at 2.286 -4.191 0)
        (effects (font (size 0.762 0.762)))
      )
    )
    (symbol "WS2812-2020_0_1"
      (polyline
        (pts
          (xy 1.27 -3.556)
          (xy 1.778 -3.556)
        )
        (stroke (width 0) (type default) (color 0 0 0 0))
        (fill (type none))
      )
      (polyline
        (pts
          (xy 1.27 -2.54)
          (xy 1.778 -2.54)
        )
        (stroke (width 0) (type default) (color 0 0 0 0))
        (fill (type none))
      )
      (polyline
        (pts
          (xy 4.699 -3.556)
          (xy 2.667 -3.556)
        )
        (stroke (width 0) (type default) (color 0 0 0 0))
        (fill (type none))
      )
      (polyline
        (pts
          (xy 2.286 -2.54)
          (xy 1.27 -3.556)
          (xy 1.27 -3.048)
        )
        (stroke (width 0) (type default) (color 0 0 0 0))
        (fill (type none))
      )
      (polyline
        (pts
          (xy 2.286 -1.524)
          (xy 1.27 -2.54)
          (xy 1.27 -2.032)
        )
        (stroke (width 0) (type default) (color 0 0 0 0))
        (fill (type none))
      )
      (polyline
        (pts
          (xy 3.683 -1.016)
          (xy 3.683 -3.556)
          (xy 3.683 -4.064)
        )
        (stroke (width 0) (type default) (color 0 0 0 0))
        (fill (type none))
      )
      (polyline
        (pts
          (xy 4.699 -1.524)
          (xy 2.667 -1.524)
          (xy 3.683 -3.556)
          (xy 4.699 -1.524)
        )
        (stroke (width 0) (type default) (color 0 0 0 0))
        (fill (type none))
      )
      (rectangle (start 5.08 5.08) (end -5.08 -5.08)
        (stroke (width 0.254) (type default) (color 0 0 0 0))
        (fill (type background))
      )
    )
    (symbol "WS2812-2020_1_1"
      (pin output line (at 7.62 0 180) (length 2.54)
        (name "DOUT" (effects (font (size 1.27 1.27))))
        (number "1" (effects (font (size 1.27 1.27))))
      )
      (pin power_in line (at 0 -7.62 90) (length 2.54)
        (name "VSS" (effects (font (size 1.27 1.27))))
        (number "2" (effects (font (size 1.27 1.27))))
      )
      (pin input line (at -7.62 0 0) (length 2.54)
        (name "DIN" (effects (font (size 1.27 1.27))))
        (number "3" (effects (font (size 1.27 1.27))))
      )
      (pin power_in line (at 0 7.62 270) (length 2.54)
        (name "VDD" (effects (font (size 1.27 1.27))))
        (number "4" (effects (font (size 1.27 1.27))))
      )
    )
  )
  (symbol "debug" (in_bom yes) (on_board yes)
    (property "Reference" "I" (id 0) (at 0 0 0)
      (effects (font (size 1.27 1.27)))
    )
    (property "Value" "debug" (id 1) (at 0 3.81 0)
      (effects (font (size 1.27 1.27)))
    )
    (property "Footprint" "" (id 2) (at 0 0 0)
      (effects (font (size 1.27 1.27)) hide)
    )
    (property "Datasheet" "" (id 3) (at 0 0 0)
      (effects (font (size 1.27 1.27)) hide)
    )
    (symbol "debug_0_1"
      (rectangle (start 0 -1.27) (end 12.7 -27.94)
        (stroke (width 0) (type default) (color 0 0 0 0))
        (fill (type background))
      )
    )
    (symbol "debug_1_1"
      (pin power_in line (at -2.54 -2.54 0) (length 2.54)
        (name "GND" (effects (font (size 1.27 1.27))))
        (number "1" (effects (font (size 1.27 1.27))))
      )
      (pin bidirectional line (at -2.54 -25.4 0) (length 2.54)
        (name "U0RXD" (effects (font (size 1.27 1.27))))
        (number "10" (effects (font (size 1.27 1.27))))
      )
      (pin power_in line (at -2.54 -5.08 0) (length 2.54)
        (name "5V" (effects (font (size 1.27 1.27))))
        (number "2" (effects (font (size 1.27 1.27))))
      )
      (pin power_in line (at -2.54 -7.62 0) (length 2.54)
        (name "3V3" (effects (font (size 1.27 1.27))))
        (number "3" (effects (font (size 1.27 1.27))))
      )
      (pin bidirectional line (at -2.54 -10.16 0) (length 2.54)
        (name "UPDI" (effects (font (size 1.27 1.27))))
        (number "4" (effects (font (size 1.27 1.27))))
      )
      (pin bidirectional line (at -2.54 -12.7 0) (length 2.54)
        (name "MTCLK" (effects (font (size 1.27 1.27))))
        (number "5" (effects (font (size 1.27 1.27))))
      )
      (pin bidirectional line (at -2.54 -15.24 0) (length 2.54)
        (name "MTDO" (effects (font (size 1.27 1.27))))
        (number "6" (effects (font (size 1.27 1.27))))
      )
      (pin bidirectional line (at -2.54 -17.78 0) (length 2.54)
        (name "MTDI" (effects (font (size 1.27 1.27))))
        (number "7" (effects (font (size 1.27 1.27))))
      )
      (pin bidirectional line (at -2.54 -20.32 0) (length 2.54)
        (name "MTMS" (effects (font (size 1.27 1.27))))
        (number "8" (effects (font (size 1.27 1.27))))
      )
      (pin bidirectional line (at -2.54 -22.86 0) (length 2.54)
        (name "U0TXD" (effects (font (size 1.27 1.27))))
        (number "9" (effects (font (size 1.27 1.27))))
      )
    )
  )
)
