EESchema Schematic File Version 4
EELAYER 30 0
EELAYER END
$Descr A4 11693 8268
encoding utf-8
Sheet 1 1
Title ""
Date ""
Rev ""
Comp ""
Comment1 ""
Comment2 ""
Comment3 ""
Comment4 ""
$EndDescr
$Comp
L ESP32-C3:ESP32-C3 U4
U 1 1 61E9E5E0
P 9650 2950
F 0 "U4" H 9650 4315 50  0000 C CNN
F 1 "ESP32-C3" H 9650 4224 50  0000 C CNN
F 2 "Package_DFN_QFN:QFN-32-1EP_5x5mm_P0.5mm_EP3.45x3.45mm" H 11100 1500 50  0001 C CNN
F 3 "https://www.espressif.com/sites/default/files/documentation/esp32-c3_datasheet_en.pdf" H 11100 1500 50  0001 C CNN
	1    9650 2950
	1    0    0    -1  
$EndComp
$Comp
L Device:R R8
U 1 1 61EE048F
P 8000 4850
F 0 "R8" H 8070 4896 50  0000 L CNN
F 1 "DNP" H 8070 4805 50  0000 L CNN
F 2 "" V 7930 4850 50  0001 C CNN
F 3 "~" H 8000 4850 50  0001 C CNN
	1    8000 4850
	1    0    0    -1  
$EndComp
$Comp
L Device:Crystal Y2
U 1 1 61EE086D
P 8400 4850
F 0 "Y2" V 8354 4981 50  0000 L CNN
F 1 "32kHz" V 8445 4981 50  0000 L CNN
F 2 "" H 8400 4850 50  0001 C CNN
F 3 "~" H 8400 4850 50  0001 C CNN
	1    8400 4850
	0    1    1    0   
$EndComp
Wire Wire Line
	8000 4700 8000 4650
Wire Wire Line
	8000 4650 8400 4650
Wire Wire Line
	8400 4650 8400 4700
Wire Wire Line
	8000 5000 8000 5050
Wire Wire Line
	8400 5050 8400 5000
$Comp
L Device:C C24
U 1 1 61EE1116
P 7850 4650
F 0 "C24" V 7598 4650 50  0000 C CNN
F 1 "18pF" V 7689 4650 50  0000 C CNN
F 2 "" H 7888 4500 50  0001 C CNN
F 3 "~" H 7850 4650 50  0001 C CNN
	1    7850 4650
	0    1    1    0   
$EndComp
Connection ~ 8000 4650
$Comp
L Device:C C25
U 1 1 61EE1648
P 7850 5050
F 0 "C25" V 7598 5050 50  0000 C CNN
F 1 "18pf" V 7689 5050 50  0000 C CNN
F 2 "" H 7888 4900 50  0001 C CNN
F 3 "~" H 7850 5050 50  0001 C CNN
	1    7850 5050
	0    1    1    0   
$EndComp
Connection ~ 8000 5050
$Comp
L power:GND #PWR0101
U 1 1 61EE273E
P 7700 4650
F 0 "#PWR0101" H 7700 4400 50  0001 C CNN
F 1 "GND" V 7705 4522 50  0000 R CNN
F 2 "" H 7700 4650 50  0001 C CNN
F 3 "" H 7700 4650 50  0001 C CNN
	1    7700 4650
	0    1    1    0   
$EndComp
$Comp
L power:GND #PWR0102
U 1 1 61EE2DAB
P 7700 5050
F 0 "#PWR0102" H 7700 4800 50  0001 C CNN
F 1 "GND" V 7705 4922 50  0000 R CNN
F 2 "" H 7700 5050 50  0001 C CNN
F 3 "" H 7700 5050 50  0001 C CNN
	1    7700 5050
	0    1    1    0   
$EndComp
Text GLabel 8550 2150 0    50   BiDi ~ 0
RTCP
Text GLabel 8550 2250 0    50   BiDi ~ 0
RTCN
Text GLabel 8550 4650 2    50   BiDi ~ 0
RTCN
Text GLabel 8550 5050 2    50   BiDi ~ 0
RTCP
Wire Wire Line
	8550 4650 8400 4650
Connection ~ 8400 4650
Wire Wire Line
	8000 5050 8400 5050
Connection ~ 8400 5050
Wire Wire Line
	8400 5050 8550 5050
$Comp
L ESP32-C3:BQ51013B U3
U 1 1 61E93816
P 3800 1200
F 0 "U3" H 3775 1415 50  0000 C CNN
F 1 "BQ51013B" H 3775 1324 50  0000 C CNN
F 2 "" H 3800 550 50  0001 C CNN
F 3 "" H 3800 550 50  0001 C CNN
	1    3800 1200
	1    0    0    -1  
$EndComp
Wire Wire Line
	1950 2100 1950 2200
Wire Wire Line
	1950 2300 1950 2200
Connection ~ 1950 2200
Wire Wire Line
	950  2300 950  2200
Connection ~ 950  2200
Wire Wire Line
	950  2200 950  2100
Text GLabel 1950 2000 2    50   Input ~ 0
~PWRCNTRL
Text GLabel 950  2000 0    50   Input ~ 0
PWRCNTRL
Text GLabel 3250 1300 0    50   Output ~ 0
~PWRCNTRL
$Comp
L Connector:USB_A J1
U 1 1 61EB10E1
P 700 1200
F 0 "J1" H 757 1667 50  0000 C CNN
F 1 "USB_A" H 757 1576 50  0000 C CNN
F 2 "" H 850 1150 50  0001 C CNN
F 3 " ~" H 850 1150 50  0001 C CNN
	1    700  1200
	1    0    0    -1  
$EndComp
Text GLabel 1000 1200 2    50   BiDi ~ 0
D+
Text GLabel 1000 1300 2    50   BiDi ~ 0
D-
Text GLabel 10750 2200 2    50   BiDi ~ 0
D+
Text GLabel 10750 2300 2    50   BiDi ~ 0
D-
$Comp
L power:GND #PWR0103
U 1 1 61EBFB83
P 700 1600
F 0 "#PWR0103" H 700 1350 50  0001 C CNN
F 1 "GND" H 705 1427 50  0000 C CNN
F 2 "" H 700 1600 50  0001 C CNN
F 3 "" H 700 1600 50  0001 C CNN
	1    700  1600
	1    0    0    -1  
$EndComp
Wire Wire Line
	700  1600 600  1600
Connection ~ 700  1600
Text GLabel 1150 1000 2    50   Output ~ 0
USBPWR
Text GLabel 900  2200 0    50   Input ~ 0
USBPWR
Wire Wire Line
	950  2200 900  2200
Text Label 950  1900 0    50   ~ 0
NC
Text GLabel 2450 1400 0    50   Input ~ 0
USBPWR
$Comp
L Device:C C3
U 1 1 61EF79F3
P 1050 850
F 0 "C3" H 1165 896 50  0000 L CNN
F 1 "100nF" H 1165 805 50  0000 L CNN
F 2 "" H 1088 700 50  0001 C CNN
F 3 "~" H 1050 850 50  0001 C CNN
	1    1050 850 
	1    0    0    -1  
$EndComp
Wire Wire Line
	1000 1000 1050 1000
Connection ~ 1050 1000
Wire Wire Line
	1050 1000 1150 1000
$Comp
L power:GND #PWR0104
U 1 1 61F07C6A
P 1050 700
F 0 "#PWR0104" H 1050 450 50  0001 C CNN
F 1 "GND" H 1055 527 50  0000 C CNN
F 2 "" H 1050 700 50  0001 C CNN
F 3 "" H 1050 700 50  0001 C CNN
	1    1050 700 
	-1   0    0    1   
$EndComp
$Comp
L Device:C C17
U 1 1 61F114C5
P 4500 1200
F 0 "C17" H 4615 1246 50  0000 L CNN
F 1 "100nF" H 4615 1155 50  0000 L CNN
F 2 "Capacitor_SMD:C_0402_1005Metric" H 4538 1050 50  0001 C CNN
F 3 "~" H 4500 1200 50  0001 C CNN
	1    4500 1200
	1    0    0    -1  
$EndComp
Wire Wire Line
	4500 1350 4300 1350
$Comp
L power:GND #PWR0105
U 1 1 61F12089
P 4500 1050
F 0 "#PWR0105" H 4500 800 50  0001 C CNN
F 1 "GND" H 4505 877 50  0000 C CNN
F 2 "" H 4500 1050 50  0001 C CNN
F 3 "" H 4500 1050 50  0001 C CNN
	1    4500 1050
	-1   0    0    1   
$EndComp
$Comp
L power:+5V #PWR0106
U 1 1 61F126AB
P 5200 1350
F 0 "#PWR0106" H 5200 1200 50  0001 C CNN
F 1 "+5V" V 5215 1478 50  0000 L CNN
F 2 "" H 5200 1350 50  0001 C CNN
F 3 "" H 5200 1350 50  0001 C CNN
	1    5200 1350
	0    1    1    0   
$EndComp
Connection ~ 4500 1350
$Comp
L power:+5V #PWR0107
U 1 1 61F16A9A
P 1950 2200
F 0 "#PWR0107" H 1950 2050 50  0001 C CNN
F 1 "+5V" V 1965 2328 50  0000 L CNN
F 2 "" H 1950 2200 50  0001 C CNN
F 3 "" H 1950 2200 50  0001 C CNN
	1    1950 2200
	0    1    1    0   
$EndComp
$Comp
L power:GND #PWR0108
U 1 1 61F24F1D
P 3900 2750
F 0 "#PWR0108" H 3900 2500 50  0001 C CNN
F 1 "GND" H 3905 2577 50  0000 C CNN
F 2 "" H 3900 2750 50  0001 C CNN
F 3 "" H 3900 2750 50  0001 C CNN
	1    3900 2750
	1    0    0    -1  
$EndComp
$Comp
L Device:C C12
U 1 1 61F3A896
P 2550 1250
F 0 "C12" H 2665 1296 50  0000 L CNN
F 1 "1uF" H 2665 1205 50  0000 L CNN
F 2 "" H 2588 1100 50  0001 C CNN
F 3 "~" H 2550 1250 50  0001 C CNN
	1    2550 1250
	1    0    0    -1  
$EndComp
Connection ~ 2550 1400
Wire Wire Line
	2550 1400 2450 1400
Wire Wire Line
	2550 1400 3250 1400
$Comp
L power:GND #PWR0109
U 1 1 61F3C3A3
P 2550 1100
F 0 "#PWR0109" H 2550 850 50  0001 C CNN
F 1 "GND" H 2555 927 50  0000 C CNN
F 2 "" H 2550 1100 50  0001 C CNN
F 3 "" H 2550 1100 50  0001 C CNN
	1    2550 1100
	-1   0    0    1   
$EndComp
$Comp
L Device:L L1
U 1 1 61F43578
P 800 3800
F 0 "L1" H 756 3754 50  0000 R CNN
F 1 "QiCoil" H 756 3845 50  0000 R CNN
F 2 "" H 800 3800 50  0001 C CNN
F 3 "~" H 800 3800 50  0001 C CNN
	1    800  3800
	-1   0    0    1   
$EndComp
Text GLabel 3250 1700 0    50   Input ~ 0
AC1
Text GLabel 3250 1950 0    50   Input ~ 0
AC2
Text GLabel 3250 1600 0    50   Output ~ 0
BOOT1
Text GLabel 3250 2050 0    50   Output ~ 0
BOOT2
Text GLabel 1550 3250 2    50   Input ~ 0
BOOT1
Text GLabel 1550 4350 2    50   Input ~ 0
BOOT2
Wire Wire Line
	1250 4350 1250 3950
Wire Wire Line
	1250 3650 1250 3250
$Comp
L Device:C C8
U 1 1 61F4D229
P 1400 3250
F 0 "C8" V 1148 3250 50  0000 C CNN
F 1 "10nF" V 1239 3250 50  0000 C CNN
F 2 "" H 1438 3100 50  0001 C CNN
F 3 "~" H 1400 3250 50  0001 C CNN
	1    1400 3250
	0    1    1    0   
$EndComp
$Comp
L Device:C C9
U 1 1 61F4C5AD
P 1400 4350
F 0 "C9" V 1148 4350 50  0000 C CNN
F 1 "10nF" V 1239 4350 50  0000 C CNN
F 2 "" H 1438 4200 50  0001 C CNN
F 3 "~" H 1400 4350 50  0001 C CNN
	1    1400 4350
	0    1    1    0   
$EndComp
Connection ~ 1250 3650
Wire Wire Line
	1300 3650 1250 3650
Connection ~ 1250 3950
Wire Wire Line
	1300 3950 1250 3950
Text GLabel 1300 3950 2    50   Output ~ 0
AC2
Text GLabel 1300 3650 2    50   Output ~ 0
AC1
$Comp
L Device:C C6
U 1 1 61F44C19
P 1250 3800
F 0 "C6" H 1135 3754 50  0000 R CNN
F 1 "TBD" H 1135 3845 50  0000 R CNN
F 2 "" H 1288 3650 50  0001 C CNN
F 3 "~" H 1250 3800 50  0001 C CNN
	1    1250 3800
	-1   0    0    1   
$EndComp
$Comp
L Device:C C2
U 1 1 61F442A7
P 1000 3650
F 0 "C2" V 1252 3650 50  0000 C CNN
F 1 "TBD" V 1161 3650 50  0000 C CNN
F 2 "" H 1038 3500 50  0001 C CNN
F 3 "~" H 1000 3650 50  0001 C CNN
	1    1000 3650
	0    -1   -1   0   
$EndComp
Wire Wire Line
	1250 3950 800  3950
Wire Wire Line
	850  3650 800  3650
Wire Wire Line
	1250 3650 1150 3650
$Comp
L Device:C C7
U 1 1 61F66552
P 1400 2850
F 0 "C7" V 1148 2850 50  0000 C CNN
F 1 "22nF" V 1239 2850 50  0000 C CNN
F 2 "" H 1438 2700 50  0001 C CNN
F 3 "~" H 1400 2850 50  0001 C CNN
	1    1400 2850
	0    1    1    0   
$EndComp
$Comp
L Device:C C10
U 1 1 61F66CC0
P 1400 4750
F 0 "C10" V 1148 4750 50  0000 C CNN
F 1 "22nF" V 1239 4750 50  0000 C CNN
F 2 "" H 1438 4600 50  0001 C CNN
F 3 "~" H 1400 4750 50  0001 C CNN
	1    1400 4750
	0    1    1    0   
$EndComp
Wire Wire Line
	1250 4750 1250 4550
Connection ~ 1250 4350
Wire Wire Line
	1250 2850 1250 3050
Connection ~ 1250 3250
Text GLabel 1550 2850 2    50   Input ~ 0
COMM1
Text GLabel 1550 4750 2    50   Input ~ 0
COMM2
Text GLabel 3250 1500 0    50   Output ~ 0
COMM1
Text GLabel 3250 2150 0    50   Output ~ 0
COMM2
$Comp
L Device:C C5
U 1 1 61F6C9D6
P 1100 4550
F 0 "C5" V 848 4550 50  0000 C CNN
F 1 "0.47 uF" V 939 4550 50  0000 C CNN
F 2 "" H 1138 4400 50  0001 C CNN
F 3 "~" H 1100 4550 50  0001 C CNN
	1    1100 4550
	0    -1   -1   0   
$EndComp
$Comp
L Device:C C4
U 1 1 61F6DBB5
P 1100 3050
F 0 "C4" V 848 3050 50  0000 C CNN
F 1 "0.47 uF" V 939 3050 50  0000 C CNN
F 2 "" H 1138 2900 50  0001 C CNN
F 3 "~" H 1100 3050 50  0001 C CNN
	1    1100 3050
	0    -1   -1   0   
$EndComp
Connection ~ 1250 3050
Wire Wire Line
	1250 3050 1250 3250
Connection ~ 1250 4550
Wire Wire Line
	1250 4550 1250 4350
Text GLabel 950  3050 0    50   Input ~ 0
CLAMP1
Text GLabel 950  4550 0    50   Input ~ 0
CLAMP2
Text GLabel 3250 2350 0    50   Output ~ 0
CLAMP1
Text GLabel 3250 2250 0    50   Output ~ 0
CLAMP2
$Comp
L Device:R R4
U 1 1 61F88A13
P 4450 2150
F 0 "R4" V 4243 2150 50  0000 C CNN
F 1 "330Ohm" V 4334 2150 50  0000 C CNN
F 2 "" V 4380 2150 50  0001 C CNN
F 3 "~" H 4450 2150 50  0001 C CNN
	1    4450 2150
	0    1    1    0   
$EndComp
$Comp
L Device:LED D1
U 1 1 61F8ABA6
P 4750 2150
F 0 "D1" H 4743 2367 50  0000 C CNN
F 1 "LED" H 4743 2276 50  0000 C CNN
F 2 "" H 4750 2150 50  0001 C CNN
F 3 "~" H 4750 2150 50  0001 C CNN
	1    4750 2150
	1    0    0    -1  
$EndComp
$Comp
L power:+5V #PWR0110
U 1 1 61F8B33C
P 4900 2150
F 0 "#PWR0110" H 4900 2000 50  0001 C CNN
F 1 "+5V" V 4915 2278 50  0000 L CNN
F 2 "" H 4900 2150 50  0001 C CNN
F 3 "" H 4900 2150 50  0001 C CNN
	1    4900 2150
	0    1    1    0   
$EndComp
$Comp
L Device:R R3
U 1 1 61F8C34F
P 4450 1800
F 0 "R3" V 4243 1800 50  0000 C CNN
F 1 "10kOhm" V 4334 1800 50  0000 C CNN
F 2 "" V 4380 1800 50  0001 C CNN
F 3 "~" H 4450 1800 50  0001 C CNN
	1    4450 1800
	0    1    1    0   
$EndComp
$Comp
L power:GND #PWR0111
U 1 1 61F8CB06
P 4600 1800
F 0 "#PWR0111" H 4600 1550 50  0001 C CNN
F 1 "GND" V 4605 1672 50  0000 R CNN
F 2 "" H 4600 1800 50  0001 C CNN
F 3 "" H 4600 1800 50  0001 C CNN
	1    4600 1800
	0    -1   -1   0   
$EndComp
$Comp
L Device:R R5
U 1 1 61F8D27F
P 4750 2500
F 0 "R5" V 4543 2500 50  0000 C CNN
F 1 "10kOhm" V 4634 2500 50  0000 C CNN
F 2 "" V 4680 2500 50  0001 C CNN
F 3 "~" H 4750 2500 50  0001 C CNN
	1    4750 2500
	0    1    1    0   
$EndComp
$Comp
L Device:R R6
U 1 1 61F8ECB2
P 4750 2800
F 0 "R6" V 4543 2800 50  0000 C CNN
F 1 "10kOhm" V 4634 2800 50  0000 C CNN
F 2 "" V 4680 2800 50  0001 C CNN
F 3 "~" H 4750 2800 50  0001 C CNN
	1    4750 2800
	0    1    1    0   
$EndComp
Wire Wire Line
	4300 2250 4450 2250
Wire Wire Line
	4450 2250 4450 2500
Wire Wire Line
	4450 2500 4600 2500
Wire Wire Line
	4300 2350 4300 2800
Wire Wire Line
	4300 2800 4600 2800
Wire Wire Line
	4900 2500 4900 2650
$Comp
L power:GND #PWR0112
U 1 1 61F90F59
P 4900 2650
F 0 "#PWR0112" H 4900 2400 50  0001 C CNN
F 1 "GND" V 4905 2522 50  0000 R CNN
F 2 "" H 4900 2650 50  0001 C CNN
F 3 "" H 4900 2650 50  0001 C CNN
	1    4900 2650
	0    -1   -1   0   
$EndComp
Connection ~ 4900 2650
Wire Wire Line
	4900 2650 4900 2800
$Comp
L Device:C C18
U 1 1 61F98736
P 4950 1200
F 0 "C18" H 5065 1246 50  0000 L CNN
F 1 "1uF" H 5065 1155 50  0000 L CNN
F 2 "" H 4988 1050 50  0001 C CNN
F 3 "~" H 4950 1200 50  0001 C CNN
	1    4950 1200
	1    0    0    -1  
$EndComp
Wire Wire Line
	4500 1350 4950 1350
Wire Wire Line
	5200 1350 4950 1350
Connection ~ 4950 1350
$Comp
L power:GND #PWR0113
U 1 1 61F9A820
P 4950 1050
F 0 "#PWR0113" H 4950 800 50  0001 C CNN
F 1 "GND" H 4955 877 50  0000 C CNN
F 2 "" H 4950 1050 50  0001 C CNN
F 3 "" H 4950 1050 50  0001 C CNN
	1    4950 1050
	-1   0    0    1   
$EndComp
$Comp
L power:+5V #PWR0114
U 1 1 61E98904
P 800 5550
F 0 "#PWR0114" H 800 5400 50  0001 C CNN
F 1 "+5V" V 815 5678 50  0000 L CNN
F 2 "" H 800 5550 50  0001 C CNN
F 3 "" H 800 5550 50  0001 C CNN
	1    800  5550
	0    -1   -1   0   
$EndComp
$Comp
L Device:R R2
U 1 1 61E996D3
P 800 5700
F 0 "R2" H 870 5746 50  0000 L CNN
F 1 "10kOhm" H 870 5655 50  0000 L CNN
F 2 "" V 730 5700 50  0001 C CNN
F 3 "~" H 800 5700 50  0001 C CNN
	1    800  5700
	1    0    0    -1  
$EndComp
Wire Wire Line
	800  5550 950  5550
Wire Wire Line
	1100 5550 1100 5650
Connection ~ 800  5550
$Comp
L power:+3.3V #PWR0115
U 1 1 61E9C192
P 2750 5650
F 0 "#PWR0115" H 2750 5500 50  0001 C CNN
F 1 "+3.3V" V 2765 5778 50  0000 L CNN
F 2 "" H 2750 5650 50  0001 C CNN
F 3 "" H 2750 5650 50  0001 C CNN
	1    2750 5650
	0    1    1    0   
$EndComp
$Comp
L power:GND #PWR0116
U 1 1 61E9C791
P 2750 6050
F 0 "#PWR0116" H 2750 5800 50  0001 C CNN
F 1 "GND" V 2755 5922 50  0000 R CNN
F 2 "" H 2750 6050 50  0001 C CNN
F 3 "" H 2750 6050 50  0001 C CNN
	1    2750 6050
	0    -1   -1   0   
$EndComp
Wire Wire Line
	2300 5950 2300 6050
$Comp
L power:GND #PWR0117
U 1 1 61EB52B7
P 10750 3900
F 0 "#PWR0117" H 10750 3650 50  0001 C CNN
F 1 "GND" V 10755 3772 50  0000 R CNN
F 2 "" H 10750 3900 50  0001 C CNN
F 3 "" H 10750 3900 50  0001 C CNN
	1    10750 3900
	0    -1   -1   0   
$EndComp
$Comp
L Device:C C28
U 1 1 61EC53CF
P 8400 4050
F 0 "C28" H 8515 4096 50  0000 L CNN
F 1 "100nF" H 8515 4005 50  0000 L CNN
F 2 "" H 8438 3900 50  0001 C CNN
F 3 "~" H 8400 4050 50  0001 C CNN
	1    8400 4050
	1    0    0    -1  
$EndComp
Wire Wire Line
	8550 3900 8400 3900
$Comp
L power:+3.3V #PWR0118
U 1 1 61ED0BC9
P 8250 3900
F 0 "#PWR0118" H 8250 3750 50  0001 C CNN
F 1 "+3.3V" V 8265 4028 50  0000 L CNN
F 2 "" H 8250 3900 50  0001 C CNN
F 3 "" H 8250 3900 50  0001 C CNN
	1    8250 3900
	0    -1   -1   0   
$EndComp
$Comp
L power:GND #PWR0119
U 1 1 61ED1558
P 8400 4200
F 0 "#PWR0119" H 8400 3950 50  0001 C CNN
F 1 "GND" H 8405 4027 50  0000 C CNN
F 2 "" H 8400 4200 50  0001 C CNN
F 3 "" H 8400 4200 50  0001 C CNN
	1    8400 4200
	1    0    0    -1  
$EndComp
Wire Wire Line
	8400 3900 8250 3900
Connection ~ 8400 3900
$Comp
L Device:C C23
U 1 1 61ED3A46
P 7700 3950
F 0 "C23" H 7815 3996 50  0000 L CNN
F 1 "C" H 7815 3905 50  0000 L CNN
F 2 "" H 7738 3800 50  0001 C CNN
F 3 "~" H 7700 3950 50  0001 C CNN
	1    7700 3950
	1    0    0    -1  
$EndComp
Wire Wire Line
	8550 3800 7700 3800
$Comp
L power:+3.3V #PWR0120
U 1 1 61EDC70A
P 7550 3800
F 0 "#PWR0120" H 7550 3650 50  0001 C CNN
F 1 "+3.3V" V 7565 3928 50  0000 L CNN
F 2 "" H 7550 3800 50  0001 C CNN
F 3 "" H 7550 3800 50  0001 C CNN
	1    7550 3800
	0    -1   -1   0   
$EndComp
$Comp
L power:GND #PWR0121
U 1 1 61EDCED5
P 7700 4100
F 0 "#PWR0121" H 7700 3850 50  0001 C CNN
F 1 "GND" H 7705 3927 50  0000 C CNN
F 2 "" H 7700 4100 50  0001 C CNN
F 3 "" H 7700 4100 50  0001 C CNN
	1    7700 4100
	1    0    0    -1  
$EndComp
Wire Wire Line
	7700 3800 7550 3800
Connection ~ 7700 3800
Wire Wire Line
	8550 3400 8550 3300
$Comp
L Device:C C27
U 1 1 61EE06C1
P 8100 3250
F 0 "C27" H 8215 3296 50  0000 L CNN
F 1 "10nF" H 8215 3205 50  0000 L CNN
F 2 "" H 8138 3100 50  0001 C CNN
F 3 "~" H 8100 3250 50  0001 C CNN
	1    8100 3250
	1    0    0    -1  
$EndComp
$Comp
L Device:C C22
U 1 1 61EE2445
P 7700 3250
F 0 "C22" H 7815 3296 50  0000 L CNN
F 1 "1uF" H 7815 3205 50  0000 L CNN
F 2 "" H 7738 3100 50  0001 C CNN
F 3 "~" H 7700 3250 50  0001 C CNN
	1    7700 3250
	1    0    0    -1  
$EndComp
Wire Wire Line
	8550 3400 8100 3400
Connection ~ 8550 3400
Connection ~ 8100 3400
Wire Wire Line
	8100 3400 7700 3400
Wire Wire Line
	8100 3100 7700 3100
$Comp
L power:GND #PWR0122
U 1 1 61EE4C1D
P 7700 3100
F 0 "#PWR0122" H 7700 2850 50  0001 C CNN
F 1 "GND" H 7705 2927 50  0000 C CNN
F 2 "" H 7700 3100 50  0001 C CNN
F 3 "" H 7700 3100 50  0001 C CNN
	1    7700 3100
	-1   0    0    1   
$EndComp
Connection ~ 7700 3100
$Comp
L power:+3.3V #PWR0123
U 1 1 61EE5585
P 7700 3400
F 0 "#PWR0123" H 7700 3250 50  0001 C CNN
F 1 "+3.3V" V 7715 3528 50  0000 L CNN
F 2 "" H 7700 3400 50  0001 C CNN
F 3 "" H 7700 3400 50  0001 C CNN
	1    7700 3400
	0    -1   -1   0   
$EndComp
Connection ~ 7700 3400
Wire Wire Line
	8550 3600 8550 3650
$Comp
L Device:L L2
U 1 1 61EE8120
P 6950 3650
F 0 "L2" V 7140 3650 50  0000 C CNN
F 1 "2.0nH" V 7049 3650 50  0000 C CNN
F 2 "" H 6950 3650 50  0001 C CNN
F 3 "~" H 6950 3650 50  0001 C CNN
	1    6950 3650
	0    -1   -1   0   
$EndComp
$Comp
L Device:C C21
U 1 1 61EE9F62
P 7250 3500
F 0 "C21" H 7365 3546 50  0000 L CNN
F 1 "100nF" H 7365 3455 50  0000 L CNN
F 2 "Capacitor_SMD:C_0402_1005Metric" H 7288 3350 50  0001 C CNN
F 3 "~" H 7250 3500 50  0001 C CNN
	1    7250 3500
	1    0    0    -1  
$EndComp
$Comp
L Device:C C20
U 1 1 61EF109D
P 6500 3500
F 0 "C20" H 6615 3546 50  0000 L CNN
F 1 "100nF" H 6615 3455 50  0000 L CNN
F 2 "Capacitor_SMD:C_0402_1005Metric" H 6538 3350 50  0001 C CNN
F 3 "~" H 6500 3500 50  0001 C CNN
	1    6500 3500
	1    0    0    -1  
$EndComp
Wire Wire Line
	7250 3650 7100 3650
Wire Wire Line
	7250 3650 8550 3650
Connection ~ 7250 3650
Connection ~ 8550 3650
Wire Wire Line
	8550 3650 8550 3700
Wire Wire Line
	6500 3350 7250 3350
Wire Wire Line
	6500 3650 6800 3650
$Comp
L Device:C C19
U 1 1 61EFEAFC
P 6100 3500
F 0 "C19" H 6215 3546 50  0000 L CNN
F 1 "10uF" H 6215 3455 50  0000 L CNN
F 2 "" H 6138 3350 50  0001 C CNN
F 3 "~" H 6100 3500 50  0001 C CNN
	1    6100 3500
	1    0    0    -1  
$EndComp
Wire Wire Line
	6500 3650 6100 3650
Connection ~ 6500 3650
Wire Wire Line
	6500 3350 6100 3350
Connection ~ 6500 3350
$Comp
L power:GND #PWR0124
U 1 1 61F01B7A
P 6100 3350
F 0 "#PWR0124" H 6100 3100 50  0001 C CNN
F 1 "GND" H 6105 3177 50  0000 C CNN
F 2 "" H 6100 3350 50  0001 C CNN
F 3 "" H 6100 3350 50  0001 C CNN
	1    6100 3350
	-1   0    0    1   
$EndComp
Connection ~ 6100 3350
$Comp
L power:+3.3V #PWR0125
U 1 1 61F02838
P 6100 3650
F 0 "#PWR0125" H 6100 3500 50  0001 C CNN
F 1 "+3.3V" H 6115 3823 50  0000 C CNN
F 2 "" H 6100 3650 50  0001 C CNN
F 3 "" H 6100 3650 50  0001 C CNN
	1    6100 3650
	-1   0    0    1   
$EndComp
Connection ~ 6100 3650
$Comp
L Device:C C1
U 1 1 61E99C8B
P 950 5400
F 0 "C1" H 1065 5446 50  0000 L CNN
F 1 "2.2uF" H 1065 5355 50  0000 L CNN
F 2 "" H 988 5250 50  0001 C CNN
F 3 "~" H 950 5400 50  0001 C CNN
	1    950  5400
	1    0    0    -1  
$EndComp
Connection ~ 950  5550
Wire Wire Line
	950  5550 1100 5550
$Comp
L power:GND #PWR0126
U 1 1 61E9CF39
P 950 5250
F 0 "#PWR0126" H 950 5000 50  0001 C CNN
F 1 "GND" H 955 5077 50  0000 C CNN
F 2 "" H 950 5250 50  0001 C CNN
F 3 "" H 950 5250 50  0001 C CNN
	1    950  5250
	-1   0    0    1   
$EndComp
Wire Wire Line
	1100 5850 800  5850
$Comp
L Device:C C14
U 1 1 61EABCE4
P 2750 5800
F 0 "C14" H 2865 5846 50  0000 L CNN
F 1 "100nF" H 2865 5755 50  0000 L CNN
F 2 "Capacitor_SMD:C_0402_1005Metric" H 2788 5650 50  0001 C CNN
F 3 "~" H 2750 5800 50  0001 C CNN
	1    2750 5800
	1    0    0    -1  
$EndComp
$Comp
L ESP32-C3:MIC5528-3.3YMT-TR U2
U 1 1 61E9719A
P 1700 5750
F 0 "U2" H 1700 6217 50  0000 C CNN
F 1 "MIC5528-3.3YMT-TR" H 1700 6126 50  0000 C CNN
F 2 "visitenkarte:MIC5528-3.3YMT-TR" H 1700 5750 50  0001 L BNN
F 3 "" H 1700 5750 50  0001 L BNN
F 4 "MICROCHIP" H 1700 5750 50  0001 L BNN "MANUFACTURER"
F 5 "0.25" H 1700 5750 50  0001 L BNN "L_NOM"
F 6 "0.4" H 1700 5750 50  0001 L BNN "ENOM"
F 7 "6.0" H 1700 5750 50  0001 L BNN "PIN_COUNT"
F 8 "0.3" H 1700 5750 50  0001 L BNN "E2_NOM"
F 9 "1.15" H 1700 5750 50  0001 L BNN "D_MIN"
F 10 "1.2" H 1700 5750 50  0001 L BNN "E_NOM"
F 11 "1.2" H 1700 5750 50  0001 L BNN "D_NOM"
F 12 "1.25" H 1700 5750 50  0001 L BNN "E_MAX"
F 13 "0.6" H 1700 5750 50  0001 L BNN "A_MAX"
F 14 "IPC 7351B" H 1700 5750 50  0001 L BNN "STANDARD"
F 15 "1.15" H 1700 5750 50  0001 L BNN "E_MIN"
F 16 "0.13" H 1700 5750 50  0001 L BNN "B_MIN"
F 17 "0.295" H 1700 5750 50  0001 L BNN "L_MAX"
F 18 "0.94" H 1700 5750 50  0001 L BNN "D2_NOM"
F 19 "7814" H 1700 5750 50  0001 L BNN "SNAPEDA_PACKAGE_ID"
F 20 "1.25" H 1700 5750 50  0001 L BNN "D_MAX"
F 21 "0.23" H 1700 5750 50  0001 L BNN "B_MAX"
F 22 "0.18" H 1700 5750 50  0001 L BNN "B_NOM"
F 23 "0.195" H 1700 5750 50  0001 L BNN "L_MIN"
	1    1700 5750
	1    0    0    -1  
$EndComp
$Comp
L Device:C C11
U 1 1 61EAE5CA
P 2300 5800
F 0 "C11" H 2415 5846 50  0000 L CNN
F 1 "2.2uF" H 2415 5755 50  0000 L CNN
F 2 "" H 2338 5650 50  0001 C CNN
F 3 "~" H 2300 5800 50  0001 C CNN
	1    2300 5800
	1    0    0    -1  
$EndComp
Wire Wire Line
	2300 5650 2750 5650
Connection ~ 2300 5650
Connection ~ 2750 5650
Wire Wire Line
	2750 6050 2750 5950
Wire Wire Line
	2750 6050 2300 6050
Connection ~ 2750 6050
Connection ~ 2300 6050
Text GLabel 8550 2000 0    50   Input ~ 0
CHIPEN
Text GLabel 9500 4650 0    50   Output ~ 0
CHIPEN
$Comp
L Device:R R9
U 1 1 61EE44B3
P 9850 4650
F 0 "R9" V 9643 4650 50  0000 C CNN
F 1 "10kOhm" V 9734 4650 50  0000 C CNN
F 2 "" V 9780 4650 50  0001 C CNN
F 3 "~" H 9850 4650 50  0001 C CNN
	1    9850 4650
	0    1    1    0   
$EndComp
$Comp
L Device:C C30
U 1 1 61EE5120
P 9600 4950
F 0 "C30" H 9715 4996 50  0000 L CNN
F 1 "1uF" H 9715 4905 50  0000 L CNN
F 2 "" H 9638 4800 50  0001 C CNN
F 3 "~" H 9600 4950 50  0001 C CNN
	1    9600 4950
	1    0    0    -1  
$EndComp
Wire Wire Line
	9500 4650 9600 4650
Wire Wire Line
	9600 4800 9600 4650
Connection ~ 9600 4650
Wire Wire Line
	9600 4650 9700 4650
$Comp
L power:GND #PWR0127
U 1 1 61EE8AA8
P 9600 5100
F 0 "#PWR0127" H 9600 4850 50  0001 C CNN
F 1 "GND" H 9605 4927 50  0000 C CNN
F 2 "" H 9600 5100 50  0001 C CNN
F 3 "" H 9600 5100 50  0001 C CNN
	1    9600 5100
	1    0    0    -1  
$EndComp
$Comp
L power:+3.3V #PWR0128
U 1 1 61EE9254
P 10000 4650
F 0 "#PWR0128" H 10000 4500 50  0001 C CNN
F 1 "+3.3V" V 10015 4778 50  0000 L CNN
F 2 "" H 10000 4650 50  0001 C CNN
F 3 "" H 10000 4650 50  0001 C CNN
	1    10000 4650
	0    1    1    0   
$EndComp
$Comp
L Device:Crystal_GND24 Y1
U 1 1 61EEC21A
P 8250 5800
F 0 "Y1" H 8444 5846 50  0000 L CNN
F 1 "ECS-400-10-36B2-CKM-TR" H 8444 5755 50  0000 L CNN
F 2 "" H 8250 5800 50  0001 C CNN
F 3 "https://www.mouser.de/datasheet/2/122/ECX_2236B2-2400583.pdf" H 8250 5800 50  0001 C CNN
	1    8250 5800
	1    0    0    -1  
$EndComp
$Comp
L power:GND #PWR0129
U 1 1 61EEF6E4
P 8250 5600
F 0 "#PWR0129" H 8250 5350 50  0001 C CNN
F 1 "GND" H 8255 5427 50  0000 C CNN
F 2 "" H 8250 5600 50  0001 C CNN
F 3 "" H 8250 5600 50  0001 C CNN
	1    8250 5600
	-1   0    0    1   
$EndComp
$Comp
L power:GND #PWR0130
U 1 1 61EEFCDE
P 8250 6000
F 0 "#PWR0130" H 8250 5750 50  0001 C CNN
F 1 "GND" H 8255 5827 50  0000 C CNN
F 2 "" H 8250 6000 50  0001 C CNN
F 3 "" H 8250 6000 50  0001 C CNN
	1    8250 6000
	1    0    0    -1  
$EndComp
$Comp
L Device:C C26
U 1 1 61EF09EE
P 7850 5650
F 0 "C26" H 7965 5696 50  0000 L CNN
F 1 "8pF" H 7965 5605 50  0000 L CNN
F 2 "" H 7888 5500 50  0001 C CNN
F 3 "~" H 7850 5650 50  0001 C CNN
	1    7850 5650
	1    0    0    -1  
$EndComp
$Comp
L Device:C C29
U 1 1 61EF2992
P 8650 5650
F 0 "C29" H 8765 5696 50  0000 L CNN
F 1 "8pF" H 8765 5605 50  0000 L CNN
F 2 "" H 8688 5500 50  0001 C CNN
F 3 "~" H 8650 5650 50  0001 C CNN
	1    8650 5650
	1    0    0    -1  
$EndComp
Wire Wire Line
	7850 5800 8100 5800
Wire Wire Line
	8650 5800 8400 5800
$Comp
L power:GND #PWR0131
U 1 1 61EF6D63
P 7850 5500
F 0 "#PWR0131" H 7850 5250 50  0001 C CNN
F 1 "GND" H 7855 5327 50  0000 C CNN
F 2 "" H 7850 5500 50  0001 C CNN
F 3 "" H 7850 5500 50  0001 C CNN
	1    7850 5500
	-1   0    0    1   
$EndComp
$Comp
L power:GND #PWR0132
U 1 1 61EF739F
P 8650 5500
F 0 "#PWR0132" H 8650 5250 50  0001 C CNN
F 1 "GND" H 8655 5327 50  0000 C CNN
F 2 "" H 8650 5500 50  0001 C CNN
F 3 "" H 8650 5500 50  0001 C CNN
	1    8650 5500
	-1   0    0    1   
$EndComp
$Comp
L Device:R R7
U 1 1 61F086A4
P 7600 5800
F 0 "R7" V 7393 5800 50  0000 C CNN
F 1 "0Ohm" V 7484 5800 50  0000 C CNN
F 2 "" V 7530 5800 50  0001 C CNN
F 3 "~" H 7600 5800 50  0001 C CNN
	1    7600 5800
	0    1    1    0   
$EndComp
Wire Wire Line
	7850 5800 7750 5800
Connection ~ 7850 5800
Text GLabel 7400 5800 0    50   BiDi ~ 0
XTALP
Text GLabel 8750 5800 2    50   BiDi ~ 0
XTALN
Wire Wire Line
	8750 5800 8650 5800
Connection ~ 8650 5800
Wire Wire Line
	7400 5800 7450 5800
Text GLabel 8550 2550 0    50   BiDi ~ 0
XTALP
Text GLabel 8550 2450 0    50   BiDi ~ 0
XTALN
Text GLabel 3650 2750 3    50   Output ~ 0
FOD
Text GLabel 3250 2450 0    50   Output ~ 0
ILIM
Text GLabel 4300 1550 2    50   Output ~ 0
RECT
Text GLabel 2650 3500 0    50   Input ~ 0
RECT
$Comp
L Device:C C13
U 1 1 61EC21CC
P 2750 3350
F 0 "C13" H 2865 3396 50  0000 L CNN
F 1 "100nF" H 2865 3305 50  0000 L CNN
F 2 "Capacitor_SMD:C_0402_1005Metric" H 2788 3200 50  0001 C CNN
F 3 "~" H 2750 3350 50  0001 C CNN
	1    2750 3350
	1    0    0    -1  
$EndComp
$Comp
L Device:C C15
U 1 1 61EC4508
P 3200 3350
F 0 "C15" H 3315 3396 50  0000 L CNN
F 1 "10uF" H 3315 3305 50  0000 L CNN
F 2 "" H 3238 3200 50  0001 C CNN
F 3 "~" H 3200 3350 50  0001 C CNN
	1    3200 3350
	1    0    0    -1  
$EndComp
$Comp
L Device:C C16
U 1 1 61EC9545
P 3650 3350
F 0 "C16" H 3765 3396 50  0000 L CNN
F 1 "10uF" H 3765 3305 50  0000 L CNN
F 2 "" H 3688 3200 50  0001 C CNN
F 3 "~" H 3650 3350 50  0001 C CNN
	1    3650 3350
	1    0    0    -1  
$EndComp
Wire Wire Line
	2650 3500 2750 3500
Connection ~ 2750 3500
Wire Wire Line
	2750 3500 3200 3500
Connection ~ 3200 3500
Wire Wire Line
	3200 3500 3650 3500
Wire Wire Line
	3650 3200 3200 3200
Connection ~ 3200 3200
Wire Wire Line
	3200 3200 2750 3200
$Comp
L power:GND #PWR0133
U 1 1 61ED03C1
P 2750 3200
F 0 "#PWR0133" H 2750 2950 50  0001 C CNN
F 1 "GND" H 2755 3027 50  0000 C CNN
F 2 "" H 2750 3200 50  0001 C CNN
F 3 "" H 2750 3200 50  0001 C CNN
	1    2750 3200
	-1   0    0    1   
$EndComp
Connection ~ 2750 3200
$Comp
L Device:R Ros1
U 1 1 61ED1624
P 4100 3500
F 0 "Ros1" V 3893 3500 50  0000 C CNN
F 1 "TBD" V 3984 3500 50  0000 C CNN
F 2 "" V 4030 3500 50  0001 C CNN
F 3 "~" H 4100 3500 50  0001 C CNN
	1    4100 3500
	0    1    1    0   
$EndComp
Wire Wire Line
	3950 3500 3650 3500
Connection ~ 3650 3500
Text GLabel 4400 3350 1    50   Input ~ 0
FOD
Wire Wire Line
	4400 3350 4400 3500
$Comp
L Device:R Rfod1
U 1 1 61EEBBC7
P 4700 3500
F 0 "Rfod1" V 4493 3500 50  0000 C CNN
F 1 "TBD" V 4584 3500 50  0000 C CNN
F 2 "" V 4630 3500 50  0001 C CNN
F 3 "~" H 4700 3500 50  0001 C CNN
	1    4700 3500
	0    1    1    0   
$EndComp
$Comp
L power:GND #PWR0134
U 1 1 61EEC83D
P 4850 3500
F 0 "#PWR0134" H 4850 3250 50  0001 C CNN
F 1 "GND" V 4855 3372 50  0000 R CNN
F 2 "" H 4850 3500 50  0001 C CNN
F 3 "" H 4850 3500 50  0001 C CNN
	1    4850 3500
	0    -1   -1   0   
$EndComp
Wire Wire Line
	4250 3500 4400 3500
Connection ~ 4400 3500
Wire Wire Line
	4400 3500 4550 3500
$Comp
L Device:R R1
U 1 1 61EF0B57
P 4400 3700
F 0 "R1" H 4470 3746 50  0000 L CNN
F 1 "TBD" H 4470 3655 50  0000 L CNN
F 2 "" V 4330 3700 50  0001 C CNN
F 3 "~" H 4400 3700 50  0001 C CNN
	1    4400 3700
	1    0    0    -1  
$EndComp
Wire Wire Line
	4400 3500 4400 3550
Text GLabel 4400 3850 3    50   Input ~ 0
ILIM
$Comp
L ESP32-C3:CSD75207W15 U?
U 1 1 61F7EDBF
P 1450 2100
F 0 "U?" H 1450 2567 50  0000 C CNN
F 1 "CSD75207W15" H 1450 2476 50  0000 C CNN
F 2 "visitenkarte:CSD75207W15" H 1450 2100 50  0001 L BNN
F 3 "" H 1450 2100 50  0001 L BNN
F 4 "Texas Instruments" H 1450 2100 50  0001 L BNN "MANUFACTURER"
F 5 "IPC7351B" H 1450 2100 50  0001 L BNN "STANDARD"
F 6 "A" H 1450 2100 50  0001 L BNN "PARTREV"
F 7 "0.62mm" H 1450 2100 50  0001 L BNN "MAXIMUM_PACKAGE_HIEGHT"
	1    1450 2100
	1    0    0    -1  
$EndComp
$EndSCHEMATC
