%TF.GenerationSoftware,KiCad,Pcbnew,6.0.4+dfsg-1+b1*%
%TF.CreationDate,2022-06-08T07:46:08+02:00*%
%TF.ProjectId,visitenkarte,76697369-7465-46e6-9b61-7274652e6b69,rev?*%
%TF.SameCoordinates,Original*%
%TF.FileFunction,Plated,1,4,PTH,Mixed*%
%TF.FilePolarity,Positive*%
%FSLAX46Y46*%
G04 Gerber Fmt 4.6, Leading zero omitted, Abs format (unit mm)*
G04 Created by KiCad (PCBNEW 6.0.4+dfsg-1+b1) date 2022-06-08 07:46:08*
%MOMM*%
%LPD*%
G01*
G04 APERTURE LIST*
%TA.AperFunction,ViaDrill*%
%ADD10C,0.200000*%
%TD*%
%TA.AperFunction,ViaDrill*%
%ADD11C,0.400000*%
%TD*%
G04 aperture for slot hole*
%TA.AperFunction,ComponentDrill*%
%ADD12O,1.400000X0.600000*%
%TD*%
G04 aperture for slot hole*
%TA.AperFunction,ComponentDrill*%
%ADD13O,1.700000X0.600000*%
%TD*%
G04 APERTURE END LIST*
D10*
X56774000Y-75170384D03*
X56896000Y-57912000D03*
X57268184Y-75728231D03*
X57482899Y-60768742D03*
X58423938Y-67622643D03*
X58450704Y-60752612D03*
X58875750Y-56964861D03*
X58879054Y-49262487D03*
X58879054Y-50427009D03*
X58879054Y-51490268D03*
X58879054Y-53718049D03*
X58904598Y-54757190D03*
X58928000Y-55880000D03*
X59161366Y-67435953D03*
X59178836Y-73230055D03*
X59300000Y-58700000D03*
X59305597Y-60784872D03*
X59624080Y-38778168D03*
X60208882Y-60817132D03*
X60462216Y-65744855D03*
X60686704Y-54286704D03*
X60752277Y-73769122D03*
X61030526Y-65258909D03*
X61096036Y-60833262D03*
X61252219Y-75865593D03*
X61607072Y-64682363D03*
X61917583Y-50061489D03*
X61997153Y-74808707D03*
X62015450Y-60768742D03*
X62158909Y-64130526D03*
X62568352Y-75281044D03*
X62950000Y-63600000D03*
X63058868Y-75897722D03*
X63829986Y-75976811D03*
X64400000Y-79150000D03*
X64620877Y-75976811D03*
X64651816Y-63038181D03*
X64928153Y-75268307D03*
X65234468Y-63554581D03*
X65700000Y-38550000D03*
X65783559Y-64155150D03*
X66293043Y-75301688D03*
X66400000Y-64700000D03*
X66477348Y-58303912D03*
X66500000Y-77750000D03*
X66872918Y-61010822D03*
X66950000Y-65300000D03*
X67250000Y-78900000D03*
X67585769Y-58081412D03*
X67610117Y-65958019D03*
X67818886Y-57226951D03*
X67894564Y-60518919D03*
X67900000Y-79300000D03*
X68062590Y-52907666D03*
X68176866Y-51624257D03*
X68198896Y-59515692D03*
X68199300Y-66533961D03*
X68709726Y-78849183D03*
X68783774Y-59043209D03*
X68786910Y-67115876D03*
X68859451Y-59837822D03*
X69398600Y-67608406D03*
X69450000Y-79350000D03*
X69464871Y-58513467D03*
X69593998Y-76136226D03*
X69600000Y-72600000D03*
X69710822Y-56129628D03*
X69786500Y-57113434D03*
X69850000Y-70050000D03*
X70321850Y-75399985D03*
X70350000Y-79300000D03*
X70461193Y-70784607D03*
X70835015Y-63952758D03*
X70929039Y-38079039D03*
X70967450Y-65182516D03*
X71154136Y-74282453D03*
X71200000Y-71250000D03*
X71350000Y-79350000D03*
X71682637Y-74824681D03*
X71780983Y-64274387D03*
X71979210Y-73544167D03*
X72291805Y-62798677D03*
X72307228Y-75236500D03*
X72350000Y-66550000D03*
X72991247Y-73877614D03*
X73038401Y-64656147D03*
X73050000Y-73050000D03*
X73151457Y-75215909D03*
X73265245Y-65942958D03*
X73367508Y-66877940D03*
X73389128Y-63612210D03*
X73445886Y-61455403D03*
X73502644Y-62231096D03*
X73750000Y-72650000D03*
X73927048Y-75263954D03*
X73942990Y-73650024D03*
X73946223Y-66369069D03*
X74145116Y-64492189D03*
X74202660Y-62874355D03*
X74213141Y-65477325D03*
X74490667Y-74399528D03*
X74550000Y-71850000D03*
X74653859Y-75875350D03*
X74667142Y-72987941D03*
X74940515Y-61039177D03*
X74978354Y-62306774D03*
X75003876Y-66339136D03*
X75016193Y-63744645D03*
X75069182Y-70078272D03*
X75244185Y-65518900D03*
X75255129Y-74668974D03*
X75300000Y-71100000D03*
X75333811Y-64635652D03*
X75556816Y-72263789D03*
X75594101Y-73570876D03*
X75791616Y-75369691D03*
X75791887Y-62931113D03*
X75971727Y-66349114D03*
X76094596Y-61058096D03*
X76150000Y-70850000D03*
X76200396Y-65510585D03*
X76302709Y-63763564D03*
X76305723Y-72731162D03*
X76343038Y-71601707D03*
X76450000Y-38300000D03*
X76529742Y-62306774D03*
X76657291Y-75621908D03*
X76747947Y-64574168D03*
X76831742Y-74625179D03*
X76964887Y-61171612D03*
X77059313Y-66408981D03*
X77059484Y-63839242D03*
X77150000Y-70850000D03*
X77203998Y-73409873D03*
X77205767Y-65456895D03*
X77248677Y-62723000D03*
X77287763Y-72603070D03*
X77315472Y-71725847D03*
X77444870Y-75468229D03*
X77652895Y-74198179D03*
X77875158Y-64656147D03*
X77948693Y-61322967D03*
X77997191Y-70836208D03*
X78017187Y-66349114D03*
X78062210Y-63820322D03*
X78082221Y-65514368D03*
X78112741Y-73322283D03*
X78143075Y-71705157D03*
X78255569Y-72617302D03*
X78289242Y-62609484D03*
X78299597Y-75897815D03*
X78572586Y-75030281D03*
X78605432Y-74044898D03*
X78721179Y-65942792D03*
X78900000Y-61300000D03*
X79100000Y-64000000D03*
X79100000Y-65100000D03*
X79200000Y-63000000D03*
X79200000Y-71700000D03*
X79300000Y-72600000D03*
X79400000Y-62000000D03*
X79500000Y-75400000D03*
X79600000Y-66300000D03*
X79600000Y-73500000D03*
X79700000Y-74500000D03*
X80000000Y-61300000D03*
X80000000Y-63300000D03*
X80000000Y-64100000D03*
X80100000Y-65000000D03*
X80200000Y-65800000D03*
X80300000Y-71800000D03*
X80400000Y-70900000D03*
X80500000Y-62200000D03*
X80600000Y-72800000D03*
X80800000Y-75300000D03*
X80900000Y-73900000D03*
X81000000Y-71300000D03*
X81100000Y-61500000D03*
X81100000Y-63100000D03*
X81100000Y-65100000D03*
X81100000Y-66200000D03*
X81200000Y-64000000D03*
X81200000Y-72200000D03*
X81600000Y-73300000D03*
X81600000Y-74600000D03*
X81700000Y-62500000D03*
X82000000Y-61500000D03*
X82000000Y-65900000D03*
X82100000Y-38200000D03*
X82100000Y-63300000D03*
X82100000Y-65000000D03*
X82200000Y-71500000D03*
X82300000Y-72500000D03*
X82400000Y-73200000D03*
X82500000Y-74200000D03*
X82600000Y-62500000D03*
X82600000Y-64100000D03*
X83200000Y-61500000D03*
X83200000Y-72000000D03*
X83300000Y-73000000D03*
X83400000Y-63400000D03*
X83400000Y-73700000D03*
X83500000Y-64400000D03*
X83500000Y-74700000D03*
X83600000Y-65100000D03*
X83700000Y-66100000D03*
X83900000Y-62200000D03*
X84450000Y-71800000D03*
X84500000Y-63300000D03*
X84550000Y-72800000D03*
X84600000Y-64300000D03*
X84650000Y-61400000D03*
X84650000Y-73500000D03*
X84700000Y-65000000D03*
X84750000Y-74500000D03*
X84800000Y-66000000D03*
X85200000Y-62200000D03*
X85650000Y-71650000D03*
X85750000Y-72650000D03*
X85800000Y-63250000D03*
X85850000Y-73350000D03*
X85900000Y-61350000D03*
X85900000Y-64250000D03*
X85900000Y-75450000D03*
X85950000Y-74350000D03*
X86000000Y-64950000D03*
X86000000Y-76450000D03*
X86100000Y-65950000D03*
X86100000Y-77150000D03*
X86200000Y-78150000D03*
X86300000Y-62250000D03*
X87850000Y-38200000D03*
X93499999Y-38171162D03*
X99300000Y-38150000D03*
X104976180Y-38247047D03*
X110800000Y-38150000D03*
X111520000Y-41290000D03*
X111530000Y-40200000D03*
X113320000Y-41280000D03*
X113350000Y-40210000D03*
X114020000Y-69930000D03*
X114050000Y-68800000D03*
X115890000Y-69870000D03*
X115930000Y-68770000D03*
X117355000Y-38415000D03*
X120000000Y-27400000D03*
X120010000Y-28440000D03*
X121840000Y-27380000D03*
X121880000Y-28480000D03*
X121980000Y-38240000D03*
X127740000Y-38200000D03*
X129670000Y-62220000D03*
X129750000Y-61110000D03*
X131530000Y-62200000D03*
X131555000Y-61120000D03*
X133470000Y-38210000D03*
X134925966Y-40670594D03*
X134936975Y-41749405D03*
X136742333Y-40681602D03*
X136764349Y-41727389D03*
D11*
X57281856Y-77762770D03*
X58773386Y-42628544D03*
X58931910Y-62916773D03*
X59701401Y-78351306D03*
X59855508Y-41939921D03*
X60434880Y-63408147D03*
X61412741Y-70453443D03*
X61947215Y-46625116D03*
X62088799Y-79157072D03*
X62950000Y-50200000D03*
X63038369Y-47467203D03*
X63149100Y-70353815D03*
X63450000Y-60850000D03*
X64415788Y-67421930D03*
X64501183Y-73584582D03*
X64529648Y-69243684D03*
X64543880Y-71691666D03*
X64875000Y-45555000D03*
X67689252Y-70524605D03*
X67961622Y-49793037D03*
X67965000Y-55775000D03*
X68075564Y-54048377D03*
X71100000Y-72700000D03*
X71740458Y-70417627D03*
X72300000Y-72500000D03*
X72921727Y-69478159D03*
X73250000Y-71650000D03*
X74150000Y-70700000D03*
X74191903Y-67680709D03*
X75501496Y-67327327D03*
X76350000Y-69850000D03*
X76873451Y-67327327D03*
X77850000Y-69850000D03*
X78120682Y-67382759D03*
X79050000Y-69650000D03*
X79400000Y-67300000D03*
X80300000Y-69400000D03*
X80800000Y-67300000D03*
X81600000Y-69350000D03*
X82100000Y-67300000D03*
X82150000Y-70500000D03*
X83250000Y-67300000D03*
X83550000Y-70850000D03*
X84500000Y-67300000D03*
X84750000Y-69600000D03*
X85600000Y-70600000D03*
X85650000Y-67250000D03*
X86800000Y-67250000D03*
X86900000Y-70500000D03*
X87200000Y-78550000D03*
X87300000Y-63200000D03*
X87300000Y-77400000D03*
X87350000Y-76200000D03*
X87400000Y-61750000D03*
X87400000Y-75050000D03*
X87450000Y-66050000D03*
X87450000Y-73850000D03*
X87500000Y-64700000D03*
X87500000Y-72750000D03*
X87550000Y-69550000D03*
X87550000Y-71450000D03*
X113250000Y-66000000D03*
X115000000Y-56750000D03*
X115000000Y-66000000D03*
D12*
%TO.C,J1*%
X57135000Y-48180000D03*
X57135000Y-56820000D03*
D13*
X61305000Y-48180000D03*
X61305000Y-56820000D03*
M02*
