%TF.GenerationSoftware,KiCad,Pcbnew,6.0.4+dfsg-1+b1*%
%TF.CreationDate,2022-06-08T07:45:49+02:00*%
%TF.ProjectId,visitenkarte,76697369-7465-46e6-9b61-7274652e6b69,rev?*%
%TF.SameCoordinates,Original*%
%TF.FileFunction,Soldermask,Top*%
%TF.FilePolarity,Negative*%
%FSLAX46Y46*%
G04 Gerber Fmt 4.6, Leading zero omitted, Abs format (unit mm)*
G04 Created by KiCad (PCBNEW 6.0.4+dfsg-1+b1) date 2022-06-08 07:45:49*
%MOMM*%
%LPD*%
G01*
G04 APERTURE LIST*
G04 Aperture macros list*
%AMRoundRect*
0 Rectangle with rounded corners*
0 $1 Rounding radius*
0 $2 $3 $4 $5 $6 $7 $8 $9 X,Y pos of 4 corners*
0 Add a 4 corners polygon primitive as box body*
4,1,4,$2,$3,$4,$5,$6,$7,$8,$9,$2,$3,0*
0 Add four circle primitives for the rounded corners*
1,1,$1+$1,$2,$3*
1,1,$1+$1,$4,$5*
1,1,$1+$1,$6,$7*
1,1,$1+$1,$8,$9*
0 Add four rect primitives between the rounded corners*
20,1,$1+$1,$2,$3,$4,$5,0*
20,1,$1+$1,$4,$5,$6,$7,0*
20,1,$1+$1,$6,$7,$8,$9,0*
20,1,$1+$1,$8,$9,$2,$3,0*%
%AMRotRect*
0 Rectangle, with rotation*
0 The origin of the aperture is its center*
0 $1 length*
0 $2 width*
0 $3 Rotation angle, in degrees counterclockwise*
0 Add horizontal line*
21,1,$1,$2,0,0,$3*%
%AMFreePoly0*
4,1,18,-0.275000,0.050000,-0.271194,0.069134,-0.260355,0.085355,-0.244134,0.096194,-0.225000,0.100000,0.175000,0.100000,0.275000,0.000000,0.275000,-0.050000,0.271194,-0.069134,0.260355,-0.085355,0.244134,-0.096194,0.225000,-0.100000,-0.225000,-0.100000,-0.244134,-0.096194,-0.260355,-0.085355,-0.271194,-0.069134,-0.275000,-0.050000,-0.275000,0.050000,-0.275000,0.050000,$1*%
G04 Aperture macros list end*
%ADD10R,0.700000X0.700000*%
%ADD11RoundRect,0.100000X-0.162635X0.021213X0.021213X-0.162635X0.162635X-0.021213X-0.021213X0.162635X0*%
%ADD12RoundRect,0.100000X0.100000X-0.130000X0.100000X0.130000X-0.100000X0.130000X-0.100000X-0.130000X0*%
%ADD13R,1.500000X0.800000*%
%ADD14RoundRect,0.050000X0.238649X0.309359X-0.309359X-0.238649X-0.238649X-0.309359X0.309359X0.238649X0*%
%ADD15RoundRect,0.050000X-0.238649X0.309359X-0.309359X0.238649X0.238649X-0.309359X0.309359X-0.238649X0*%
%ADD16RotRect,5.600000X5.600000X225.000000*%
%ADD17RoundRect,0.100000X0.021213X0.162635X-0.162635X-0.021213X-0.021213X-0.162635X0.162635X0.021213X0*%
%ADD18RoundRect,0.100000X0.130000X0.100000X-0.130000X0.100000X-0.130000X-0.100000X0.130000X-0.100000X0*%
%ADD19RoundRect,0.100000X0.162635X-0.021213X-0.021213X0.162635X-0.162635X0.021213X0.021213X-0.162635X0*%
%ADD20FreePoly0,180.000000*%
%ADD21RoundRect,0.055000X0.695000X0.055000X-0.695000X0.055000X-0.695000X-0.055000X0.695000X-0.055000X0*%
%ADD22RoundRect,0.050000X0.225000X0.050000X-0.225000X0.050000X-0.225000X-0.050000X0.225000X-0.050000X0*%
%ADD23RoundRect,0.100000X-0.100000X0.130000X-0.100000X-0.130000X0.100000X-0.130000X0.100000X0.130000X0*%
%ADD24RoundRect,0.140000X-0.170000X0.140000X-0.170000X-0.140000X0.170000X-0.140000X0.170000X0.140000X0*%
%ADD25RoundRect,0.135000X-0.035355X0.226274X-0.226274X0.035355X0.035355X-0.226274X0.226274X-0.035355X0*%
%ADD26RoundRect,0.100000X-0.130000X-0.100000X0.130000X-0.100000X0.130000X0.100000X-0.130000X0.100000X0*%
%ADD27RoundRect,0.200000X-0.200000X-0.275000X0.200000X-0.275000X0.200000X0.275000X-0.200000X0.275000X0*%
%ADD28R,1.150000X1.000000*%
%ADD29RoundRect,0.200000X-0.275000X0.200000X-0.275000X-0.200000X0.275000X-0.200000X0.275000X0.200000X0*%
%ADD30C,0.600000*%
%ADD31R,1.160000X0.600000*%
%ADD32R,1.160000X0.300000*%
%ADD33O,1.700000X0.900000*%
%ADD34O,2.000000X0.900000*%
%ADD35RoundRect,0.050000X-0.229810X-0.300520X0.300520X0.229810X0.229810X0.300520X-0.300520X-0.229810X0*%
%ADD36RoundRect,0.050000X0.229810X-0.300520X0.300520X-0.229810X-0.229810X0.300520X-0.300520X0.229810X0*%
%ADD37RotRect,1.650000X1.650000X45.000000*%
%ADD38RoundRect,0.006000X0.319000X0.094000X-0.319000X0.094000X-0.319000X-0.094000X0.319000X-0.094000X0*%
%ADD39R,0.300000X0.940000*%
%ADD40R,0.800000X1.500000*%
%ADD41RoundRect,0.225000X0.225000X0.250000X-0.225000X0.250000X-0.225000X-0.250000X0.225000X-0.250000X0*%
%ADD42RoundRect,0.147500X-0.147500X-0.172500X0.147500X-0.172500X0.147500X0.172500X-0.147500X0.172500X0*%
%ADD43RoundRect,0.200000X0.053033X-0.335876X0.335876X-0.053033X-0.053033X0.335876X-0.335876X0.053033X0*%
%ADD44RoundRect,0.225000X-0.225000X-0.250000X0.225000X-0.250000X0.225000X0.250000X-0.225000X0.250000X0*%
G04 APERTURE END LIST*
%TO.C,G\u002A\u002A\u002A*%
G36*
X69863004Y-32353538D02*
G01*
X69913489Y-32263448D01*
X69939432Y-32229103D01*
X69975125Y-32172068D01*
X70020809Y-32074399D01*
X70073556Y-31944696D01*
X70130438Y-31791559D01*
X70188525Y-31623590D01*
X70244892Y-31449388D01*
X70296608Y-31277556D01*
X70340745Y-31116692D01*
X70374377Y-30975398D01*
X70385689Y-30918377D01*
X70430692Y-30670493D01*
X70668551Y-30625693D01*
X70771925Y-30607306D01*
X70854659Y-30594632D01*
X70905362Y-30589309D01*
X70915570Y-30590196D01*
X70926689Y-30619554D01*
X70947516Y-30691288D01*
X70976286Y-30798181D01*
X71011234Y-30933017D01*
X71050594Y-31088579D01*
X71092600Y-31257653D01*
X71135488Y-31433020D01*
X71177491Y-31607466D01*
X71216845Y-31773773D01*
X71251784Y-31924726D01*
X71280541Y-32053108D01*
X71301353Y-32151703D01*
X71312164Y-32211261D01*
X71336023Y-32443846D01*
X71332461Y-32637950D01*
X71299197Y-32799353D01*
X71233953Y-32933834D01*
X71134448Y-33047171D01*
X70998402Y-33145145D01*
X70928478Y-33183795D01*
X70822102Y-33221634D01*
X70685088Y-33246721D01*
X70536457Y-33257485D01*
X70395232Y-33252351D01*
X70300419Y-33235753D01*
X70158212Y-33172967D01*
X70028685Y-33070035D01*
X69922700Y-32937683D01*
X69853774Y-32794660D01*
X69831451Y-32795347D01*
X69779923Y-32829199D01*
X69704826Y-32892275D01*
X69675123Y-32919495D01*
X69568100Y-33009395D01*
X69448186Y-33094767D01*
X69338375Y-33159295D01*
X69334383Y-33161279D01*
X69252644Y-33199870D01*
X69185919Y-33224623D01*
X69118400Y-33238588D01*
X69034277Y-33244821D01*
X68917745Y-33246375D01*
X68893722Y-33246393D01*
X68768426Y-33245127D01*
X68679609Y-33239685D01*
X68612879Y-33227597D01*
X68553842Y-33206397D01*
X68497083Y-33178380D01*
X68387277Y-33105965D01*
X68279581Y-33010652D01*
X68191399Y-32909001D01*
X68156315Y-32854156D01*
X68124756Y-32810021D01*
X68097311Y-32811072D01*
X68068801Y-32859377D01*
X68055153Y-32894559D01*
X68006646Y-32984657D01*
X67930934Y-33077873D01*
X67841270Y-33161530D01*
X67750904Y-33222949D01*
X67686000Y-33247747D01*
X67504810Y-33262218D01*
X67348527Y-33232419D01*
X67215902Y-33157747D01*
X67105687Y-33037599D01*
X67047996Y-32939877D01*
X66971643Y-32788277D01*
X66958918Y-32050201D01*
X66954820Y-31831824D01*
X66950623Y-31658389D01*
X66945912Y-31523939D01*
X66940271Y-31422515D01*
X66933285Y-31348158D01*
X66924538Y-31294910D01*
X66913615Y-31256813D01*
X66901799Y-31230954D01*
X66829322Y-31135266D01*
X66736453Y-31083687D01*
X66631760Y-31070341D01*
X66513950Y-31086084D01*
X66416921Y-31136976D01*
X66333356Y-31228513D01*
X66266204Y-31344894D01*
X66182665Y-31514510D01*
X66175351Y-32386814D01*
X66168038Y-33259118D01*
X65686373Y-33259118D01*
X65686373Y-33119138D01*
X65684479Y-33042459D01*
X65679594Y-32991615D01*
X65674859Y-32979158D01*
X65652513Y-32995796D01*
X65604657Y-33039532D01*
X65541404Y-33101105D01*
X65537791Y-33104714D01*
X65444705Y-33186435D01*
X65354521Y-33235381D01*
X65251234Y-33256837D01*
X65118838Y-33256093D01*
X65086847Y-33253695D01*
X64949775Y-33222439D01*
X64834433Y-33150963D01*
X64735943Y-33035493D01*
X64681062Y-32939877D01*
X64604710Y-32788277D01*
X64591984Y-32050201D01*
X64587886Y-31831824D01*
X64583689Y-31658389D01*
X64578978Y-31523939D01*
X64573337Y-31422515D01*
X64566351Y-31348158D01*
X64557604Y-31294910D01*
X64546681Y-31256813D01*
X64534865Y-31230954D01*
X64462388Y-31135266D01*
X64369519Y-31083687D01*
X64264826Y-31070341D01*
X64147016Y-31086084D01*
X64049987Y-31136976D01*
X63966422Y-31228513D01*
X63899270Y-31344894D01*
X63815732Y-31514510D01*
X63801104Y-33259118D01*
X63319439Y-33259118D01*
X63319439Y-33106413D01*
X63316551Y-33026011D01*
X63309045Y-32970956D01*
X63300351Y-32954408D01*
X63274772Y-32973536D01*
X63233600Y-33020624D01*
X63217635Y-33041564D01*
X63105424Y-33159713D01*
X62975004Y-33231246D01*
X62821541Y-33258658D01*
X62796365Y-33259118D01*
X62688521Y-33253222D01*
X62609827Y-33232235D01*
X62553919Y-33201248D01*
X62462728Y-33120783D01*
X62386511Y-33019101D01*
X62339306Y-32915730D01*
X62334449Y-32895913D01*
X62313486Y-32830620D01*
X62286431Y-32815784D01*
X62252438Y-32851231D01*
X62238384Y-32876179D01*
X62131797Y-33031270D01*
X61996108Y-33148429D01*
X61838609Y-33225311D01*
X61666593Y-33259569D01*
X61487354Y-33248858D01*
X61308184Y-33190831D01*
X61289022Y-33181574D01*
X61120338Y-33069737D01*
X60984621Y-32920039D01*
X60882487Y-32733918D01*
X60814554Y-32512812D01*
X60781438Y-32258161D01*
X60781441Y-32256809D01*
X61290204Y-32256809D01*
X61316144Y-32469806D01*
X61368397Y-32640294D01*
X61440321Y-32759934D01*
X61498575Y-32821917D01*
X61554077Y-32867288D01*
X61573328Y-32877908D01*
X61661263Y-32897201D01*
X61767855Y-32899007D01*
X61867467Y-32884151D01*
X61914541Y-32866902D01*
X62021037Y-32788415D01*
X62112874Y-32678939D01*
X62160073Y-32591850D01*
X62172459Y-32553785D01*
X62182071Y-32501916D01*
X62189226Y-32430059D01*
X62194240Y-32332032D01*
X62197429Y-32201652D01*
X62199110Y-32032735D01*
X62199599Y-31819415D01*
X62199599Y-31141603D01*
X62113066Y-31055070D01*
X62055854Y-31003785D01*
X62003094Y-30977990D01*
X61932531Y-30969203D01*
X61885987Y-30968537D01*
X61792207Y-30973825D01*
X61721756Y-30995712D01*
X61647629Y-31043238D01*
X61635560Y-31052346D01*
X61518168Y-31173168D01*
X61424160Y-31338035D01*
X61354056Y-31545510D01*
X61308378Y-31794159D01*
X61290701Y-32001929D01*
X61290204Y-32256809D01*
X60781441Y-32256809D01*
X60782024Y-31999492D01*
X60814315Y-31722833D01*
X60877368Y-31468003D01*
X60968707Y-31241639D01*
X61085855Y-31050383D01*
X61173908Y-30948795D01*
X61304926Y-30836286D01*
X61436437Y-30764917D01*
X61584332Y-30727311D01*
X61669169Y-30718878D01*
X61822403Y-30719849D01*
X61942328Y-30746873D01*
X62041663Y-30804271D01*
X62108842Y-30868227D01*
X62199599Y-30968684D01*
X62199599Y-30714028D01*
X62683166Y-30714028D01*
X62684284Y-31547545D01*
X62685342Y-31843605D01*
X62688149Y-32092824D01*
X62693442Y-32299251D01*
X62701962Y-32466938D01*
X62714447Y-32599935D01*
X62731636Y-32702292D01*
X62754268Y-32778060D01*
X62783081Y-32831288D01*
X62818815Y-32866028D01*
X62862209Y-32886330D01*
X62914001Y-32896244D01*
X62930595Y-32897747D01*
X63005922Y-32895994D01*
X63063164Y-32869950D01*
X63110819Y-32827551D01*
X63164034Y-32759409D01*
X63217806Y-32667258D01*
X63247020Y-32603551D01*
X63262720Y-32562372D01*
X63275401Y-32521762D01*
X63285453Y-32475811D01*
X63293266Y-32418610D01*
X63299230Y-32344249D01*
X63303735Y-32246818D01*
X63307171Y-32120407D01*
X63309928Y-31959106D01*
X63312396Y-31757006D01*
X63314185Y-31585722D01*
X63323010Y-30714028D01*
X63803006Y-30714028D01*
X63803006Y-31126801D01*
X63887973Y-31003130D01*
X63957150Y-30917416D01*
X64038752Y-30836800D01*
X64080459Y-30803520D01*
X64147287Y-30761754D01*
X64213093Y-30736920D01*
X64296977Y-30723538D01*
X64378819Y-30717944D01*
X64572743Y-30725116D01*
X64732516Y-30768845D01*
X64860631Y-30850354D01*
X64959580Y-30970870D01*
X64984341Y-31015587D01*
X65021871Y-31097053D01*
X65050787Y-31179770D01*
X65071841Y-31271142D01*
X65085788Y-31378575D01*
X65093383Y-31509476D01*
X65095380Y-31671249D01*
X65092532Y-31871301D01*
X65088155Y-32034921D01*
X65082685Y-32228997D01*
X65079561Y-32379434D01*
X65079048Y-32493453D01*
X65081408Y-32578275D01*
X65086907Y-32641121D01*
X65095806Y-32689210D01*
X65108371Y-32729765D01*
X65114072Y-32744480D01*
X65162713Y-32835647D01*
X65224268Y-32885198D01*
X65311505Y-32902422D01*
X65331745Y-32902806D01*
X65414442Y-32879121D01*
X65497188Y-32813736D01*
X65571624Y-32715153D01*
X65624669Y-32604892D01*
X65637147Y-32566441D01*
X65647347Y-32520667D01*
X65655582Y-32461922D01*
X65662165Y-32384557D01*
X65667407Y-32282924D01*
X65671622Y-32151375D01*
X65675123Y-31984262D01*
X65678220Y-31775937D01*
X65680364Y-31598447D01*
X65690402Y-30714028D01*
X66169940Y-30714028D01*
X66169940Y-31126801D01*
X66254907Y-31003130D01*
X66324084Y-30917416D01*
X66405685Y-30836800D01*
X66447393Y-30803520D01*
X66514221Y-30761754D01*
X66580027Y-30736920D01*
X66663910Y-30723538D01*
X66745752Y-30717944D01*
X66939677Y-30725116D01*
X67099450Y-30768845D01*
X67227565Y-30850354D01*
X67326514Y-30970870D01*
X67351275Y-31015587D01*
X67388805Y-31097053D01*
X67417720Y-31179770D01*
X67438775Y-31271142D01*
X67452722Y-31378575D01*
X67460317Y-31509476D01*
X67462313Y-31671249D01*
X67459466Y-31871301D01*
X67455089Y-32034921D01*
X67449619Y-32228997D01*
X67446495Y-32379434D01*
X67445982Y-32493453D01*
X67448342Y-32578275D01*
X67453840Y-32641121D01*
X67462740Y-32689210D01*
X67475304Y-32729765D01*
X67481005Y-32744480D01*
X67540375Y-32841952D01*
X67617043Y-32895720D01*
X67703656Y-32906611D01*
X67792862Y-32875456D01*
X67877307Y-32803084D01*
X67948963Y-32691720D01*
X67970238Y-32641870D01*
X67984939Y-32588424D01*
X67994200Y-32520986D01*
X67999155Y-32429159D01*
X68000936Y-32302546D01*
X68000974Y-32214614D01*
X68004640Y-32060031D01*
X68504006Y-32060031D01*
X68653348Y-32021032D01*
X68749338Y-31992753D01*
X68837158Y-31961559D01*
X68879752Y-31942958D01*
X69019190Y-31853568D01*
X69139889Y-31740745D01*
X69227458Y-31618431D01*
X69239685Y-31594154D01*
X69278259Y-31477477D01*
X69298571Y-31343277D01*
X69299867Y-31209577D01*
X69281391Y-31094399D01*
X69262667Y-31045746D01*
X69199369Y-30971764D01*
X69112031Y-30934538D01*
X69010635Y-30932962D01*
X68905158Y-30965928D01*
X68805582Y-31032327D01*
X68740555Y-31103700D01*
X68671815Y-31223490D01*
X68610758Y-31379902D01*
X68561654Y-31558770D01*
X68528776Y-31745927D01*
X68519962Y-31835248D01*
X68504006Y-32060031D01*
X68004640Y-32060031D01*
X68007058Y-31958087D01*
X68027543Y-31740749D01*
X68063970Y-31552542D01*
X68117879Y-31383406D01*
X68134526Y-31342312D01*
X68244497Y-31128722D01*
X68375744Y-30955940D01*
X68525567Y-30827220D01*
X68595571Y-30785951D01*
X68704335Y-30747749D01*
X68843284Y-30723903D01*
X68993381Y-30715790D01*
X69135592Y-30724783D01*
X69216958Y-30741057D01*
X69336844Y-30796491D01*
X69447360Y-30886260D01*
X69533659Y-30996038D01*
X69574511Y-31086019D01*
X69603021Y-31242999D01*
X69602592Y-31409976D01*
X69574301Y-31566118D01*
X69545792Y-31642986D01*
X69454074Y-31784608D01*
X69320763Y-31915193D01*
X69154908Y-32028853D01*
X68965557Y-32119700D01*
X68761758Y-32181846D01*
X68698946Y-32194048D01*
X68600916Y-32212181D01*
X68541496Y-32233524D01*
X68514858Y-32268619D01*
X68515173Y-32328011D01*
X68536610Y-32422242D01*
X68548313Y-32466488D01*
X68611689Y-32634510D01*
X68702024Y-32760760D01*
X68821131Y-32847723D01*
X68829597Y-32851922D01*
X68898828Y-32881317D01*
X68965273Y-32896983D01*
X69046970Y-32901447D01*
X69155775Y-32897576D01*
X69355692Y-32867267D01*
X69527812Y-32801651D01*
X69667653Y-32703725D01*
X69770737Y-32576487D01*
X69778137Y-32559337D01*
X70038477Y-32559337D01*
X70055997Y-32630923D01*
X70100568Y-32716221D01*
X70160205Y-32796275D01*
X70222922Y-32852130D01*
X70224023Y-32852807D01*
X70318409Y-32888375D01*
X70436669Y-32903111D01*
X70557213Y-32896711D01*
X70658449Y-32868875D01*
X70677173Y-32859149D01*
X70755900Y-32783494D01*
X70804918Y-32668433D01*
X70823434Y-32516452D01*
X70819885Y-32412374D01*
X70810666Y-32341353D01*
X70792629Y-32237841D01*
X70767551Y-32109556D01*
X70737210Y-31964218D01*
X70703384Y-31809547D01*
X70667849Y-31653261D01*
X70632382Y-31503081D01*
X70598762Y-31366725D01*
X70568765Y-31251913D01*
X70544169Y-31166364D01*
X70526751Y-31117798D01*
X70519977Y-31109795D01*
X70507223Y-31138942D01*
X70493383Y-31201644D01*
X70486877Y-31243922D01*
X70473542Y-31310888D01*
X70447490Y-31414660D01*
X70411864Y-31543675D01*
X70369803Y-31686372D01*
X70344161Y-31769372D01*
X70217871Y-32170999D01*
X70268154Y-32234924D01*
X70304667Y-32310193D01*
X70317562Y-32399897D01*
X70306118Y-32483263D01*
X70278443Y-32531950D01*
X70208975Y-32568114D01*
X70124157Y-32561246D01*
X70087706Y-32545598D01*
X70049523Y-32532495D01*
X70038543Y-32555159D01*
X70038477Y-32559337D01*
X69778137Y-32559337D01*
X69825563Y-32449421D01*
X69863004Y-32353538D01*
G37*
G36*
X89572721Y-53858173D02*
G01*
X89648134Y-53762795D01*
X89743357Y-53686159D01*
X89746750Y-53684144D01*
X89856476Y-53619840D01*
X91705448Y-53619840D01*
X91815174Y-53684144D01*
X91910552Y-53759557D01*
X91987188Y-53854780D01*
X91989203Y-53858173D01*
X92053507Y-53967899D01*
X92053507Y-57343925D01*
X91989203Y-57453651D01*
X91913790Y-57549029D01*
X91818567Y-57625665D01*
X91815174Y-57627680D01*
X91705448Y-57691984D01*
X90778726Y-57691743D01*
X89852004Y-57691503D01*
X89744187Y-57626882D01*
X89657733Y-57558108D01*
X89583537Y-57470771D01*
X89572394Y-57453093D01*
X89508417Y-57343925D01*
X89508417Y-56928457D01*
X90551904Y-56928457D01*
X90564850Y-57020362D01*
X90609487Y-57090048D01*
X90614374Y-57095045D01*
X90683326Y-57142420D01*
X90772750Y-57157449D01*
X90780962Y-57157515D01*
X90872867Y-57144569D01*
X90942553Y-57099932D01*
X90947550Y-57095045D01*
X90994925Y-57026093D01*
X91009954Y-56936669D01*
X91010020Y-56928457D01*
X90997074Y-56836552D01*
X90952437Y-56766867D01*
X90947550Y-56761869D01*
X90878598Y-56714494D01*
X90789174Y-56699465D01*
X90780962Y-56699399D01*
X90689057Y-56712345D01*
X90619372Y-56756982D01*
X90614374Y-56761869D01*
X90566999Y-56830821D01*
X90551970Y-56920245D01*
X90551904Y-56928457D01*
X89508417Y-56928457D01*
X89508417Y-53967899D01*
X89572721Y-53858173D01*
G37*
G36*
X73588878Y-30960710D02*
G01*
X73716132Y-30692808D01*
X73860609Y-30415638D01*
X74016739Y-30165616D01*
X74180545Y-29947669D01*
X74348051Y-29766729D01*
X74515280Y-29627723D01*
X74632963Y-29556530D01*
X74807213Y-29494217D01*
X75003212Y-29467635D01*
X75204910Y-29478425D01*
X75272840Y-29491101D01*
X75408617Y-29521486D01*
X75408617Y-33259118D01*
X74874148Y-33259118D01*
X74874148Y-31404860D01*
X74735722Y-31353068D01*
X74584806Y-31302365D01*
X74420990Y-31256860D01*
X74260385Y-31220332D01*
X74119102Y-31196556D01*
X74037906Y-31189440D01*
X73898633Y-31184870D01*
X73852992Y-31363026D01*
X73811452Y-31542337D01*
X73768974Y-31755849D01*
X73728344Y-31987002D01*
X73692351Y-32219232D01*
X73663784Y-32435976D01*
X73649487Y-32571944D01*
X73632984Y-32882851D01*
X73640618Y-33173035D01*
X73671701Y-33435403D01*
X73725542Y-33662862D01*
X73766289Y-33774499D01*
X73771355Y-33803412D01*
X73746301Y-33816080D01*
X73687042Y-33818479D01*
X73598734Y-33806884D01*
X73504343Y-33778901D01*
X73485654Y-33771035D01*
X73363155Y-33689936D01*
X73258064Y-33571260D01*
X73180679Y-33427832D01*
X73159290Y-33364629D01*
X73128144Y-33192484D01*
X73118520Y-32981419D01*
X73129515Y-32738210D01*
X73160225Y-32469633D01*
X73209746Y-32182465D01*
X73277175Y-31883480D01*
X73361609Y-31579456D01*
X73422555Y-31390066D01*
X73455953Y-31290930D01*
X73482084Y-31211867D01*
X73497345Y-31163859D01*
X73499800Y-31154645D01*
X73476984Y-31146781D01*
X73417751Y-31146096D01*
X73335917Y-31151566D01*
X73245303Y-31162169D01*
X73159727Y-31176883D01*
X73139964Y-31181266D01*
X72982049Y-31231780D01*
X72863695Y-31298545D01*
X72789965Y-31378683D01*
X72788611Y-31381058D01*
X72768182Y-31425019D01*
X72772635Y-31458500D01*
X72807586Y-31499578D01*
X72832890Y-31523612D01*
X72894317Y-31593703D01*
X72910691Y-31652676D01*
X72883430Y-31710182D01*
X72863527Y-31732064D01*
X72795281Y-31769293D01*
X72699594Y-31783317D01*
X72595082Y-31772602D01*
X72547059Y-31758150D01*
X72467020Y-31702650D01*
X72412234Y-31614951D01*
X72386360Y-31508943D01*
X72393051Y-31398519D01*
X72428790Y-31308710D01*
X72527099Y-31192524D01*
X72665789Y-31101289D01*
X72846181Y-31034488D01*
X73069600Y-30991602D01*
X73114497Y-30987911D01*
X73957916Y-30987911D01*
X73981107Y-31002731D01*
X74044157Y-31025612D01*
X74137281Y-31053363D01*
X74244239Y-31081222D01*
X74375635Y-31115620D01*
X74504564Y-31153245D01*
X74613694Y-31188847D01*
X74670541Y-31210390D01*
X74751059Y-31242616D01*
X74814958Y-31264993D01*
X74842335Y-31271730D01*
X74851565Y-31261711D01*
X74858953Y-31227413D01*
X74864665Y-31164609D01*
X74868869Y-31069070D01*
X74871734Y-30936571D01*
X74873426Y-30762883D01*
X74874113Y-30543780D01*
X74874148Y-30469486D01*
X74874148Y-29665023D01*
X74804158Y-29682492D01*
X74670691Y-29739891D01*
X74540320Y-29845053D01*
X74412554Y-29998641D01*
X74286901Y-30201318D01*
X74162870Y-30453749D01*
X74073958Y-30667543D01*
X74029739Y-30782520D01*
X73993282Y-30880679D01*
X73968168Y-30952129D01*
X73957979Y-30986980D01*
X73957916Y-30987911D01*
X73114497Y-30987911D01*
X73283467Y-30974020D01*
X73588878Y-30960710D01*
G37*
G36*
X60335151Y-31456087D02*
G01*
X60333401Y-31831809D01*
X60331602Y-32160018D01*
X60329677Y-32444099D01*
X60327551Y-32687440D01*
X60325147Y-32893430D01*
X60322390Y-33065455D01*
X60319202Y-33206902D01*
X60315509Y-33321159D01*
X60311234Y-33411614D01*
X60306301Y-33481654D01*
X60300634Y-33534666D01*
X60294157Y-33574038D01*
X60286934Y-33602706D01*
X60203039Y-33818564D01*
X60096538Y-33991344D01*
X59963994Y-34123451D01*
X59801973Y-34217287D01*
X59607040Y-34275256D01*
X59375761Y-34299761D01*
X59289153Y-34300903D01*
X59166704Y-34296940D01*
X59051766Y-34287715D01*
X58961449Y-34274838D01*
X58929158Y-34267004D01*
X58778827Y-34207668D01*
X58661426Y-34131933D01*
X58594783Y-34069356D01*
X58516412Y-33977250D01*
X58464977Y-33889852D01*
X58435302Y-33792198D01*
X58422211Y-33669328D01*
X58420140Y-33564529D01*
X58421857Y-33444169D01*
X58428825Y-33359412D01*
X58443774Y-33295022D01*
X58469433Y-33235763D01*
X58483768Y-33209259D01*
X58572513Y-33096141D01*
X58670383Y-33019781D01*
X58750747Y-32975731D01*
X58824666Y-32952499D01*
X58915844Y-32943876D01*
X58963068Y-32943124D01*
X59121027Y-32956221D01*
X59239509Y-32998905D01*
X59322433Y-33074164D01*
X59373721Y-33184984D01*
X59390834Y-33269021D01*
X59407436Y-33390147D01*
X59321003Y-33337453D01*
X59215526Y-33296083D01*
X59096635Y-33284387D01*
X58984233Y-33302480D01*
X58916894Y-33335143D01*
X58850428Y-33407165D01*
X58797693Y-33509643D01*
X58767826Y-33622338D01*
X58764287Y-33673211D01*
X58788282Y-33801811D01*
X58851995Y-33924280D01*
X58945580Y-34022884D01*
X58966869Y-34038083D01*
X59096867Y-34098288D01*
X59239624Y-34121780D01*
X59382658Y-34110036D01*
X59513485Y-34064536D01*
X59619622Y-33986756D01*
X59644367Y-33957894D01*
X59668936Y-33925328D01*
X59690386Y-33893986D01*
X59708929Y-33860358D01*
X59724777Y-33820934D01*
X59738141Y-33772202D01*
X59749234Y-33710652D01*
X59758266Y-33632775D01*
X59765450Y-33535060D01*
X59770997Y-33413995D01*
X59775118Y-33266072D01*
X59778025Y-33087780D01*
X59779931Y-32875608D01*
X59781046Y-32626046D01*
X59781582Y-32335583D01*
X59781751Y-32000709D01*
X59781764Y-31678894D01*
X59781764Y-29724996D01*
X59711539Y-29745136D01*
X59524301Y-29822347D01*
X59358464Y-29936852D01*
X59222277Y-30080899D01*
X59123989Y-30246737D01*
X59094852Y-30324681D01*
X59054100Y-30513363D01*
X59043673Y-30706573D01*
X59062441Y-30891814D01*
X59109271Y-31056591D01*
X59171677Y-31173177D01*
X59229405Y-31254249D01*
X59117458Y-31235598D01*
X58945946Y-31186211D01*
X58811421Y-31102196D01*
X58714936Y-30984978D01*
X58657545Y-30835981D01*
X58640302Y-30656629D01*
X58643319Y-30594508D01*
X58684036Y-30393346D01*
X58770818Y-30198451D01*
X58898830Y-30015490D01*
X59063239Y-29850133D01*
X59259212Y-29708048D01*
X59481913Y-29594905D01*
X59502957Y-29586393D01*
X59639190Y-29536727D01*
X59766364Y-29501498D01*
X59902747Y-29476796D01*
X60066603Y-29458711D01*
X60120134Y-29454281D01*
X60343976Y-29436723D01*
X60335151Y-31456087D01*
G37*
G36*
X92817034Y-49205541D02*
G01*
X92817034Y-49327674D01*
X92810685Y-49413625D01*
X92785362Y-49474443D01*
X92742639Y-49524202D01*
X92650194Y-49583326D01*
X92542032Y-49600534D01*
X92432538Y-49574959D01*
X92381935Y-49545962D01*
X92308016Y-49493328D01*
X92308016Y-51245965D01*
X92240918Y-51313063D01*
X92213399Y-51339040D01*
X92185431Y-51357264D01*
X92147964Y-51369107D01*
X92091944Y-51375945D01*
X92008319Y-51379152D01*
X91888037Y-51380102D01*
X91798998Y-51380160D01*
X91653605Y-51379884D01*
X91550061Y-51378140D01*
X91479315Y-51373553D01*
X91432313Y-51364749D01*
X91400004Y-51350353D01*
X91373334Y-51328991D01*
X91357078Y-51313063D01*
X91328305Y-51281882D01*
X91309201Y-51249750D01*
X91297784Y-51205970D01*
X91292070Y-51139850D01*
X91290078Y-51040693D01*
X91289838Y-50950387D01*
X91287311Y-50764902D01*
X91276323Y-50624104D01*
X91251461Y-50521874D01*
X91207312Y-50452088D01*
X91138463Y-50408625D01*
X91039503Y-50385364D01*
X90905016Y-50376181D01*
X90780962Y-50374850D01*
X90617048Y-50377609D01*
X90492620Y-50389967D01*
X90402266Y-50418045D01*
X90340573Y-50467967D01*
X90302128Y-50545853D01*
X90281517Y-50657825D01*
X90273330Y-50810007D01*
X90272086Y-50950387D01*
X90271478Y-51077680D01*
X90268479Y-51164767D01*
X90261105Y-51222344D01*
X90247373Y-51261103D01*
X90225302Y-51291740D01*
X90204846Y-51313063D01*
X90177327Y-51339040D01*
X90149359Y-51357264D01*
X90111892Y-51369107D01*
X90055871Y-51375945D01*
X89972247Y-51379152D01*
X89851964Y-51380102D01*
X89762926Y-51380160D01*
X89617533Y-51379884D01*
X89513989Y-51378140D01*
X89443243Y-51373553D01*
X89396241Y-51364749D01*
X89363931Y-51350353D01*
X89337262Y-51328991D01*
X89321006Y-51313063D01*
X89253908Y-51245965D01*
X89253908Y-49493328D01*
X89179989Y-49545962D01*
X89075202Y-49593188D01*
X88964578Y-49597197D01*
X88862501Y-49558858D01*
X88819285Y-49524202D01*
X88770798Y-49465291D01*
X88749176Y-49402098D01*
X88744890Y-49327674D01*
X88744890Y-49205541D01*
X90642415Y-47308016D01*
X90919509Y-47308016D01*
X92817034Y-49205541D01*
G37*
G36*
X92578701Y-41569514D02*
G01*
X92670838Y-41642686D01*
X92748337Y-41739109D01*
X92800523Y-41842753D01*
X92817034Y-41927536D01*
X92815745Y-41945918D01*
X92809240Y-41963832D01*
X92793563Y-41983549D01*
X92764758Y-42007339D01*
X92718870Y-42037469D01*
X92651941Y-42076211D01*
X92560016Y-42125833D01*
X92439139Y-42188606D01*
X92285353Y-42266798D01*
X92094703Y-42362679D01*
X91863232Y-42478519D01*
X91811639Y-42504308D01*
X91601362Y-42609026D01*
X91404584Y-42706289D01*
X91226076Y-42793792D01*
X91070608Y-42869231D01*
X90942950Y-42930301D01*
X90847873Y-42974697D01*
X90790146Y-43000115D01*
X90774515Y-43005381D01*
X90745773Y-42993992D01*
X90676375Y-42961995D01*
X90571104Y-42911722D01*
X90434745Y-42845507D01*
X90272080Y-42765680D01*
X90087893Y-42674574D01*
X89886968Y-42574522D01*
X89743838Y-42502876D01*
X89504631Y-42382794D01*
X89306997Y-42283173D01*
X89146972Y-42201732D01*
X89020589Y-42136187D01*
X88923886Y-42084254D01*
X88852896Y-42043650D01*
X88803657Y-42012092D01*
X88772204Y-41987297D01*
X88754571Y-41966980D01*
X88746794Y-41948859D01*
X88744910Y-41930651D01*
X88744890Y-41927537D01*
X88765820Y-41830859D01*
X88821495Y-41727230D01*
X88901243Y-41632684D01*
X88983223Y-41569514D01*
X89092949Y-41505211D01*
X92468975Y-41505211D01*
X92578701Y-41569514D01*
G37*
G36*
X92807433Y-42573155D02*
G01*
X92810210Y-42642551D01*
X92812634Y-42750925D01*
X92814614Y-42892314D01*
X92816060Y-43060757D01*
X92816879Y-43250291D01*
X92817034Y-43379979D01*
X92817034Y-44211260D01*
X92752730Y-44320985D01*
X92677317Y-44416364D01*
X92582094Y-44492999D01*
X92578701Y-44495015D01*
X92468975Y-44559319D01*
X89088477Y-44558837D01*
X88980660Y-44494217D01*
X88894206Y-44425443D01*
X88820010Y-44338105D01*
X88808867Y-44320428D01*
X88744890Y-44211260D01*
X88744890Y-43379979D01*
X88745262Y-43180070D01*
X88746317Y-42997435D01*
X88747965Y-42838036D01*
X88750115Y-42707835D01*
X88752677Y-42612793D01*
X88755559Y-42558872D01*
X88757531Y-42548698D01*
X88782211Y-42559718D01*
X88847738Y-42591247D01*
X88949452Y-42640983D01*
X89082692Y-42706628D01*
X89242800Y-42785880D01*
X89425115Y-42876440D01*
X89624978Y-42976008D01*
X89775567Y-43051203D01*
X90780962Y-43553708D01*
X91786357Y-43051203D01*
X91995883Y-42946619D01*
X92191182Y-42849403D01*
X92367595Y-42761855D01*
X92520462Y-42686277D01*
X92645123Y-42624967D01*
X92736918Y-42580225D01*
X92791189Y-42554352D01*
X92804393Y-42548698D01*
X92807433Y-42573155D01*
G37*
G36*
X82088171Y-33882548D02*
G01*
X82150067Y-33772343D01*
X82248957Y-33656698D01*
X82373630Y-33546521D01*
X82512871Y-33452716D01*
X82552153Y-33431277D01*
X82712838Y-33348197D01*
X82712858Y-33163678D01*
X83196593Y-33163678D01*
X83266583Y-33147129D01*
X83318363Y-33135030D01*
X83407166Y-33114424D01*
X83520414Y-33088224D01*
X83641984Y-33060163D01*
X83947395Y-32989744D01*
X83954040Y-31940964D01*
X83960685Y-30892185D01*
X83196593Y-30892185D01*
X83196593Y-33163678D01*
X82712858Y-33163678D01*
X82712932Y-32489229D01*
X82712353Y-32232288D01*
X82710506Y-32024032D01*
X82707321Y-31862261D01*
X82702726Y-31744771D01*
X82696649Y-31669361D01*
X82689021Y-31633829D01*
X82685163Y-31630261D01*
X82648245Y-31637256D01*
X82577771Y-31655630D01*
X82488733Y-31681463D01*
X82485362Y-31682486D01*
X82313423Y-31734710D01*
X82297980Y-32045161D01*
X82269643Y-32341223D01*
X82215772Y-32594408D01*
X82135624Y-32806300D01*
X82028456Y-32978478D01*
X81893525Y-33112526D01*
X81756105Y-33197835D01*
X81682867Y-33231006D01*
X81619674Y-33250043D01*
X81548983Y-33257679D01*
X81453252Y-33256649D01*
X81395707Y-33254004D01*
X81264397Y-33243456D01*
X81165287Y-33224727D01*
X81079840Y-33193745D01*
X81045488Y-33177089D01*
X80974875Y-33132631D01*
X80894219Y-33069593D01*
X80813810Y-32997737D01*
X80743938Y-32926822D01*
X80694894Y-32866609D01*
X80676954Y-32827543D01*
X80665251Y-32798712D01*
X80637270Y-32805879D01*
X80603708Y-32841873D01*
X80576996Y-32894559D01*
X80528489Y-32984657D01*
X80452778Y-33077873D01*
X80363114Y-33161530D01*
X80272748Y-33222949D01*
X80207844Y-33247747D01*
X80026654Y-33262218D01*
X79870370Y-33232419D01*
X79737745Y-33157747D01*
X79627531Y-33037599D01*
X79569840Y-32939877D01*
X79493487Y-32788277D01*
X79480762Y-32050201D01*
X79476664Y-31831824D01*
X79472467Y-31658389D01*
X79467756Y-31523939D01*
X79462115Y-31422515D01*
X79455128Y-31348158D01*
X79446381Y-31294910D01*
X79435458Y-31256813D01*
X79423642Y-31230954D01*
X79351166Y-31135266D01*
X79258297Y-31083687D01*
X79153604Y-31070341D01*
X79035794Y-31086084D01*
X78938765Y-31136976D01*
X78855199Y-31228513D01*
X78788048Y-31344894D01*
X78704509Y-31514510D01*
X78689881Y-33259118D01*
X78208217Y-33259118D01*
X78208217Y-33068237D01*
X78205883Y-32977259D01*
X78199711Y-32910286D01*
X78190939Y-32879621D01*
X78189128Y-32878910D01*
X78164388Y-32898683D01*
X78122166Y-32947496D01*
X78093687Y-32984786D01*
X78024465Y-33067257D01*
X77943980Y-33146954D01*
X77919638Y-33167664D01*
X77862764Y-33209009D01*
X77808365Y-33233732D01*
X77739153Y-33246943D01*
X77637837Y-33253757D01*
X77626953Y-33254215D01*
X77461589Y-33248640D01*
X77331712Y-33213796D01*
X77228455Y-33145386D01*
X77142949Y-33039117D01*
X77126553Y-33011823D01*
X77084060Y-32941413D01*
X77050990Y-32892947D01*
X77036600Y-32878206D01*
X77016468Y-32897449D01*
X76983835Y-32946145D01*
X76975664Y-32960070D01*
X76875211Y-33100286D01*
X76758076Y-33194364D01*
X76618184Y-33245952D01*
X76477555Y-33259118D01*
X76311351Y-33237227D01*
X76172036Y-33172622D01*
X76061463Y-33066909D01*
X75981483Y-32921692D01*
X75944658Y-32797245D01*
X75938219Y-32740220D01*
X75932597Y-32634098D01*
X75927821Y-32480677D01*
X75923923Y-32281755D01*
X75920933Y-32039133D01*
X75918884Y-31754608D01*
X75917804Y-31429978D01*
X75917635Y-31224887D01*
X75917635Y-29778533D01*
X76109557Y-29749988D01*
X76209381Y-29736086D01*
X76294434Y-29725928D01*
X76347935Y-29721496D01*
X76351340Y-29721443D01*
X76361951Y-29722588D01*
X76370939Y-29728623D01*
X76378440Y-29743446D01*
X76384589Y-29770956D01*
X76389520Y-29815053D01*
X76393369Y-29879634D01*
X76396271Y-29968600D01*
X76398361Y-30085849D01*
X76399774Y-30235280D01*
X76400644Y-30420792D01*
X76401107Y-30646284D01*
X76401297Y-30915655D01*
X76401344Y-31165782D01*
X76401880Y-31519754D01*
X76403399Y-31830103D01*
X76405882Y-32095710D01*
X76409309Y-32315455D01*
X76413662Y-32488221D01*
X76418919Y-32612887D01*
X76425062Y-32688335D01*
X76428448Y-32707214D01*
X76478072Y-32816396D01*
X76549964Y-32883797D01*
X76636429Y-32907311D01*
X76729773Y-32884830D01*
X76821721Y-32814862D01*
X76866742Y-32764477D01*
X76903323Y-32714523D01*
X76932421Y-32659161D01*
X76954989Y-32592552D01*
X76971981Y-32508856D01*
X76984354Y-32402234D01*
X76993062Y-32266845D01*
X76999059Y-32096852D01*
X77003300Y-31886413D01*
X77006039Y-31687525D01*
X77015859Y-30892185D01*
X76924863Y-30892185D01*
X76864315Y-30888472D01*
X76839147Y-30867243D01*
X76833894Y-30813357D01*
X76833868Y-30803106D01*
X76837808Y-30743403D01*
X76860036Y-30718919D01*
X76916166Y-30714039D01*
X76922946Y-30714028D01*
X77012024Y-30714028D01*
X77012024Y-30033042D01*
X77203946Y-30004497D01*
X77316576Y-29986786D01*
X77395982Y-29977139D01*
X77447912Y-29982266D01*
X77478110Y-30008872D01*
X77492322Y-30063668D01*
X77496295Y-30153361D01*
X77495773Y-30284659D01*
X77495591Y-30344990D01*
X77495591Y-30714028D01*
X77877355Y-30714028D01*
X77877355Y-30892185D01*
X77495591Y-30892185D01*
X77495733Y-31751152D01*
X77496609Y-31998445D01*
X77499070Y-32216036D01*
X77502998Y-32399735D01*
X77508274Y-32545347D01*
X77514779Y-32648680D01*
X77522394Y-32705541D01*
X77522837Y-32707214D01*
X77570312Y-32816406D01*
X77640702Y-32880999D01*
X77735995Y-32902794D01*
X77738639Y-32902806D01*
X77863280Y-32880502D01*
X77970378Y-32812257D01*
X78049052Y-32718254D01*
X78080727Y-32671371D01*
X78107480Y-32630241D01*
X78129750Y-32590310D01*
X78147976Y-32547021D01*
X78162595Y-32495820D01*
X78174047Y-32432153D01*
X78182769Y-32351464D01*
X78189201Y-32249199D01*
X78193779Y-32120804D01*
X78196944Y-31961722D01*
X78199132Y-31767400D01*
X78200783Y-31533282D01*
X78202335Y-31254814D01*
X78203096Y-31117789D01*
X78210701Y-29778163D01*
X78401380Y-29749803D01*
X78486961Y-29735441D01*
X78554054Y-29724223D01*
X78604882Y-29721305D01*
X78641665Y-29731848D01*
X78666626Y-29761009D01*
X78681985Y-29813948D01*
X78689965Y-29895822D01*
X78692787Y-30011790D01*
X78692672Y-30167010D01*
X78691842Y-30366642D01*
X78691784Y-30424122D01*
X78691784Y-31126801D01*
X78776751Y-31003130D01*
X78845927Y-30917416D01*
X78927529Y-30836800D01*
X78969237Y-30803520D01*
X79036065Y-30761754D01*
X79101871Y-30736920D01*
X79185754Y-30723538D01*
X79267596Y-30717944D01*
X79461520Y-30725116D01*
X79621294Y-30768845D01*
X79749409Y-30850354D01*
X79848358Y-30970870D01*
X79873118Y-31015587D01*
X79910649Y-31097053D01*
X79939564Y-31179770D01*
X79960618Y-31271142D01*
X79974566Y-31378575D01*
X79982161Y-31509476D01*
X79984157Y-31671249D01*
X79981309Y-31871301D01*
X79976933Y-32034921D01*
X79971463Y-32228997D01*
X79968339Y-32379434D01*
X79967826Y-32493453D01*
X79970186Y-32578275D01*
X79975684Y-32641121D01*
X79984584Y-32689210D01*
X79997148Y-32729765D01*
X80002849Y-32744480D01*
X80062223Y-32841767D01*
X80139006Y-32895509D01*
X80225679Y-32906539D01*
X80314722Y-32875693D01*
X80398615Y-32803805D01*
X80469349Y-32692737D01*
X80489088Y-32645584D01*
X80503026Y-32594349D01*
X80512093Y-32529458D01*
X80517219Y-32441343D01*
X80519334Y-32320431D01*
X80519438Y-32177455D01*
X80519945Y-32050201D01*
X81046461Y-32050201D01*
X81051597Y-32265537D01*
X81069232Y-32438186D01*
X81101768Y-32575352D01*
X81151603Y-32684235D01*
X81221137Y-32772040D01*
X81311233Y-32844936D01*
X81416666Y-32889236D01*
X81543497Y-32902833D01*
X81671973Y-32884983D01*
X81737237Y-32860992D01*
X81840503Y-32784609D01*
X81925922Y-32664300D01*
X81991829Y-32504396D01*
X82036561Y-32309232D01*
X82058455Y-32083140D01*
X82060205Y-32019595D01*
X82064028Y-31747602D01*
X81975562Y-31729146D01*
X81878305Y-31686990D01*
X81817949Y-31610448D01*
X81796801Y-31502478D01*
X81796794Y-31500187D01*
X81814373Y-31406883D01*
X81861101Y-31336671D01*
X81927965Y-31301400D01*
X81949499Y-31299399D01*
X81984762Y-31296868D01*
X81996578Y-31282048D01*
X81984859Y-31244101D01*
X81949521Y-31172188D01*
X81948473Y-31170132D01*
X81869315Y-31063284D01*
X81766815Y-30995416D01*
X81649855Y-30966106D01*
X81527322Y-30974936D01*
X81408100Y-31021483D01*
X81301073Y-31105328D01*
X81227095Y-31204271D01*
X81150114Y-31361154D01*
X81096071Y-31530775D01*
X81062711Y-31723701D01*
X81047778Y-31950499D01*
X81046461Y-32050201D01*
X80519945Y-32050201D01*
X80520114Y-32007879D01*
X80524054Y-31876789D01*
X80532331Y-31771816D01*
X80546019Y-31680592D01*
X80566193Y-31590749D01*
X80572489Y-31566633D01*
X80653812Y-31321306D01*
X80756047Y-31120035D01*
X80881414Y-30959533D01*
X81032133Y-30836512D01*
X81087533Y-30803731D01*
X81176337Y-30761499D01*
X81264169Y-30736226D01*
X81372511Y-30722562D01*
X81427440Y-30719095D01*
X81540521Y-30717519D01*
X81648467Y-30723266D01*
X81729622Y-30735106D01*
X81735607Y-30736625D01*
X81892140Y-30804592D01*
X82025793Y-30916207D01*
X82134011Y-31068448D01*
X82214239Y-31258297D01*
X82233164Y-31324850D01*
X82275384Y-31490281D01*
X82417819Y-31485323D01*
X82511842Y-31476439D01*
X82595708Y-31459181D01*
X82630278Y-31446849D01*
X82700301Y-31413333D01*
X82713021Y-30714028D01*
X83191482Y-30714028D01*
X83967435Y-30714028D01*
X83953865Y-30389529D01*
X83940207Y-30188532D01*
X83916143Y-30032934D01*
X83878770Y-29917788D01*
X83825184Y-29838146D01*
X83752482Y-29789063D01*
X83657758Y-29765590D01*
X83585368Y-29761725D01*
X83456845Y-29778377D01*
X83357800Y-29832603D01*
X83279509Y-29929858D01*
X83260458Y-29964869D01*
X83237651Y-30019890D01*
X83221612Y-30086664D01*
X83210799Y-30176138D01*
X83203668Y-30299258D01*
X83200638Y-30389529D01*
X83191482Y-30714028D01*
X82713021Y-30714028D01*
X82713026Y-30713731D01*
X82717095Y-30504129D01*
X82721149Y-30338823D01*
X82725725Y-30211207D01*
X82731359Y-30114677D01*
X82738591Y-30042629D01*
X82747955Y-29988460D01*
X82759990Y-29945563D01*
X82775232Y-29907337D01*
X82779342Y-29898306D01*
X82882148Y-29726961D01*
X83012005Y-29598725D01*
X83168802Y-29513670D01*
X83352428Y-29471867D01*
X83445557Y-29467183D01*
X83636981Y-29485735D01*
X83794474Y-29542083D01*
X83918414Y-29636424D01*
X84002148Y-29755046D01*
X84039631Y-29826826D01*
X84145249Y-29706838D01*
X84281902Y-29582964D01*
X84435920Y-29505033D01*
X84613630Y-29470243D01*
X84685471Y-29467742D01*
X84879872Y-29488534D01*
X85043581Y-29549892D01*
X85176071Y-29651382D01*
X85276816Y-29792568D01*
X85345290Y-29973017D01*
X85356784Y-30021744D01*
X85375849Y-30115649D01*
X85381104Y-30170322D01*
X85369075Y-30196375D01*
X85336289Y-30204416D01*
X85296778Y-30205010D01*
X85234699Y-30198966D01*
X85204934Y-30172720D01*
X85193548Y-30135020D01*
X85159657Y-30025120D01*
X85108941Y-29920776D01*
X85050708Y-29839062D01*
X85014750Y-29807143D01*
X84922190Y-29770964D01*
X84810633Y-29761395D01*
X84702246Y-29778146D01*
X84630120Y-29812164D01*
X84564259Y-29871077D01*
X84516045Y-29943093D01*
X84482751Y-30036849D01*
X84461647Y-30160982D01*
X84450005Y-30324131D01*
X84447732Y-30389529D01*
X84438576Y-30714028D01*
X84850902Y-30714028D01*
X84850902Y-30892185D01*
X84446274Y-30892185D01*
X84438538Y-32412876D01*
X84430801Y-33933567D01*
X84371640Y-34080307D01*
X84284977Y-34247867D01*
X84175868Y-34371247D01*
X84040135Y-34453221D01*
X83873595Y-34496563D01*
X83731062Y-34505405D01*
X83565322Y-34493354D01*
X83430780Y-34453770D01*
X83312486Y-34380594D01*
X83226235Y-34300856D01*
X83169528Y-34244754D01*
X83128340Y-34209460D01*
X83113282Y-34202489D01*
X83011296Y-34332423D01*
X82914070Y-34421007D01*
X82809604Y-34474954D01*
X82685898Y-34500978D01*
X82570404Y-34506213D01*
X82445700Y-34499919D01*
X82348766Y-34478153D01*
X82280881Y-34448948D01*
X82202454Y-34400003D01*
X82136810Y-34344127D01*
X82119229Y-34323589D01*
X82075307Y-34227375D01*
X82056320Y-34105057D01*
X82061896Y-34006029D01*
X82230689Y-34006029D01*
X82233499Y-34102866D01*
X82260755Y-34175443D01*
X82262082Y-34177198D01*
X82342786Y-34245286D01*
X82440675Y-34274360D01*
X82540062Y-34260655D01*
X82564149Y-34249655D01*
X82609017Y-34207796D01*
X82648374Y-34143385D01*
X82650541Y-34138367D01*
X82667019Y-34079545D01*
X82681882Y-33992209D01*
X82689383Y-33929315D01*
X83179685Y-33929315D01*
X83180413Y-34000834D01*
X83186185Y-34048175D01*
X83197767Y-34080222D01*
X83215927Y-34105859D01*
X83228461Y-34119861D01*
X83332857Y-34202239D01*
X83458861Y-34254541D01*
X83591428Y-34273446D01*
X83715511Y-34255634D01*
X83760007Y-34237171D01*
X83819622Y-34196025D01*
X83865862Y-34137545D01*
X83900512Y-34055387D01*
X83925354Y-33943209D01*
X83942171Y-33794667D01*
X83952745Y-33603418D01*
X83954742Y-33544239D01*
X83967362Y-33128199D01*
X83868300Y-33146372D01*
X83802535Y-33159842D01*
X83702382Y-33182014D01*
X83582897Y-33209501D01*
X83489279Y-33231655D01*
X83209319Y-33298766D01*
X83190284Y-33678211D01*
X83183231Y-33824735D01*
X83179685Y-33929315D01*
X82689383Y-33929315D01*
X82694326Y-33887872D01*
X82703545Y-33778049D01*
X82708735Y-33674254D01*
X82709090Y-33588000D01*
X82703805Y-33530801D01*
X82694224Y-33513627D01*
X82649549Y-33529499D01*
X82579879Y-33571036D01*
X82497380Y-33629119D01*
X82414222Y-33694630D01*
X82342571Y-33758449D01*
X82294594Y-33811458D01*
X82292146Y-33814954D01*
X82250759Y-33903776D01*
X82230689Y-34006029D01*
X82061896Y-34006029D01*
X82063607Y-33975636D01*
X82088171Y-33882548D01*
G37*
G36*
X88837631Y-61329361D02*
G01*
X88953743Y-61041028D01*
X89116518Y-60772777D01*
X89182961Y-60685524D01*
X89402974Y-60450671D01*
X89650658Y-60257966D01*
X89923412Y-60108636D01*
X90218629Y-60003910D01*
X90533706Y-59945017D01*
X90780962Y-59931663D01*
X91042467Y-59943782D01*
X91276980Y-59982864D01*
X91502980Y-60052995D01*
X91684469Y-60131514D01*
X91950612Y-60286681D01*
X92189364Y-60481987D01*
X92396555Y-60712271D01*
X92568013Y-60972375D01*
X92699567Y-61257140D01*
X92765874Y-61469152D01*
X92801566Y-61668312D01*
X92817636Y-61894233D01*
X92814072Y-62126701D01*
X92790865Y-62345504D01*
X92766384Y-62466320D01*
X92665700Y-62764893D01*
X92521509Y-63041666D01*
X92338103Y-63292349D01*
X92119769Y-63512652D01*
X91870797Y-63698287D01*
X91595477Y-63844965D01*
X91298097Y-63948396D01*
X91279546Y-63953158D01*
X91094131Y-63986260D01*
X90881051Y-64002453D01*
X90659392Y-64001772D01*
X90448242Y-63984251D01*
X90271944Y-63951310D01*
X89974924Y-63848887D01*
X89698352Y-63703590D01*
X89447639Y-63519824D01*
X89228194Y-63301991D01*
X89045431Y-63054496D01*
X88944740Y-62871243D01*
X88847667Y-62639101D01*
X88784820Y-62412802D01*
X88758734Y-62222245D01*
X89282102Y-62222245D01*
X89320271Y-62355862D01*
X89399818Y-62576381D01*
X89508473Y-62772185D01*
X89655090Y-62958196D01*
X89715830Y-63022541D01*
X89796049Y-63102402D01*
X89862810Y-63165276D01*
X89908557Y-63204285D01*
X89925417Y-63213423D01*
X89924152Y-63185547D01*
X89911474Y-63120118D01*
X89889768Y-63028582D01*
X89875325Y-62973046D01*
X89843825Y-62839217D01*
X89813303Y-62682200D01*
X89788952Y-62529531D01*
X89782955Y-62483116D01*
X89751891Y-62222245D01*
X90291465Y-62222245D01*
X90309733Y-62394038D01*
X90338160Y-62586021D01*
X90380800Y-62774796D01*
X90434751Y-62953735D01*
X90497106Y-63116210D01*
X90564962Y-63255591D01*
X90635413Y-63365252D01*
X90705555Y-63438564D01*
X90772484Y-63468898D01*
X90780962Y-63469339D01*
X90826675Y-63452307D01*
X90883475Y-63410257D01*
X90894819Y-63399443D01*
X90974024Y-63296181D01*
X91024263Y-63201242D01*
X91627687Y-63201242D01*
X91634055Y-63214830D01*
X91658616Y-63198331D01*
X91710296Y-63154181D01*
X91779898Y-63090398D01*
X91815385Y-63056689D01*
X92001516Y-62846683D01*
X92141267Y-62619291D01*
X92206967Y-62461835D01*
X92243030Y-62353197D01*
X92256810Y-62283654D01*
X92241995Y-62244486D01*
X92192276Y-62226976D01*
X92101344Y-62222403D01*
X92033574Y-62222245D01*
X91810033Y-62222245D01*
X91778617Y-62483116D01*
X91740290Y-62731437D01*
X91687116Y-62976195D01*
X91635810Y-63157565D01*
X91627687Y-63201242D01*
X91024263Y-63201242D01*
X91050300Y-63152040D01*
X91120086Y-62977040D01*
X91179821Y-62781199D01*
X91225942Y-62574536D01*
X91252191Y-62394038D01*
X91270459Y-62222245D01*
X90291465Y-62222245D01*
X89751891Y-62222245D01*
X89282102Y-62222245D01*
X88758734Y-62222245D01*
X88752111Y-62173867D01*
X88744890Y-61967736D01*
X88762777Y-61713227D01*
X89282102Y-61713227D01*
X89751891Y-61713227D01*
X90291465Y-61713227D01*
X91270459Y-61713227D01*
X91252191Y-61541433D01*
X91223288Y-61346096D01*
X91180052Y-61155122D01*
X91125368Y-60975036D01*
X91062126Y-60812362D01*
X91017265Y-60722048D01*
X91636507Y-60722048D01*
X91637772Y-60749925D01*
X91650450Y-60815353D01*
X91672156Y-60906889D01*
X91686600Y-60962425D01*
X91718099Y-61096254D01*
X91748621Y-61253272D01*
X91772972Y-61405941D01*
X91778970Y-61452355D01*
X91810033Y-61713227D01*
X92279822Y-61713227D01*
X92241744Y-61579609D01*
X92158721Y-61354005D01*
X92041631Y-61149385D01*
X91883032Y-60953253D01*
X91844687Y-60912930D01*
X91764902Y-60832945D01*
X91698529Y-60770016D01*
X91653109Y-60731059D01*
X91636507Y-60722048D01*
X91017265Y-60722048D01*
X90993212Y-60673624D01*
X90921515Y-60565348D01*
X90849922Y-60494059D01*
X90781321Y-60466280D01*
X90776276Y-60466132D01*
X90711379Y-60490249D01*
X90642689Y-60558148D01*
X90573105Y-60663150D01*
X90505525Y-60798576D01*
X90442845Y-60957747D01*
X90387963Y-61133985D01*
X90343778Y-61320612D01*
X90313187Y-61510948D01*
X90309733Y-61541433D01*
X90291465Y-61713227D01*
X89751891Y-61713227D01*
X89782955Y-61452355D01*
X89803993Y-61307521D01*
X89832983Y-61148892D01*
X89864732Y-61004006D01*
X89875325Y-60962425D01*
X89900871Y-60861645D01*
X89918660Y-60780870D01*
X89926308Y-60731544D01*
X89925417Y-60722048D01*
X89904308Y-60734473D01*
X89855562Y-60776796D01*
X89786734Y-60842136D01*
X89715830Y-60912930D01*
X89554124Y-61099020D01*
X89433423Y-61289776D01*
X89344873Y-61500120D01*
X89320271Y-61579609D01*
X89282102Y-61713227D01*
X88762777Y-61713227D01*
X88768054Y-61638142D01*
X88837631Y-61329361D01*
G37*
G36*
X71463728Y-32737375D02*
G01*
X71451002Y-32750100D01*
X71438277Y-32737375D01*
X71451002Y-32724649D01*
X71463728Y-32737375D01*
G37*
G36*
X68816834Y-42434168D02*
G01*
X68804108Y-42446894D01*
X68791383Y-42434168D01*
X68804108Y-42421443D01*
X68816834Y-42434168D01*
G37*
G36*
X68893186Y-27087275D02*
G01*
X68880461Y-27100000D01*
X68867736Y-27087275D01*
X68880461Y-27074549D01*
X68893186Y-27087275D01*
G37*
G36*
X58814629Y-45742786D02*
G01*
X58801904Y-45755511D01*
X58789178Y-45742786D01*
X58801904Y-45730060D01*
X58814629Y-45742786D01*
G37*
G36*
X59425451Y-36784068D02*
G01*
X59412726Y-36796794D01*
X59400000Y-36784068D01*
X59412726Y-36771343D01*
X59425451Y-36784068D01*
G37*
G36*
X59934469Y-27290882D02*
G01*
X59921744Y-27303607D01*
X59909018Y-27290882D01*
X59921744Y-27278156D01*
X59934469Y-27290882D01*
G37*
G36*
X77393788Y-41339780D02*
G01*
X77381062Y-41352505D01*
X77368337Y-41339780D01*
X77381062Y-41327054D01*
X77393788Y-41339780D01*
G37*
%TD*%
D10*
%TO.C,D7*%
X114085000Y-68820000D03*
X114085000Y-69920000D03*
X115915000Y-69920000D03*
X115915000Y-68820000D03*
%TD*%
D11*
%TO.C,C_{power}2*%
X72973726Y-67973726D03*
X73426274Y-68426274D03*
%TD*%
D12*
%TO.C,C_{clock}2*%
X70250000Y-76820000D03*
X70250000Y-76180000D03*
%TD*%
%TO.C,C_{power}17*%
X61672221Y-59085000D03*
X61672221Y-58445000D03*
%TD*%
D13*
%TO.C,Y1*%
X57200000Y-64750000D03*
X57200000Y-63250000D03*
%TD*%
D14*
%TO.C,U2*%
X68759106Y-69907798D03*
X68476263Y-69624955D03*
X68193421Y-69342113D03*
X67910578Y-69059270D03*
X67627735Y-68776427D03*
X67344893Y-68493585D03*
X67062050Y-68210742D03*
X66779207Y-67927899D03*
X66496364Y-67645056D03*
X66213522Y-67362214D03*
X65930679Y-67079371D03*
X65647836Y-66796528D03*
X65364994Y-66513686D03*
X65082151Y-66230843D03*
D15*
X63897747Y-66230843D03*
X63614904Y-66513686D03*
X63332062Y-66796528D03*
X63049219Y-67079371D03*
X62766376Y-67362214D03*
X62483534Y-67645056D03*
X62200691Y-67927899D03*
X61917848Y-68210742D03*
X61635005Y-68493585D03*
X61352163Y-68776427D03*
X61069320Y-69059270D03*
X60786477Y-69342113D03*
X60503635Y-69624955D03*
X60220792Y-69907798D03*
D14*
X60220792Y-71092202D03*
X60503635Y-71375045D03*
X60786477Y-71657887D03*
X61069320Y-71940730D03*
X61352163Y-72223573D03*
X61635005Y-72506415D03*
X61917848Y-72789258D03*
X62200691Y-73072101D03*
X62483534Y-73354944D03*
X62766376Y-73637786D03*
X63049219Y-73920629D03*
X63332062Y-74203472D03*
X63614904Y-74486314D03*
X63897747Y-74769157D03*
D15*
X65082151Y-74769157D03*
X65364994Y-74486314D03*
X65647836Y-74203472D03*
X65930679Y-73920629D03*
X66213522Y-73637786D03*
X66496364Y-73354944D03*
X66779207Y-73072101D03*
X67062050Y-72789258D03*
X67344893Y-72506415D03*
X67627735Y-72223573D03*
X67910578Y-71940730D03*
X68193421Y-71657887D03*
X68476263Y-71375045D03*
X68759106Y-71092202D03*
D16*
X64489949Y-70500000D03*
%TD*%
D17*
%TO.C,R_{touch}5*%
X66982322Y-65423726D03*
X66529774Y-65876274D03*
%TD*%
D12*
%TO.C,C_{power}16*%
X60753130Y-59085000D03*
X60753130Y-58445000D03*
%TD*%
D11*
%TO.C,R2*%
X68600000Y-75200000D03*
X69052548Y-75652548D03*
%TD*%
D18*
%TO.C,C_{LED}4*%
X120547064Y-29495234D03*
X119907064Y-29495234D03*
%TD*%
D17*
%TO.C,R_{touch}7*%
X65782322Y-64217678D03*
X65329774Y-64670226D03*
%TD*%
D19*
%TO.C,R_{i2c}2*%
X61376274Y-74276274D03*
X60923726Y-73823726D03*
%TD*%
D11*
%TO.C,R_{touch}10*%
X63329774Y-64129774D03*
X63782322Y-64582322D03*
%TD*%
D20*
%TO.C,U1*%
X114940826Y-67834875D03*
D21*
X114465826Y-67434875D03*
D22*
X114940826Y-67034875D03*
X113990826Y-67034875D03*
X113990826Y-67834875D03*
%TD*%
D23*
%TO.C,C_{filterU}1*%
X63620000Y-49395000D03*
X63620000Y-50035000D03*
%TD*%
D11*
%TO.C,C_{power}12*%
X61973726Y-76873726D03*
X62426274Y-77326274D03*
%TD*%
D17*
%TO.C,R_{touch}4*%
X67582322Y-66017678D03*
X67129774Y-66470226D03*
%TD*%
D19*
%TO.C,C_{power}3*%
X70126274Y-69526274D03*
X69673726Y-69073726D03*
%TD*%
D24*
%TO.C,C2*%
X86100000Y-68470000D03*
X86100000Y-69430000D03*
%TD*%
D11*
%TO.C,R_{touch}13*%
X61529774Y-65929774D03*
X61982322Y-66382322D03*
%TD*%
D25*
%TO.C,TH1*%
X58460624Y-72639376D03*
X57739376Y-73360624D03*
%TD*%
D11*
%TO.C,C_{power}7*%
X66317678Y-75317678D03*
X66770226Y-75770226D03*
%TD*%
D19*
%TO.C,R_{set}1*%
X70026274Y-67226274D03*
X69573726Y-66773726D03*
%TD*%
D26*
%TO.C,C_{rtcclock}1*%
X57160000Y-65900000D03*
X57800000Y-65900000D03*
%TD*%
D11*
%TO.C,R_{set}2*%
X68117678Y-73517678D03*
X68570226Y-73970226D03*
%TD*%
D17*
%TO.C,R_{touch}8*%
X65182322Y-63617678D03*
X64729774Y-64070226D03*
%TD*%
D18*
%TO.C,D_{filterU}3*%
X64340000Y-53000000D03*
X63700000Y-53000000D03*
%TD*%
D11*
%TO.C,R_{spi}10*%
X68017678Y-75817678D03*
X68470226Y-76270226D03*
%TD*%
%TO.C,R_{spi}7*%
X66823726Y-77023726D03*
X67276274Y-77476274D03*
%TD*%
D26*
%TO.C,C_{rtcclock}2*%
X64980000Y-79150000D03*
X65620000Y-79150000D03*
%TD*%
D11*
%TO.C,R_{spi}11*%
X67517678Y-74117678D03*
X67970226Y-74570226D03*
%TD*%
D26*
%TO.C,D_{filterU}2*%
X63680000Y-51700000D03*
X64320000Y-51700000D03*
%TD*%
D17*
%TO.C,C_{power}9*%
X58782322Y-69617678D03*
X58329774Y-70070226D03*
%TD*%
D11*
%TO.C,R12*%
X56723726Y-73623726D03*
X57176274Y-74076274D03*
%TD*%
D10*
%TO.C,D3*%
X121855000Y-28470000D03*
X121855000Y-27370000D03*
X120025000Y-27370000D03*
X120025000Y-28470000D03*
%TD*%
D27*
%TO.C,C_{power}15*%
X57838454Y-58801565D03*
X59488454Y-58801565D03*
%TD*%
D28*
%TO.C,Y_{clock}1*%
X73350000Y-76600000D03*
X71600000Y-76600000D03*
X71600000Y-78000000D03*
X73350000Y-78000000D03*
%TD*%
D11*
%TO.C,R4*%
X69217678Y-74600000D03*
X69670226Y-75052548D03*
%TD*%
D10*
%TO.C,D6*%
X129725000Y-61120000D03*
X129725000Y-62220000D03*
X131555000Y-62220000D03*
X131555000Y-61120000D03*
%TD*%
D18*
%TO.C,C_{LED}3*%
X136879846Y-39700082D03*
X136239846Y-39700082D03*
%TD*%
D12*
%TO.C,C_{power}11*%
X65200000Y-53765000D03*
X65200000Y-53125000D03*
%TD*%
D17*
%TO.C,C_{power}4*%
X70382322Y-72417678D03*
X69929774Y-72870226D03*
%TD*%
D29*
%TO.C,R_{shield}2*%
X66035425Y-49643173D03*
X66035425Y-51293173D03*
%TD*%
D11*
%TO.C,C_{power}14*%
X60773726Y-78073726D03*
X61226274Y-78526274D03*
%TD*%
D17*
%TO.C,R_{touch}2*%
X68782322Y-67217678D03*
X68329774Y-67670226D03*
%TD*%
D12*
%TO.C,R9*%
X58400000Y-60720000D03*
X58400000Y-60080000D03*
%TD*%
D11*
%TO.C,C_{power}13*%
X61373726Y-77473726D03*
X61826274Y-77926274D03*
%TD*%
D23*
%TO.C,R_{rtcclock}1*%
X58709159Y-64360000D03*
X58709159Y-65000000D03*
%TD*%
%TO.C,C_{LED}1*%
X116053318Y-67166807D03*
X116053318Y-67806807D03*
%TD*%
D17*
%TO.C,C_{power}8*%
X58126274Y-68973726D03*
X57673726Y-69426274D03*
%TD*%
%TO.C,R_{touch}6*%
X66382322Y-64817678D03*
X65929774Y-65270226D03*
%TD*%
D23*
%TO.C,C_{power}10*%
X67300000Y-50935000D03*
X67300000Y-51575000D03*
%TD*%
D27*
%TO.C,R_{shield}1*%
X63925000Y-57000000D03*
X65575000Y-57000000D03*
%TD*%
D12*
%TO.C,R5*%
X60200000Y-60720000D03*
X60200000Y-60080000D03*
%TD*%
D17*
%TO.C,R_{touch}3*%
X68182322Y-66617678D03*
X67729774Y-67070226D03*
%TD*%
D26*
%TO.C,D_{filter}1*%
X65280000Y-60300000D03*
X65920000Y-60300000D03*
%TD*%
D30*
%TO.C,J1*%
X60825000Y-55390000D03*
X60825000Y-49610000D03*
D31*
X61885000Y-49300000D03*
X61885000Y-50100000D03*
D32*
X61885000Y-51250000D03*
X61885000Y-52250000D03*
X61885000Y-52750000D03*
X61885000Y-53750000D03*
D31*
X61885000Y-54900000D03*
X61885000Y-55700000D03*
X61885000Y-55700000D03*
X61885000Y-54900000D03*
D32*
X61885000Y-54250000D03*
X61885000Y-53250000D03*
X61885000Y-51750000D03*
X61885000Y-50750000D03*
D31*
X61885000Y-50100000D03*
X61885000Y-49300000D03*
D33*
X57135000Y-48180000D03*
X57135000Y-56820000D03*
D34*
X61305000Y-56820000D03*
X61305000Y-48180000D03*
%TD*%
D12*
%TO.C,R6*%
X59300000Y-60720000D03*
X59300000Y-60080000D03*
%TD*%
D18*
%TO.C,C_{LED}5*%
X113458850Y-39122188D03*
X112818850Y-39122188D03*
%TD*%
D11*
%TO.C,R_{i2c}1*%
X59823726Y-72723726D03*
X60276274Y-73176274D03*
%TD*%
D12*
%TO.C,D_{filterU}1*%
X64600000Y-50025000D03*
X64600000Y-49385000D03*
%TD*%
D17*
%TO.C,R_{touch}9*%
X64582322Y-63017678D03*
X64129774Y-63470226D03*
%TD*%
D35*
%TO.C,U4*%
X57609010Y-76259619D03*
X57891852Y-76542462D03*
X58174695Y-76825305D03*
X58457538Y-77108148D03*
X58740381Y-77390990D03*
D36*
X59659619Y-77390990D03*
X59942462Y-77108148D03*
X60225305Y-76825305D03*
X60508148Y-76542462D03*
X60790990Y-76259619D03*
D35*
X60790990Y-75340381D03*
X60508148Y-75057538D03*
X60225305Y-74774695D03*
X59942462Y-74491852D03*
X59659619Y-74209010D03*
D36*
X58740381Y-74209010D03*
X58457538Y-74491852D03*
X58174695Y-74774695D03*
X57891852Y-75057538D03*
X57609010Y-75340381D03*
D37*
X59200000Y-75800000D03*
%TD*%
D18*
%TO.C,C_{filter}1*%
X64320000Y-60300000D03*
X63680000Y-60300000D03*
%TD*%
D12*
%TO.C,R8*%
X61100000Y-60720000D03*
X61100000Y-60080000D03*
%TD*%
D11*
%TO.C,R_{spi}9*%
X66929774Y-74729774D03*
X67382322Y-75182322D03*
%TD*%
D17*
%TO.C,C_{clock}1*%
X70382322Y-73617678D03*
X69929774Y-74070226D03*
%TD*%
D26*
%TO.C,R_{cc}1*%
X63680000Y-50900000D03*
X64320000Y-50900000D03*
%TD*%
D12*
%TO.C,R7*%
X62000000Y-60720000D03*
X62000000Y-60080000D03*
%TD*%
D19*
%TO.C,L_{power}1*%
X70726274Y-68926274D03*
X70273726Y-68473726D03*
%TD*%
D18*
%TO.C,C_{clock}4*%
X64020000Y-79150000D03*
X63380000Y-79150000D03*
%TD*%
D26*
%TO.C,R_{cc}2*%
X63700000Y-53800000D03*
X64340000Y-53800000D03*
%TD*%
D38*
%TO.C,U7*%
X65096402Y-59276753D03*
X65096402Y-58876753D03*
X65096402Y-58476753D03*
X63846402Y-58476753D03*
X63846402Y-58876753D03*
X63846402Y-59276753D03*
D39*
X64471402Y-58876753D03*
%TD*%
D12*
%TO.C,R10*%
X57527179Y-60723377D03*
X57527179Y-60083377D03*
%TD*%
D24*
%TO.C,C1*%
X83200000Y-68520000D03*
X83200000Y-69480000D03*
%TD*%
D26*
%TO.C,C_{clock}3*%
X57180000Y-62100000D03*
X57820000Y-62100000D03*
%TD*%
D11*
%TO.C,R_{spi}8*%
X67417678Y-76417678D03*
X67870226Y-76870226D03*
%TD*%
D19*
%TO.C,C_{power}6*%
X60796274Y-67576274D03*
X60343726Y-67123726D03*
%TD*%
D40*
%TO.C,Y2*%
X65250000Y-77700000D03*
X63750000Y-77700000D03*
%TD*%
D19*
%TO.C,R_{clock}1*%
X69170226Y-73370226D03*
X68717678Y-72917678D03*
%TD*%
D41*
%TO.C,C_{shield}2*%
X65545000Y-48006000D03*
X63995000Y-48006000D03*
%TD*%
D11*
%TO.C,R_{spi}6*%
X65717678Y-75917678D03*
X66170226Y-76370226D03*
%TD*%
D10*
%TO.C,D2*%
X113345000Y-41300000D03*
X113345000Y-40200000D03*
X111515000Y-40200000D03*
X111515000Y-41300000D03*
%TD*%
D42*
%TO.C,L1*%
X84165000Y-68450000D03*
X85135000Y-68450000D03*
%TD*%
D11*
%TO.C,R11*%
X70873726Y-67873726D03*
X71326274Y-68326274D03*
%TD*%
D10*
%TO.C,D4*%
X136785000Y-41790000D03*
X136785000Y-40690000D03*
X134955000Y-40690000D03*
X134955000Y-41790000D03*
%TD*%
D17*
%TO.C,C_{power}5*%
X69782322Y-71817678D03*
X69329774Y-72270226D03*
%TD*%
D11*
%TO.C,R_{touch}11*%
X62729774Y-64729774D03*
X63182322Y-65182322D03*
%TD*%
D26*
%TO.C,C_{LED}2*%
X131000000Y-60128017D03*
X131640000Y-60128017D03*
%TD*%
%TO.C,C_{filter}2*%
X65280000Y-61189949D03*
X65920000Y-61189949D03*
%TD*%
D43*
%TO.C,C_{power}1*%
X71216637Y-70183363D03*
X72383363Y-69016637D03*
%TD*%
D11*
%TO.C,R_{usb}2*%
X58947452Y-68500000D03*
X59400000Y-68952548D03*
%TD*%
%TO.C,R_{touch}12*%
X62129774Y-65329774D03*
X62582322Y-65782322D03*
%TD*%
%TO.C,R3*%
X70173726Y-66173726D03*
X70626274Y-66626274D03*
%TD*%
D19*
%TO.C,C_{power}18*%
X71926274Y-67726274D03*
X71473726Y-67273726D03*
%TD*%
D11*
%TO.C,R_{usb}1*%
X59573726Y-67883726D03*
X60026274Y-68336274D03*
%TD*%
D44*
%TO.C,C_{shield}1*%
X63975000Y-55250000D03*
X65525000Y-55250000D03*
%TD*%
D11*
%TO.C,R_{touch}14*%
X60929774Y-66529774D03*
X61382322Y-66982322D03*
%TD*%
D17*
%TO.C,R_{touch}1*%
X69382322Y-67823726D03*
X68929774Y-68276274D03*
%TD*%
D23*
%TO.C,R1*%
X62600000Y-58445000D03*
X62600000Y-59085000D03*
%TD*%
M02*
